group;is a member of
TietoAllasTutkimus Surgical Compilation Smoker;HUS DataWS Prod Surcigal Compilation Smoker Readers
TietoAllas BI Kayttaja;HUS DataWS Prod BIDL Readers
TietoAllasTutkimus Biopankki;HUS Data Prod Storage Clarity Readers
TietoAllasTutkimus InfokantaLue;HUS DataWS Prod Infokanta Readers
TietoAllas BI Kayttaja;HUS Data Prod Storage Huskorona Vaestotaso Readers
TietoAllasTutkimus Lett;HUS DataWS Prod Lett Readers
TietoAllas BI Kayttaja;HUS DataWS Prod koronahelsinki Readers
TietoAllasTutkimus HoitosuudenDW;HUS DataWS Prod DWDL Readers
TietoAllasTutkimus Akuutti;HUS DataWS Prod Akuutti Readers
TietoAllasTutkimus Rasvamaksa;HUS DataWS Prod Rasvamaksa Readers
TietoAllasTutkimus hbb_aalto;HUS DataWS Prod HBBAalto Readers
TietoAllasTutkimus Finnprostata IX;HUS DataWS Prod FinnProstata Readers
TietoAllasTutkimus Biopankki;HUS Data Prod Storage Tilannekanta Apotti Readers
TietoAllasTutkimus Biopankki;HUS Data Prod Storage Apotti Extracts Readers
TietoAllas BI Kayttaja;HUS Data Prod Storage Huskorona Readers
TietoAllasTutkimus HRUHLAB2;HUS DataWS Prod Hemadatalake_aic-815 Readers
TietoAllasTutkimus Lett Accenture;HUS DataWS Prod Lett Accenture Readers
TietoAllasTutkimus eCare4Me;HUS DataWS Prod Hemadatalake_aic-790 Readers
TietoAllasTutkimus Biopankki;HUS DataWS Prod BiopankkiDL Readers
TietoAllasTutkimus Clever health harvinaissairaudet AI PoP;HUS DataWS Prod CleverHealth Readers
TietoAllas BI Kayttaja;HUS DataWS Prod Koronaennakointi Readers
TietoAllasTutkimus HRUHLAB2;HUS DataWS Prod Hematologia Readers
TietoAllas BI Kayttaja;HUS Data Prod Storage Ravioli Readers
TietoAllasTutkimus Biopankki;HUS DataWS Prod Biopankki Readers
TietoAllas BI Kayttaja;HUS Data Prod Storage EPM Readers
TietoAllas BI Kayttaja;HUS Data Prod Storage Pilviharppi Readers
TietoAllasTutkimus Finalk;HUS DataWS Prod MedEngine Readers
TietoAllasTutkimus Ibrance;HUS DataWS Prod Ibrance Readers
TietoAllas BI Kayttaja;HUS DataWS Prod AITeam Readers
TietoAllasTutkimus Biopankki;HUS Data Prod Storage Marela Readers
