is a member of;SP
DataLakeRootAccessors;prod_maindatalake
DataLakeRootAccessors;prod_bidatalake
DataLakeRootAccessors;prod_dwdatalake
DataLakeRootAccessors;file_uploader
DataLakeRootAccessors;logdatafactory
DataLakeRootAccessors;logreader
HUS App Prod Clarity;clarity-df-deployer-sp-app
HUS App Prod OMOP SQL Server Admins;husdl-tu1-omop-df
HUS Data Prod Clarity Access;clarity-sp-app
HUS Data Prod Published Apotti Extracts Readers;prod_dw_reader
HUS Data Prod Published Apotti Extracts Writers;file_uploader
HUS Data Prod Published Apotti Referral and Waiting List Readers;prod_dw_reader
HUS Data Prod Published Apotti Referral and Waiting List Writers;file_uploader
HUS Data Prod Published Asiakaspalaute Writers;file_uploader
HUS Data Prod Published BCB Writers;file_uploader
HUS Data Prod Published CA Writers;file_uploader
HUS Data Prod Published CA2 Writers;file_uploader
HUS Data Prod Published Carea Writers;file_uploader
HUS Data Prod Published Carescape Writers;file_uploader
HUS Data Prod Published Caresuite Writers;file_uploader
HUS Data Prod Published Clinisoft Writers;file_uploader
HUS Data Prod Published Codeserver Writers;file_uploader
HUS Data Prod Published CressidaODS Writers;file_uploader
HUS Data Prod Published Datawell Writers;file_uploader
HUS Data Prod Published EPM Readers;prod_dw_reader
HUS Data Prod Published EPM Writers;file_uploader
HUS Data Prod Published Finnheart_cfmreporting Writers;file_uploader
HUS Data Prod Published Fusion Writers;file_uploader
HUS Data Prod Published HRM Writers;file_uploader
HUS Data Prod Published HUSDW Writers;file_uploader
HUS Data Prod Published HUSRADU Writers;file_uploader
HUS Data Prod Published HaiPro Writers;file_uploader
HUS Data Prod Published HealthWeb Writers;file_uploader
HUS Data Prod Published Hematology_consent Writers;file_uploader
HUS Data Prod Published Huskorona Readers;prod_dw_reader
HUS Data Prod Published Huskorona Vaestotaso Readers;prod_dw_reader
HUS Data Prod Published Huskorona Vaestotaso Writers;file_uploader
HUS Data Prod Published Huskorona Writers;file_uploader
HUS Data Prod Published IDM Writers;file_uploader
HUS Data Prod Published Kaiku Writers;file_uploader
HUS Data Prod Published Labvantage Writers;file_uploader
HUS Data Prod Published Marela Writers;file_uploader
HUS Data Prod Published MerlotMedi Writers;file_uploader
HUS Data Prod Published MerlotMediSFTP Writers;file_uploader
HUS Data Prod Published Multilab Writers;file_uploader
HUS Data Prod Published Muse Writers;file_uploader
HUS Data Prod Published Mustiradu Writers;file_uploader
HUS Data Prod Published Mynla Writers;file_uploader
HUS Data Prod Published Navitas Writers;file_uploader
HUS Data Prod Published Noona Writers;file_uploader
HUS Data Prod Published Obstetrix Writers;file_uploader
HUS Data Prod Published Opera Writers;file_uploader
HUS Data Prod Published Pilviharppi Readers;prod_dw_reader
HUS Data Prod Published Pilviharppi Writers;file_uploader
HUS Data Prod Published QPati Writers;file_uploader
HUS Data Prod Published Ravioli Readers;prod_dw_reader
HUS Data Prod Published Ravioli Writers;file_uploader
HUS Data Prod Published Readmission Writers;file_uploader
HUS Data Prod Published TEHO Benchmarking Writers;file_uploader
HUS Data Prod Published Terveyskyla Writers;file_uploader
HUS Data Prod Published Tilannekanta Apotti Readers;prod_dw_reader
HUS Data Prod Published Tilannekanta Apotti Writers;file_uploader
HUS Data Prod Published Tilastokeskus Writers;file_uploader
HUS Data Prod Published Vihta Writers;file_uploader
HUS Data Prod Published Virtaussytometria Writers;file_uploader
HUS Data Prod Published XDS Writers;file_uploader
HUS Data Prod Staging Apotti Extracts Readers;integrations-df-sp-app
HUS Data Prod Staging Apotti Extracts Writers;file_uploader
HUS Data Prod Staging Apotti Referral and Waiting List Writers;file_uploader
HUS Data Prod Staging Asiakaspalaute Writers;file_uploader
HUS Data Prod Staging BCB Writers;file_uploader
HUS Data Prod Staging CA Writers;file_uploader
HUS Data Prod Staging CA2 Writers;file_uploader
HUS Data Prod Staging Carea Writers;file_uploader
HUS Data Prod Staging Carescape Writers;file_uploader
HUS Data Prod Staging Caresuite Writers;file_uploader
HUS Data Prod Staging Clinisoft Writers;file_uploader
HUS Data Prod Staging Codeserver Writers;file_uploader
HUS Data Prod Staging CressidaODS Delta Writers;cressidaods-delta-pipeline
HUS Data Prod Staging CressidaODS Readers;cressidaods-delta-pipeline
HUS Data Prod Staging CressidaODS Writers;file_uploader
HUS Data Prod Staging Datawell Writers;file_uploader
HUS Data Prod Staging EPM Writers;file_uploader
HUS Data Prod Staging Finnheart_cfmreporting Writers;file_uploader
HUS Data Prod Staging Fusion Writers;file_uploader
HUS Data Prod Staging HRM Writers;file_uploader
HUS Data Prod Staging HUSDW Writers;file_uploader
HUS Data Prod Staging HUSRADU Writers;file_uploader
HUS Data Prod Staging HaiPro Writers;file_uploader
HUS Data Prod Staging HealthWeb Writers;file_uploader
HUS Data Prod Staging Hematology_consent Writers;file_uploader
HUS Data Prod Staging Huskorona Vaestotaso Writers;file_uploader
HUS Data Prod Staging Huskorona Vaestotaso Writers;integration-huskorona-vaestotaso
HUS Data Prod Staging Huskorona Writers;file_uploader
HUS Data Prod Staging Huskorona Writers;integration-huskorona
HUS Data Prod Staging IDM Writers;file_uploader
HUS Data Prod Staging Kaiku Writers;file_uploader
HUS Data Prod Staging Kymkorona Vaestotaso Readers;integration-kymkorona-vaestotaso
HUS Data Prod Staging Kymkorona Vaestotaso Writers;integration-kymkorona-vaestotaso
HUS Data Prod Staging Labvantage Writers;file_uploader
HUS Data Prod Staging Marela Writers;file_uploader
HUS Data Prod Staging MerlotMedi Writers;file_uploader
HUS Data Prod Staging MerlotMediSFTP Writers;file_uploader
HUS Data Prod Staging Multilab Delta Writers;multilab-delta-pipeline
HUS Data Prod Staging Multilab Readers;huslab-daily-run-app
HUS Data Prod Staging Multilab Readers;multilab-delta-pipeline
HUS Data Prod Staging Multilab Readers;huslab-reporting-pipeline-prod
HUS Data Prod Staging Multilab Writers;file_uploader
HUS Data Prod Staging Muse Writers;file_uploader
HUS Data Prod Staging Mustiradu Writers;file_uploader
HUS Data Prod Staging Mynla Writers;file_uploader
HUS Data Prod Staging Navitas Writers;file_uploader
HUS Data Prod Staging Noona Writers;file_uploader
HUS Data Prod Staging Obstetrix Writers;file_uploader
HUS Data Prod Staging Opera Writers;file_uploader
HUS Data Prod Staging PACS Readers;prod_pacsimages
HUS Data Prod Staging PACS Writers;prod_pacsimages
HUS Data Prod Staging Pilviharppi Writers;file_uploader
HUS Data Prod Staging QPati Readers;integration-virtaussytometria
HUS Data Prod Staging QPati Writers;file_uploader
HUS Data Prod Staging Ravioli Writers;file_uploader
HUS Data Prod Staging Readmission Writers;file_uploader
HUS Data Prod Staging TEHO Benchmarking Writers;file_uploader
HUS Data Prod Staging TEHO Benchmarking Writers;integration-teho-benchmarking
HUS Data Prod Staging Terveyskyla Readers;integration-babyscreen
HUS Data Prod Staging Terveyskyla Writers;file_uploader
HUS Data Prod Staging Tilannekanta Apotti Writers;file_uploader
HUS Data Prod Staging Tilastokeskus Writers;file_uploader
HUS Data Prod Staging Vihta Writers;file_uploader
HUS Data Prod Staging Virtaussytometria Readers;integration-virtaussytometria
HUS Data Prod Staging Virtaussytometria Writers;file_uploader
HUS Data Prod Staging Virtaussytometria Writers;integration-virtaussytometria
HUS Data Prod Staging XDS Writers;file_uploader
HUS Data Prod Storage Apotti Extracts Readers;prod_bidatalake
HUS Data Prod Storage Apotti Extracts Readers;integrations-df-sp-app
HUS Data Prod Storage Apotti Extracts Writers;file_uploader
HUS Data Prod Storage Apotti Referral and Waiting List Writers;file_uploader
HUS Data Prod Storage Asiakaspalaute Writers;file_uploader
HUS Data Prod Storage BCB Writers;file_uploader
HUS Data Prod Storage CA Writers;file_uploader
HUS Data Prod Storage CA2 Writers;file_uploader
HUS Data Prod Storage Carea Writers;file_uploader
HUS Data Prod Storage Carescape Writers;file_uploader
HUS Data Prod Storage Caresuite Writers;file_uploader
HUS Data Prod Storage Clinisoft Writers;file_uploader
HUS Data Prod Storage Codeserver Writers;file_uploader
HUS Data Prod Storage CressidaODS Delta Writers;cressidaods-delta-pipeline
HUS Data Prod Storage CressidaODS Readers;prod_aw_hema
HUS Data Prod Storage CressidaODS Readers;rare-diseases-aic-814-timo-aho-sp-app
HUS Data Prod Storage CressidaODS Readers;cressidaods-delta-pipeline
HUS Data Prod Storage CressidaODS Readers;husdltu1omopss
HUS Data Prod Storage CressidaODS Writers;file_uploader
HUS Data Prod Storage Datawell Writers;file_uploader
HUS Data Prod Storage EPM Readers;prod_bidatalake
HUS Data Prod Storage EPM Writers;file_uploader
HUS Data Prod Storage Finnheart_cfmreporting Writers;file_uploader
HUS Data Prod Storage Fusion Writers;file_uploader
HUS Data Prod Storage HRM Writers;file_uploader
HUS Data Prod Storage HUSDW Readers;rare-diseases-aic-814-timo-aho-sp-app
HUS Data Prod Storage HUSDW Writers;file_uploader
HUS Data Prod Storage HUSRADU Readers;prod_aw_hema
HUS Data Prod Storage HUSRADU Readers;rare-diseases-aic-814-timo-aho-sp-app
HUS Data Prod Storage HUSRADU Writers;file_uploader
HUS Data Prod Storage HaiPro Writers;file_uploader
HUS Data Prod Storage HealthWeb Writers;file_uploader
HUS Data Prod Storage Hematology_consent Writers;file_uploader
HUS Data Prod Storage Huskorona Readers;prod_bidatalake
HUS Data Prod Storage Huskorona Vaestotaso Readers;prod_bidatalake
HUS Data Prod Storage Huskorona Vaestotaso Writers;file_uploader
HUS Data Prod Storage Huskorona Writers;file_uploader
HUS Data Prod Storage IDM Writers;file_uploader
HUS Data Prod Storage Kaiku Writers;file_uploader
HUS Data Prod Storage Kymkorona Vaestotaso Readers;integration-kymkorona-vaestotaso
HUS Data Prod Storage Kymkorona Vaestotaso Writers;integration-kymkorona-vaestotaso
HUS Data Prod Storage Labvantage Writers;file_uploader
HUS Data Prod Storage Marela Writers;file_uploader
HUS Data Prod Storage MerlotMedi Writers;file_uploader
HUS Data Prod Storage MerlotMediSFTP Writers;file_uploader
HUS Data Prod Storage Multilab Delta Writers;multilab-delta-pipeline
HUS Data Prod Storage Multilab Readers;prod_aw_hema
HUS Data Prod Storage Multilab Readers;huslab-daily-run-app
HUS Data Prod Storage Multilab Readers;multilab-delta-pipeline
HUS Data Prod Storage Multilab Readers;husdltu1omopss
HUS Data Prod Storage Multilab Readers;huslab-reporting-pipeline-uat
HUS Data Prod Storage Multilab Writers;file_uploader
HUS Data Prod Storage Muse Writers;file_uploader
HUS Data Prod Storage Mustiradu Writers;file_uploader
HUS Data Prod Storage Mynla Writers;file_uploader
HUS Data Prod Storage Navitas Writers;file_uploader
HUS Data Prod Storage Noona Writers;file_uploader
HUS Data Prod Storage Obstetrix Writers;file_uploader
HUS Data Prod Storage Opera Writers;file_uploader
HUS Data Prod Storage PACS Readers;prod_pacsimages
HUS Data Prod Storage PACS Writers;prod_pacsimages
HUS Data Prod Storage Pilviharppi Readers;prod_bidatalake
HUS Data Prod Storage Pilviharppi Writers;file_uploader
HUS Data Prod Storage QPati Readers;prod_aw_hema
HUS Data Prod Storage QPati Readers;rare-diseases-aic-814-timo-aho-sp-app
HUS Data Prod Storage QPati Writers;file_uploader
HUS Data Prod Storage Ravioli Readers;prod_bidatalake
HUS Data Prod Storage Ravioli Writers;file_uploader
HUS Data Prod Storage Readmission Writers;file_uploader
HUS Data Prod Storage TEHO Benchmarking Writers;file_uploader
HUS Data Prod Storage Terveyskyla Readers;integrations-df-sp-app
HUS Data Prod Storage Terveyskyla Writers;file_uploader
HUS Data Prod Storage Tilannekanta Apotti Readers;prod_bidatalake
HUS Data Prod Storage Tilannekanta Apotti Writers;file_uploader
HUS Data Prod Storage Tilastokeskus Writers;file_uploader
HUS Data Prod Storage Vihta Writers;file_uploader
HUS Data Prod Storage Virtaussytometria Readers;integration-virtaussytometria
HUS Data Prod Storage Virtaussytometria Writers;file_uploader
HUS Data Prod Storage Virtaussytometria Writers;integration-virtaussytometria
HUS Data Prod Storage XDS Writers;file_uploader
HUS DataWS Prod Aivovamma1 Readers;husdl-tu1-aivovamma1
HUS DataWS Prod Aivovamma1 Writers;husdl-tu1-aivovamma1
HUS DataWS Prod Aivovamma2 Readers;husdl-tu1-aivovamma2
HUS DataWS Prod Aivovamma2 Writers;husdl-tu1-aivovamma2
HUS DataWS Prod BCRquestFinngen Readers;bcrquest-finngen-pipeline-sp-app
HUS DataWS Prod BCRquestFinngen Writers;bcrquest-finngen-pipeline-sp-app
HUS DataWS Prod BIDL Readers;prod_aw_hema
HUS DataWS Prod BIDL Readers;rare-diseases-aic-814-timo-aho-sp-app
HUS DataWS Prod BIDL Readers;hema-aic-815-sp-app
HUS DataWS Prod BIDL Writers;prod_aw_hema
HUS DataWS Prod BIDL Writers;rare-diseases-aic-814-timo-aho-sp-app
HUS DataWS Prod BIDL Writers;hema-aic-815-sp-app
HUS DataWS Prod Biopankki Readers;prod_biopankkidatalake
HUS DataWS Prod Biopankki Readers;backup-transfers-sp-app
HUS DataWS Prod Biopankki Writers;prod_biopankkidatalake
HUS DataWS Prod BiopankkiDL Writers;file_uploader
HUS DataWS Prod BiopankkiDL Writers;integration-biopankki-core
HUS DataWS Prod CleverHealth Readers;rare-diseases-aic-814-timo-aho-sp-app
HUS DataWS Prod CleverHealth Writers;rare-diseases-aic-814-timo-aho-sp-app
HUS DataWS Prod Covid19 Helsinki Share Readers;covid19-hki-share-sp-app
HUS DataWS Prod Covid19 Helsinki Share Writers;covid19-hki-share-sp-app
HUS DataWS Prod HUSLAB Readers;huslab-daily-run-app
HUS DataWS Prod HUSLAB Writers;huslab-daily-run-app
HUS DataWS Prod Hemadatalake_aic-790 Readers;prod_aw_hema
HUS DataWS Prod Hemadatalake_aic-790 Writers;prod_aw_hema
HUS DataWS Prod Hemadatalake_aic-815 Readers;hema-aic-815-sp-app
HUS DataWS Prod Hemadatalake_aic-815 Writers;hema-aic-815-sp-app
HUS DataWS Prod Hematologia Readers;hema-aic-815-sp-app
HUS DataWS Prod Hematologia Writers;prod_aw_hema
HUS DataWS Prod Korona-osoitteet Readers;korona-osoitteet-sp-app
HUS DataWS Prod Korona-osoitteet Writers;korona-osoitteet-sp-app
HUS DataWS Prod PEX-UAT Readers;pex-uat-adl-reader-sp-app
HUS DataWS Prod PEX-UAT Writers;pex-uat-adl-reader-sp-app
HUS DataWS Prod PEX360-PROD Readers;pex360-prod-adl-sp-app
HUS DataWS Prod PEX360-PROD Writers;pex360-prod-adl-sp-app
HUS DataWS Prod PEX360-UAT Readers;pex360-uat-adl-reader-sp-app
HUS DataWS Prod PEX360-UAT Readers;pex360-prod-adl-sp-app
HUS DataWS Prod PEX360-UAT Writers;pex360-uat-adl-reader-sp-app
HUS DataWS Prod PEX360-UAT Writers;pex360-prod-adl-sp-app
HUS DataWS Prod Probot Readers;probot-sp-app
HUS DataWS Prod Probot Writers;probot-sp-app
HUS DataWS Prod koronahelsinki Writers;integration-elisa-liikkuvuusdata
HUS Prod BC Rquest Readers;bcrquest-pipeline-sp-app
HUS Prod BC Rquest Writers;bcrquest-pipeline-sp-app
HUS Prod Backup Transfers Data Readers;backup-transfers-sp-app
HUS Prod Backup Transfers Data Writers;backup-transfers-sp-app
HUS Prod Probot Outbound Private Organisations Data Readers;probot-outbound-privateorgs-pipeline-sp-app
HUS Prod Probot Outbound Private Organisations Data Writers;probot-outbound-privateorgs-pipeline-sp-app
HUS Prod Probot Outbound Readers;probot-outbound-pipeline-sp-app
HUS Prod Probot Outbound Writers;probot-outbound-pipeline-sp-app
HUS Prod Service-AKS PseudoService Scope DataLake Users;ps-service-clarity-sp-app
HUS Prod Service-AKS PseudoService Scope DataLake Users;ps-service-integrations-sp-app
HUS Prod Service-AKS PseudoService Scope DataLake Users;multilab-delta-pipeline
HUS Prod Service-AKS PseudoService Scope DataLake Users;cressidaods-delta-pipeline
TietoAllas BI Kayttaja;prod_bidatalake
TietoAllas BI Kayttaja;prod_bi_databricks
TietoAllas BI Kayttaja;prod-anttirantala
TietoAllas BI Kayttaja;prod-miikaleminen
TietoAllas BI Kayttaja;prod-annukaila
TietoAllas BI Kayttaja;prod-waltergronhol,
TietoAllas BI Kayttaja;prod-sergeihayryrnen
TietoAllas BI Kayttaja;prod-anttimartikainen
TietoAllas BI Kayttaja;prod-michaelshamberger
TietoAllas BI Kayttaja;prod-tomthiel
TietoAllas BI Kayttaja;prod-janisalmi
TietoAllas BI Kayttaja;prod-antoniosthanellas
TietoAllas BI Kayttaja;bcrquest-pipeline-sp-app
TietoAllas BI Kayttaja;probot-outbound-privateorgs-pipeline-sp-app
TietoAllasTutkimus HRUHLAB2;prod-anttilarjo
TietoAllasTutkimus HoitosuudenDW;prod_dw_reader
