invoicing_1_0 started at: 2020 10 30 15:46 has been completed\n
invoicing_2_2 started at: 2020 10 30 15:46 has been completed
invoicing_0_1 started at: 2020 10 30 15:46 has been completed
get_member_groups_1_1 started at: 2020 10 30 15:46 has been completed
