[
  {
    "id": "/subscriptions/03eecb44-555d-40ab-bc39-8edb947e7db0/resourceGroups/dashboards/providers/Microsoft.Portal/dashboards/c1f0ac1f-3eae-466a-a7e5-a999b1b390c9",
    "lenses": {
      "0": {
        "metadata": null,
        "order": 0,
        "parts": {
          "0": {
            "metadata": {
              "inputs": [
                {
                  "isOptional": true,
                  "name": "ComponentId",
                  "value": {
                    "Name": "kytu1-la",
                    "ResourceGroup": "kytu1-la",
                    "ResourceId": "/subscriptions/03eecb44-555d-40ab-bc39-8edb947e7db0/resourcegroups/kytu1-la/providers/microsoft.operationalinsights/workspaces/kytu1-la",
                    "SubscriptionId": "03eecb44-555d-40ab-bc39-8edb947e7db0"
                  }
                },
                {
                  "isOptional": true,
                  "name": "Dimensions"
                },
                {
                  "isOptional": true,
                  "name": "Query",
                  "value": "ADFPipelineRun\r\n"
                },
                {
                  "isOptional": true,
                  "name": "PartTitle",
                  "value": "Analytics"
                },
                {
                  "isOptional": true,
                  "name": "PartSubTitle",
                  "value": "kytu1-la"
                },
                {
                  "isOptional": true,
                  "name": "PartId",
                  "value": "93d757ad-30c6-4c97-8d7e-725919121075"
                },
                {
                  "isOptional": true,
                  "name": "Version",
                  "value": "1.0"
                },
                {
                  "isOptional": true,
                  "name": "resourceTypeMode",
                  "value": "workspace"
                },
                {
                  "isOptional": true,
                  "name": "TimeRange",
                  "value": "P1D"
                },
                {
                  "isOptional": true,
                  "name": "DashboardId"
                },
                {
                  "isOptional": true,
                  "name": "ControlType",
                  "value": "AnalyticsGrid"
                },
                {
                  "isOptional": true,
                  "name": "SpecificChart"
                }
              ],
              "settings": {
                "content": {
                  "GridColumnsWidth": {
                    "Resource": "1182px",
                    "SourceSystem": "79px"
                  },
                  "PartSubTitle": "kytu1-la",
                  "PartTitle": "all pipelines / all statuses / ",
                  "Query": "ADFPipelineRun\n| extend Resource = substring(['ResourceId'],118)\n| summarize by TimeGenerated, PipelineName, Status, Resource\n| sort by TimeGenerated desc\n"
                }
              },
              "type": "Extension/AppInsightsExtension/PartType/AnalyticsPart"
            },
            "position": {
              "colSpan": 7,
              "metadata": null,
              "rowSpan": 4,
              "x": 0,
              "y": 0
            }
          },
          "1": {
            "metadata": {
              "inputs": [
                {
                  "isOptional": true,
                  "name": "ComponentId",
                  "value": {
                    "Name": "kytu1-la",
                    "ResourceGroup": "kytu1-la",
                    "ResourceId": "/subscriptions/03eecb44-555d-40ab-bc39-8edb947e7db0/resourcegroups/kytu1-la/providers/microsoft.operationalinsights/workspaces/kytu1-la",
                    "SubscriptionId": "03eecb44-555d-40ab-bc39-8edb947e7db0"
                  }
                },
                {
                  "isOptional": true,
                  "name": "Dimensions"
                },
                {
                  "isOptional": true,
                  "name": "Query",
                  "value": "ADFPipelineRun\n//| where ResourceId endswith \"\"\n| extend Resource = substring(['ResourceId'],118)\n| where Status == \"Succeeded\"\n| summarize by TimeGenerated, PipelineName, Status, Resource\n| sort by TimeGenerated desc\n"
                },
                {
                  "isOptional": true,
                  "name": "PartTitle",
                  "value": "Analytics"
                },
                {
                  "isOptional": true,
                  "name": "PartSubTitle",
                  "value": "kytu1-la"
                },
                {
                  "isOptional": true,
                  "name": "PartId",
                  "value": "520dc921-9685-4320-9108-dc1bad155637"
                },
                {
                  "isOptional": true,
                  "name": "Version",
                  "value": "1.0"
                },
                {
                  "isOptional": true,
                  "name": "resourceTypeMode",
                  "value": "workspace"
                },
                {
                  "isOptional": true,
                  "name": "TimeRange",
                  "value": "P1D"
                },
                {
                  "isOptional": true,
                  "name": "DashboardId"
                },
                {
                  "isOptional": true,
                  "name": "ControlType",
                  "value": "AnalyticsGrid"
                },
                {
                  "isOptional": true,
                  "name": "SpecificChart"
                }
              ],
              "settings": {
                "content": {
                  "PartSubTitle": "kytu1-la",
                  "PartTitle": "Pipelines Succeeded"
                }
              },
              "type": "Extension/AppInsightsExtension/PartType/AnalyticsPart"
            },
            "position": {
              "colSpan": 7,
              "metadata": null,
              "rowSpan": 4,
              "x": 7,
              "y": 0
            }
          },
          "2": {
            "metadata": {
              "inputs": [
                {
                  "isOptional": true,
                  "name": "ComponentId",
                  "value": {
                    "Name": "kytu1-la",
                    "ResourceGroup": "kytu1-la",
                    "ResourceId": "/subscriptions/03eecb44-555d-40ab-bc39-8edb947e7db0/resourcegroups/kytu1-la/providers/microsoft.operationalinsights/workspaces/kytu1-la",
                    "SubscriptionId": "03eecb44-555d-40ab-bc39-8edb947e7db0"
                  }
                },
                {
                  "isOptional": true,
                  "name": "Dimensions"
                },
                {
                  "isOptional": true,
                  "name": "Query",
                  "value": "ADFPipelineRun\n//| where ResourceId contains \"CGI\"\n| where Status == \"Succeeded\"\n| count\n"
                },
                {
                  "isOptional": true,
                  "name": "PartTitle",
                  "value": "Analytics"
                },
                {
                  "isOptional": true,
                  "name": "PartSubTitle",
                  "value": "kytu1-la"
                },
                {
                  "isOptional": true,
                  "name": "PartId",
                  "value": "2ecfaada-fc72-464a-b15d-d7d24e15aef3"
                },
                {
                  "isOptional": true,
                  "name": "Version",
                  "value": "1.0"
                },
                {
                  "isOptional": true,
                  "name": "resourceTypeMode",
                  "value": "workspace"
                },
                {
                  "isOptional": true,
                  "name": "TimeRange",
                  "value": "P1D"
                },
                {
                  "isOptional": true,
                  "name": "DashboardId"
                },
                {
                  "isOptional": true,
                  "name": "ControlType",
                  "value": "AnalyticsGrid"
                },
                {
                  "isOptional": true,
                  "name": "SpecificChart"
                }
              ],
              "settings": {
                "content": {
                  "PartSubTitle": "kytu1-la",
                  "PartTitle": "data factories/pipelines count"
                }
              },
              "type": "Extension/AppInsightsExtension/PartType/AnalyticsPart"
            },
            "position": {
              "colSpan": 2,
              "metadata": null,
              "rowSpan": 2,
              "x": 14,
              "y": 2
            }
          },
          "3": {
            "metadata": {
              "inputs": [
                {
                  "isOptional": true,
                  "name": "ComponentId",
                  "value": {
                    "Name": "kytu1-la",
                    "ResourceGroup": "kytu1-la",
                    "ResourceId": "/subscriptions/03eecb44-555d-40ab-bc39-8edb947e7db0/resourcegroups/kytu1-la/providers/microsoft.operationalinsights/workspaces/kytu1-la",
                    "SubscriptionId": "03eecb44-555d-40ab-bc39-8edb947e7db0"
                  }
                },
                {
                  "isOptional": true,
                  "name": "Dimensions"
                },
                {
                  "isOptional": true,
                  "name": "Query",
                  "value": "ADFPipelineRun\n//| where ResourceId endswith \"\"\n| extend Resource = substring(['ResourceId'],118)\n| where Status == \"Failed\"\n| summarize by TimeGenerated, PipelineName, Status, Resource\n| sort by TimeGenerated desc\n"
                },
                {
                  "isOptional": true,
                  "name": "PartTitle",
                  "value": "Analytics"
                },
                {
                  "isOptional": true,
                  "name": "PartSubTitle",
                  "value": "kytu1-la"
                },
                {
                  "isOptional": true,
                  "name": "PartId",
                  "value": "12c2e970-5441-4d86-a567-1c931e2b5292"
                },
                {
                  "isOptional": true,
                  "name": "Version",
                  "value": "1.0"
                },
                {
                  "isOptional": true,
                  "name": "resourceTypeMode",
                  "value": "workspace"
                },
                {
                  "isOptional": true,
                  "name": "TimeRange",
                  "value": "P1D"
                },
                {
                  "isOptional": true,
                  "name": "DashboardId"
                },
                {
                  "isOptional": true,
                  "name": "ControlType",
                  "value": "AnalyticsGrid"
                },
                {
                  "isOptional": true,
                  "name": "SpecificChart"
                }
              ],
              "settings": {
                "content": {
                  "GridColumnsWidth": {
                    "PipelineName": "301px",
                    "Resource": "385px",
                    "Status": "344px"
                  },
                  "PartSubTitle": "kytu1-la",
                  "PartTitle": "pipelines failed (SNOW)"
                }
              },
              "type": "Extension/AppInsightsExtension/PartType/AnalyticsPart"
            },
            "position": {
              "colSpan": 14,
              "metadata": null,
              "rowSpan": 2,
              "x": 0,
              "y": 4
            }
          },
          "4": {
            "metadata": {
              "inputs": [
                {
                  "isOptional": true,
                  "name": "ComponentId",
                  "value": {
                    "Name": "kytu1-la",
                    "ResourceGroup": "kytu1-la",
                    "ResourceId": "/subscriptions/03eecb44-555d-40ab-bc39-8edb947e7db0/resourcegroups/kytu1-la/providers/microsoft.operationalinsights/workspaces/kytu1-la",
                    "SubscriptionId": "03eecb44-555d-40ab-bc39-8edb947e7db0"
                  }
                },
                {
                  "isOptional": true,
                  "name": "Dimensions"
                },
                {
                  "isOptional": true,
                  "name": "Query",
                  "value": "ADFActivityRun\n//| where ResourceId contains \"EKSOTE-PROD-DF\"\n| where Status == \"Failed\"\n| where ErrorMessage contains \"invalid\"\n| summarize by TimeGenerated, OperationName, PipelineName, ErrorMessage\n| sort by TimeGenerated desc\n"
                },
                {
                  "isOptional": true,
                  "name": "PartTitle",
                  "value": "Analytics"
                },
                {
                  "isOptional": true,
                  "name": "PartSubTitle",
                  "value": "kytu1-la"
                },
                {
                  "isOptional": true,
                  "name": "PartId",
                  "value": "1065632b-1069-42f2-a419-df089ab13953"
                },
                {
                  "isOptional": true,
                  "name": "Version",
                  "value": "1.0"
                },
                {
                  "isOptional": true,
                  "name": "resourceTypeMode",
                  "value": "workspace"
                },
                {
                  "isOptional": true,
                  "name": "TimeRange",
                  "value": "P1D"
                },
                {
                  "isOptional": true,
                  "name": "DashboardId"
                },
                {
                  "isOptional": true,
                  "name": "ControlType",
                  "value": "AnalyticsGrid"
                },
                {
                  "isOptional": true,
                  "name": "SpecificChart"
                }
              ],
              "settings": {
                "content": {
                  "GridColumnsWidth": {
                    "ErrorMessage": "476px"
                  },
                  "PartSubTitle": "kytu1-la",
                  "PartTitle": "invalid"
                }
              },
              "type": "Extension/AppInsightsExtension/PartType/AnalyticsPart"
            },
            "position": {
              "colSpan": 14,
              "metadata": null,
              "rowSpan": 2,
              "x": 0,
              "y": 6
            }
          },
          "5": {
            "metadata": {
              "inputs": [
                {
                  "isOptional": true,
                  "name": "ComponentId",
                  "value": {
                    "Name": "kytu1-la",
                    "ResourceGroup": "kytu1-la",
                    "ResourceId": "/subscriptions/03eecb44-555d-40ab-bc39-8edb947e7db0/resourcegroups/kytu1-la/providers/microsoft.operationalinsights/workspaces/kytu1-la",
                    "SubscriptionId": "03eecb44-555d-40ab-bc39-8edb947e7db0"
                  }
                },
                {
                  "isOptional": true,
                  "name": "Dimensions"
                },
                {
                  "isOptional": true,
                  "name": "Query",
                  "value": "ADFActivityRun\n//| where ResourceId contains \"EKSOTE-PROD-DF\"\n| where Status == \"Failed\"\n| summarize by TimeGenerated, OperationName, PipelineName, ErrorMessage\n| sort by TimeGenerated desc\n"
                },
                {
                  "isOptional": true,
                  "name": "PartTitle",
                  "value": "Analytics"
                },
                {
                  "isOptional": true,
                  "name": "PartSubTitle",
                  "value": "kytu1-la"
                },
                {
                  "isOptional": true,
                  "name": "PartId",
                  "value": "51bd8e05-3b2a-414f-b114-09985740c7ea"
                },
                {
                  "isOptional": true,
                  "name": "Version",
                  "value": "1.0"
                },
                {
                  "isOptional": true,
                  "name": "resourceTypeMode",
                  "value": "workspace"
                },
                {
                  "isOptional": true,
                  "name": "TimeRange",
                  "value": "P1D"
                },
                {
                  "isOptional": true,
                  "name": "DashboardId"
                },
                {
                  "isOptional": true,
                  "name": "ControlType",
                  "value": "AnalyticsGrid"
                },
                {
                  "isOptional": true,
                  "name": "SpecificChart"
                }
              ],
              "settings": {
                "content": {
                  "GridColumnsWidth": {
                    "ErrorMessage": "846px",
                    "PipelineName": "161px"
                  },
                  "PartSubTitle": "kytu1-la",
                  "PartTitle": "activities failed (SNOW)"
                }
              },
              "type": "Extension/AppInsightsExtension/PartType/AnalyticsPart"
            },
            "position": {
              "colSpan": 14,
              "metadata": null,
              "rowSpan": 4,
              "x": 0,
              "y": 8
            }
          },
          "6": {
            "metadata": {
              "inputs": [
                {
                  "isOptional": true,
                  "name": "ComponentId",
                  "value": {
                    "Name": "kytu1-la",
                    "ResourceGroup": "kytu1-la",
                    "ResourceId": "/subscriptions/03eecb44-555d-40ab-bc39-8edb947e7db0/resourcegroups/kytu1-la/providers/microsoft.operationalinsights/workspaces/kytu1-la",
                    "SubscriptionId": "03eecb44-555d-40ab-bc39-8edb947e7db0"
                  }
                },
                {
                  "isOptional": true,
                  "name": "Dimensions"
                },
                {
                  "isOptional": true,
                  "name": "Query",
                  "value": "KubePodInventory\n| where Namespace contains \"pseud\" \n| project ContainerID , ControllerName , Name , Namespace \n| join (\n ContainerLog \n | project ContainerID , TimeGenerated , LogEntry \n) on ContainerID \n//| where LogEntry contains \"error\" \n//| where LogEntry contains \"pseudo\" \n| summarize by TimeGenerated, ControllerName, LogEntry\n| sort by TimeGenerated desc\n"
                },
                {
                  "isOptional": true,
                  "name": "PartTitle",
                  "value": "Analytics"
                },
                {
                  "isOptional": true,
                  "name": "PartSubTitle",
                  "value": "kytu1-la"
                },
                {
                  "isOptional": true,
                  "name": "PartId",
                  "value": "10dd06dd-86a9-46b1-a612-bdc2f509e92b"
                },
                {
                  "isOptional": true,
                  "name": "Version",
                  "value": "1.0"
                },
                {
                  "isOptional": true,
                  "name": "resourceTypeMode",
                  "value": "workspace"
                },
                {
                  "isOptional": true,
                  "name": "TimeRange",
                  "value": "P1D"
                },
                {
                  "isOptional": true,
                  "name": "DashboardId"
                },
                {
                  "isOptional": true,
                  "name": "ControlType",
                  "value": "AnalyticsGrid"
                },
                {
                  "isOptional": true,
                  "name": "SpecificChart"
                }
              ],
              "settings": {
                "content": {
                  "GridColumnsWidth": {
                    "LogEntry": "869px"
                  },
                  "PartSubTitle": "kytu1-la",
                  "PartTitle": "AKS pseudoservice",
                  "Query": "KubePodInventory\n| where Namespace contains \"pseud\" \n| project ContainerID , ControllerName , Name , Namespace \n| join (\n ContainerLog \n | project ContainerID , TimeGenerated , LogEntry \n) on ContainerID \n| where LogEntry contains \"error\" \n//| where LogEntry contains \"pseudo\" \n| summarize by TimeGenerated, ControllerName, LogEntry\n| sort by TimeGenerated desc\n"
                }
              },
              "type": "Extension/AppInsightsExtension/PartType/AnalyticsPart"
            },
            "position": {
              "colSpan": 14,
              "metadata": null,
              "rowSpan": 2,
              "x": 0,
              "y": 12
            }
          }
        }
      }
    },
    "location": "westeurope",
    "metadata": {
      "model": {
        "filterLocale": {
          "value": "en-us"
        },
        "filters": {
          "value": {
            "MsPortalFx_TimeRange": {
              "displayCache": {
                "name": "UTC Time",
                "value": "Past 24 hours"
              },
              "filteredPartIds": [
                "StartboardPart-AnalyticsPart-fd27e3af-ca41-4314-8ba7-c098526f4008",
                "StartboardPart-AnalyticsPart-fd27e3af-ca41-4314-8ba7-c098526f400a",
                "StartboardPart-AnalyticsPart-fd27e3af-ca41-4314-8ba7-c098526f400c",
                "StartboardPart-AnalyticsPart-fd27e3af-ca41-4314-8ba7-c098526f400e",
                "StartboardPart-AnalyticsPart-fd27e3af-ca41-4314-8ba7-c098526f4010",
                "StartboardPart-AnalyticsPart-fd27e3af-ca41-4314-8ba7-c098526f4012",
                "StartboardPart-AnalyticsPart-fd27e3af-ca41-4314-8ba7-c098526f4014"
              ],
              "model": {
                "format": "utc",
                "granularity": "auto",
                "relative": "24h"
              }
            }
          }
        },
        "timeRange": {
          "type": "MsPortalFx.Composition.Configuration.ValueTypes.TimeRange",
          "value": {
            "relative": {
              "duration": 24,
              "timeUnit": 1
            }
          }
        }
      }
    },
    "name": "c1f0ac1f-3eae-466a-a7e5-a999b1b390c9",
    "resourceGroup": "dashboards",
    "tags": {
      "hidden-title": "Pipeline Monitoring (kymsote)"
    },
    "type": "Microsoft.Portal/dashboards"
  }
]
