[
{
  "value": [
    {
      "eventHubAuthorizationRuleId": null,
      "eventHubName": null,
      "id": "/subscriptions/27b2a9c9-89f6-44cf-b4ec-74df29dce1fd/resourcegroups/husdl-tu1/providers/microsoft.datalakestore/accounts/husdltu1adls/providers/microsoft.insights/diagnosticSettings/AuditLogging",
      "identity": null,
      "kind": null,
      "location": null,
      "logAnalyticsDestinationType": null,
      "logs": [
        {
          "category": "Audit",
          "enabled": true,
          "retentionPolicy": {
            "days": 0,
            "enabled": false
          }
        },
        {
          "category": "Requests",
          "enabled": true,
          "retentionPolicy": {
            "days": 0,
            "enabled": false
          }
        }
      ],
      "metrics": [
        {
          "category": "AllMetrics",
          "enabled": true,
          "retentionPolicy": {
            "days": 14,
            "enabled": true
          },
          "timeGrain": null
        }
      ],
      "name": "AuditLogging",
      "resourceGroup": "husdl-tu1",
      "serviceBusRuleId": null,
      "storageAccountId": "/subscriptions/27b2a9c9-89f6-44cf-b4ec-74df29dce1fd/resourceGroups/husdl-tu1/providers/Microsoft.Storage/storageAccounts/husdltu1",
      "tags": null,
      "type": "Microsoft.Insights/diagnosticSettings",
      "workspaceId": null
    }
  ]
},
{
  "value": [
    {
      "eventHubAuthorizationRuleId": null,
      "eventHubName": null,
      "id": "/subscriptions/27b2a9c9-89f6-44cf-b4ec-74df29dce1fd/resourcegroups/husdl-tu1/providers/microsoft.logic/workflows/husdl-tu1-monitoring-grafana-snow/providers/microsoft.insights/diagnosticSettings/service",
      "identity": null,
      "kind": null,
      "location": null,
      "logAnalyticsDestinationType": null,
      "logs": [
        {
          "category": "WorkflowRuntime",
          "enabled": true,
          "retentionPolicy": {
            "days": 0,
            "enabled": false
          }
        }
      ],
      "metrics": [
        {
          "category": "AllMetrics",
          "enabled": true,
          "retentionPolicy": {
            "days": 0,
            "enabled": false
          },
          "timeGrain": null
        }
      ],
      "name": "service",
      "resourceGroup": "husdl-tu1",
      "serviceBusRuleId": null,
      "storageAccountId": null,
      "tags": null,
      "type": "Microsoft.Insights/diagnosticSettings",
      "workspaceId": "/subscriptions/27b2a9c9-89f6-44cf-b4ec-74df29dce1fd/resourceGroups/defaultresourcegroup-weu/providers/Microsoft.OperationalInsights/workspaces/defaultworkspace-27b2a9c9-89f6-44cf-b4ec-74df29dce1fd-weu"
    }
  ]
},
{
  "value": [
    {
      "eventHubAuthorizationRuleId": null,
      "eventHubName": null,
      "id": "/subscriptions/27b2a9c9-89f6-44cf-b4ec-74df29dce1fd/resourcegroups/husdl-tu1/providers/microsoft.logic/workflows/security_center_alerts_to_snow/providers/microsoft.insights/diagnosticSettings/security_center_alerts_lapp-diagnostics",
      "identity": null,
      "kind": null,
      "location": null,
      "logAnalyticsDestinationType": null,
      "logs": [
        {
          "category": "WorkflowRuntime",
          "enabled": true,
          "retentionPolicy": {
            "days": 0,
            "enabled": false
          }
        }
      ],
      "metrics": [
        {
          "category": "AllMetrics",
          "enabled": true,
          "retentionPolicy": {
            "days": 0,
            "enabled": false
          },
          "timeGrain": null
        }
      ],
      "name": "security_center_alerts_lapp-diagnostics",
      "resourceGroup": "husdl-tu1",
      "serviceBusRuleId": null,
      "storageAccountId": null,
      "tags": null,
      "type": "Microsoft.Insights/diagnosticSettings",
      "workspaceId": "/subscriptions/27b2a9c9-89f6-44cf-b4ec-74df29dce1fd/resourcegroups/husdl-tu1-monitoring/providers/microsoft.operationalinsights/workspaces/husdl-tu1-loganalytics"
    }
  ]
},
{
  "value": [
    {
      "eventHubAuthorizationRuleId": null,
      "eventHubName": null,
      "id": "/subscriptions/27b2a9c9-89f6-44cf-b4ec-74df29dce1fd/resourcegroups/husdl-tu1-ai-biobank/providers/microsoft.databricks/workspaces/husdl-tu1-ai-biobank-dbx/providers/microsoft.insights/diagnosticSettings/husdl-tu1-ai-biobank-dbx-logs-monitoring",
      "identity": null,
      "kind": null,
      "location": null,
      "logAnalyticsDestinationType": null,
      "logs": [
        {
          "category": "sqlPermissions",
          "enabled": true,
          "retentionPolicy": {
            "days": 0,
            "enabled": true
          }
        },
        {
          "category": "accounts",
          "enabled": true,
          "retentionPolicy": {
            "days": 0,
            "enabled": true
          }
        },
        {
          "category": "notebook",
          "enabled": true,
          "retentionPolicy": {
            "days": 0,
            "enabled": true
          }
        },
        {
          "category": "secrets",
          "enabled": true,
          "retentionPolicy": {
            "days": 0,
            "enabled": true
          }
        },
        {
          "category": "dbfs",
          "enabled": true,
          "retentionPolicy": {
            "days": 0,
            "enabled": true
          }
        },
        {
          "category": "workspace",
          "enabled": true,
          "retentionPolicy": {
            "days": 0,
            "enabled": true
          }
        },
        {
          "category": "jobs",
          "enabled": true,
          "retentionPolicy": {
            "days": 0,
            "enabled": true
          }
        },
        {
          "category": "clusters",
          "enabled": true,
          "retentionPolicy": {
            "days": 0,
            "enabled": true
          }
        },
        {
          "category": "instancePools",
          "enabled": true,
          "retentionPolicy": {
            "days": 0,
            "enabled": true
          }
        },
        {
          "category": "ssh",
          "enabled": true,
          "retentionPolicy": {
            "days": 0,
            "enabled": true
          }
        }
      ],
      "metrics": [],
      "name": "husdl-tu1-ai-biobank-dbx-logs-monitoring",
      "resourceGroup": "husdl-tu1-ai-biobank",
      "serviceBusRuleId": null,
      "storageAccountId": "/subscriptions/27b2a9c9-89f6-44cf-b4ec-74df29dce1fd/resourceGroups/husdl-tu1-zone-audit/providers/Microsoft.Storage/storageAccounts/husdltu1audit",
      "tags": null,
      "type": "Microsoft.Insights/diagnosticSettings",
      "workspaceId": "/subscriptions/27b2a9c9-89f6-44cf-b4ec-74df29dce1fd/resourceGroups/husdl-tu1-monitoring/providers/Microsoft.OperationalInsights/workspaces/husdl-tu1-loganalytics"
    }
  ]
},
{
  "value": [
    {
      "eventHubAuthorizationRuleId": null,
      "eventHubName": null,
      "id": "/subscriptions/27b2a9c9-89f6-44cf-b4ec-74df29dce1fd/resourcegroups/husdl-tu1-ai-biobank/providers/microsoft.keyvault/vaults/husdl-tu1-ai-kv/providers/microsoft.insights/diagnosticSettings/husdl-tu1-ai-kv-audit-logs-monitoring",
      "identity": null,
      "kind": null,
      "location": null,
      "logAnalyticsDestinationType": null,
      "logs": [
        {
          "category": "AuditEvent",
          "enabled": true,
          "retentionPolicy": {
            "days": 0,
            "enabled": true
          }
        }
      ],
      "metrics": [
        {
          "category": "AllMetrics",
          "enabled": false,
          "retentionPolicy": {
            "days": 0,
            "enabled": false
          },
          "timeGrain": null
        }
      ],
      "name": "husdl-tu1-ai-kv-audit-logs-monitoring",
      "resourceGroup": "husdl-tu1-ai-biobank",
      "serviceBusRuleId": null,
      "storageAccountId": "/subscriptions/27b2a9c9-89f6-44cf-b4ec-74df29dce1fd/resourceGroups/husdl-tu1-zone-audit/providers/Microsoft.Storage/storageAccounts/husdltu1audit",
      "tags": null,
      "type": "Microsoft.Insights/diagnosticSettings",
      "workspaceId": null
    }
  ]
},
{
  "value": [
    {
      "eventHubAuthorizationRuleId": null,
      "eventHubName": null,
      "id": "/subscriptions/27b2a9c9-89f6-44cf-b4ec-74df29dce1fd/resourcegroups/husdl-tu1-ai-biobank/providers/microsoft.keyvault/vaults/husdl-tu1-biopankki-kv/providers/microsoft.insights/diagnosticSettings/husdl-tu1-ai-kv-audit-logs-monitoring",
      "identity": null,
      "kind": null,
      "location": null,
      "logAnalyticsDestinationType": null,
      "logs": [
        {
          "category": "AuditEvent",
          "enabled": true,
          "retentionPolicy": {
            "days": 0,
            "enabled": true
          }
        }
      ],
      "metrics": [
        {
          "category": "AllMetrics",
          "enabled": false,
          "retentionPolicy": {
            "days": 0,
            "enabled": false
          },
          "timeGrain": null
        }
      ],
      "name": "husdl-tu1-ai-kv-audit-logs-monitoring",
      "resourceGroup": "husdl-tu1-ai-biobank",
      "serviceBusRuleId": null,
      "storageAccountId": "/subscriptions/27b2a9c9-89f6-44cf-b4ec-74df29dce1fd/resourceGroups/husdl-tu1-zone-audit/providers/Microsoft.Storage/storageAccounts/husdltu1audit",
      "tags": null,
      "type": "Microsoft.Insights/diagnosticSettings",
      "workspaceId": null
    }
  ]
},
{
  "value": [
    {
      "eventHubAuthorizationRuleId": null,
      "eventHubName": null,
      "id": "/subscriptions/27b2a9c9-89f6-44cf-b4ec-74df29dce1fd/resourcegroups/husdl-tu1-ai-biobank/providers/microsoft.logic/workflows/husdl-tu1-ai-biobank-dbx-audit-forward/providers/microsoft.insights/diagnosticSettings/husdl-tu1-ai-biobank-logic-app-logs-monitoring",
      "identity": null,
      "kind": null,
      "location": null,
      "logAnalyticsDestinationType": null,
      "logs": [
        {
          "category": "WorkflowRuntime",
          "enabled": true,
          "retentionPolicy": {
            "days": 0,
            "enabled": true
          }
        }
      ],
      "metrics": [
        {
          "category": "AllMetrics",
          "enabled": true,
          "retentionPolicy": {
            "days": 0,
            "enabled": true
          },
          "timeGrain": null
        }
      ],
      "name": "husdl-tu1-ai-biobank-logic-app-logs-monitoring",
      "resourceGroup": "husdl-tu1-ai-biobank",
      "serviceBusRuleId": null,
      "storageAccountId": null,
      "tags": null,
      "type": "Microsoft.Insights/diagnosticSettings",
      "workspaceId": "/subscriptions/27b2a9c9-89f6-44cf-b4ec-74df29dce1fd/resourceGroups/husdl-tu1-monitoring/providers/Microsoft.OperationalInsights/workspaces/husdl-tu1-loganalytics"
    }
  ]
},
{
  "value": [
    {
      "eventHubAuthorizationRuleId": null,
      "eventHubName": null,
      "id": "/subscriptions/27b2a9c9-89f6-44cf-b4ec-74df29dce1fd/resourcegroups/husdl-tu1-aiteam-df/providers/microsoft.datafactory/factories/husdl-tu1-aiteam-df/providers/microsoft.insights/diagnosticSettings/husdl-tu1-df-diag",
      "identity": null,
      "kind": null,
      "location": null,
      "logAnalyticsDestinationType": "Dedicated",
      "logs": [
        {
          "category": "PipelineRuns",
          "enabled": true,
          "retentionPolicy": {
            "days": 0,
            "enabled": true
          }
        },
        {
          "category": "ActivityRuns",
          "enabled": true,
          "retentionPolicy": {
            "days": 0,
            "enabled": true
          }
        },
        {
          "category": "TriggerRuns",
          "enabled": true,
          "retentionPolicy": {
            "days": 0,
            "enabled": true
          }
        },
        {
          "category": "SSISPackageEventMessages",
          "enabled": false,
          "retentionPolicy": {
            "days": 0,
            "enabled": false
          }
        },
        {
          "category": "SSISPackageExecutableStatistics",
          "enabled": false,
          "retentionPolicy": {
            "days": 0,
            "enabled": false
          }
        },
        {
          "category": "SSISPackageEventMessageContext",
          "enabled": false,
          "retentionPolicy": {
            "days": 0,
            "enabled": false
          }
        },
        {
          "category": "SSISPackageExecutionComponentPhases",
          "enabled": false,
          "retentionPolicy": {
            "days": 0,
            "enabled": false
          }
        },
        {
          "category": "SSISPackageExecutionDataStatistics",
          "enabled": false,
          "retentionPolicy": {
            "days": 0,
            "enabled": false
          }
        },
        {
          "category": "SSISIntegrationRuntimeLogs",
          "enabled": false,
          "retentionPolicy": {
            "days": 0,
            "enabled": false
          }
        }
      ],
      "metrics": [
        {
          "category": "AllMetrics",
          "enabled": false,
          "retentionPolicy": {
            "days": 0,
            "enabled": false
          },
          "timeGrain": null
        }
      ],
      "name": "husdl-tu1-df-diag",
      "resourceGroup": "husdl-tu1-aiteam-df",
      "serviceBusRuleId": null,
      "storageAccountId": "/subscriptions/27b2a9c9-89f6-44cf-b4ec-74df29dce1fd/resourceGroups/husdl-tu1-zone-log/providers/Microsoft.Storage/storageAccounts/husdltu1log",
      "tags": null,
      "type": "Microsoft.Insights/diagnosticSettings",
      "workspaceId": "/subscriptions/27b2a9c9-89f6-44cf-b4ec-74df29dce1fd/resourceGroups/husdl-tu1-monitoring/providers/Microsoft.OperationalInsights/workspaces/husdl-tu1-loganalytics"
    }
  ]
},
{
  "value": [
    {
      "eventHubAuthorizationRuleId": null,
      "eventHubName": null,
      "id": "/subscriptions/27b2a9c9-89f6-44cf-b4ec-74df29dce1fd/resourcegroups/husdl-tu1-analytics-workspace/providers/microsoft.keyvault/vaults/aw-prod-kv/providers/microsoft.insights/diagnosticSettings/analytics-workspace-kv-audit-log-setting",
      "identity": null,
      "kind": null,
      "location": null,
      "logAnalyticsDestinationType": null,
      "logs": [
        {
          "category": "AuditEvent",
          "enabled": false,
          "retentionPolicy": {
            "days": 0,
            "enabled": false
          }
        }
      ],
      "metrics": [
        {
          "category": "AllMetrics",
          "enabled": true,
          "retentionPolicy": {
            "days": 0,
            "enabled": true
          },
          "timeGrain": null
        }
      ],
      "name": "analytics-workspace-kv-audit-log-setting",
      "resourceGroup": "husdl-tu1-analytics-workspace",
      "serviceBusRuleId": null,
      "storageAccountId": "/subscriptions/27b2a9c9-89f6-44cf-b4ec-74df29dce1fd/resourceGroups/husdl-tu1/providers/Microsoft.Storage/storageAccounts/husdltu1lg",
      "tags": null,
      "type": "Microsoft.Insights/diagnosticSettings",
      "workspaceId": "/subscriptions/27b2a9c9-89f6-44cf-b4ec-74df29dce1fd/resourceGroups/husdl-tu1-monitoring/providers/Microsoft.OperationalInsights/workspaces/husdl-tu1-loganalytics"
    },
    {
      "eventHubAuthorizationRuleId": null,
      "eventHubName": null,
      "id": "/subscriptions/27b2a9c9-89f6-44cf-b4ec-74df29dce1fd/resourcegroups/husdl-tu1-analytics-workspace/providers/microsoft.keyvault/vaults/aw-prod-kv/providers/microsoft.insights/diagnosticSettings/analytics-workspace-kv-diag-log-setting",
      "identity": null,
      "kind": null,
      "location": null,
      "logAnalyticsDestinationType": null,
      "logs": [
        {
          "category": "AuditEvent",
          "enabled": true,
          "retentionPolicy": {
            "days": 0,
            "enabled": true
          }
        }
      ],
      "metrics": [
        {
          "category": "AllMetrics",
          "enabled": false,
          "retentionPolicy": {
            "days": 0,
            "enabled": false
          },
          "timeGrain": null
        }
      ],
      "name": "analytics-workspace-kv-diag-log-setting",
      "resourceGroup": "husdl-tu1-analytics-workspace",
      "serviceBusRuleId": null,
      "storageAccountId": "/subscriptions/27b2a9c9-89f6-44cf-b4ec-74df29dce1fd/resourceGroups/husdl-tu1/providers/Microsoft.Storage/storageAccounts/husdltu1lg",
      "tags": null,
      "type": "Microsoft.Insights/diagnosticSettings",
      "workspaceId": "/subscriptions/27b2a9c9-89f6-44cf-b4ec-74df29dce1fd/resourceGroups/husdl-tu1-monitoring/providers/Microsoft.OperationalInsights/workspaces/husdl-tu1-loganalytics"
    }
  ]
},
{
  "value": [
    {
      "eventHubAuthorizationRuleId": null,
      "eventHubName": null,
      "id": "/subscriptions/27b2a9c9-89f6-44cf-b4ec-74df29dce1fd/resourcegroups/husdl-tu1-bidatabricks/providers/microsoft.databricks/workspaces/bidatabricks/providers/microsoft.insights/diagnosticSettings/husdl-tu1-bidatabricks",
      "identity": null,
      "kind": null,
      "location": null,
      "logAnalyticsDestinationType": null,
      "logs": [
        {
          "category": "dbfs",
          "enabled": true,
          "retentionPolicy": {
            "days": 0,
            "enabled": false
          }
        },
        {
          "category": "clusters",
          "enabled": true,
          "retentionPolicy": {
            "days": 0,
            "enabled": false
          }
        },
        {
          "category": "accounts",
          "enabled": true,
          "retentionPolicy": {
            "days": 0,
            "enabled": false
          }
        },
        {
          "category": "jobs",
          "enabled": true,
          "retentionPolicy": {
            "days": 0,
            "enabled": false
          }
        },
        {
          "category": "notebook",
          "enabled": true,
          "retentionPolicy": {
            "days": 0,
            "enabled": false
          }
        },
        {
          "category": "ssh",
          "enabled": true,
          "retentionPolicy": {
            "days": 0,
            "enabled": false
          }
        },
        {
          "category": "workspace",
          "enabled": true,
          "retentionPolicy": {
            "days": 0,
            "enabled": false
          }
        },
        {
          "category": "secrets",
          "enabled": true,
          "retentionPolicy": {
            "days": 0,
            "enabled": false
          }
        },
        {
          "category": "sqlPermissions",
          "enabled": true,
          "retentionPolicy": {
            "days": 0,
            "enabled": false
          }
        },
        {
          "category": "instancePools",
          "enabled": true,
          "retentionPolicy": {
            "days": 0,
            "enabled": false
          }
        }
      ],
      "metrics": [],
      "name": "husdl-tu1-bidatabricks",
      "resourceGroup": "husdl-tu1-bidatabricks",
      "serviceBusRuleId": null,
      "storageAccountId": "/subscriptions/27b2a9c9-89f6-44cf-b4ec-74df29dce1fd/resourceGroups/husdl-tu1-bidatabricks/providers/Microsoft.Storage/storageAccounts/husdltu1bidatabrickslog",
      "tags": null,
      "type": "Microsoft.Insights/diagnosticSettings",
      "workspaceId": "/subscriptions/27b2a9c9-89f6-44cf-b4ec-74df29dce1fd/resourcegroups/husdl-tu1-bidatabricks/providers/microsoft.operationalinsights/workspaces/husdl-tu1-bidatabricks-log"
    }
  ]
},
{
  "value": [
    {
      "eventHubAuthorizationRuleId": null,
      "eventHubName": null,
      "id": "/subscriptions/27b2a9c9-89f6-44cf-b4ec-74df29dce1fd/resourcegroups/husdl-tu1-bidatabricks/providers/microsoft.logic/workflows/dbx-audit-forward-lapps/providers/microsoft.insights/diagnosticSettings/logic-app-diagnostics",
      "identity": null,
      "kind": null,
      "location": null,
      "logAnalyticsDestinationType": null,
      "logs": [
        {
          "category": "WorkflowRuntime",
          "enabled": true,
          "retentionPolicy": {
            "days": 0,
            "enabled": true
          }
        }
      ],
      "metrics": [
        {
          "category": "AllMetrics",
          "enabled": true,
          "retentionPolicy": {
            "days": 0,
            "enabled": true
          },
          "timeGrain": null
        }
      ],
      "name": "logic-app-diagnostics",
      "resourceGroup": "husdl-tu1-bidatabricks",
      "serviceBusRuleId": null,
      "storageAccountId": null,
      "tags": null,
      "type": "Microsoft.Insights/diagnosticSettings",
      "workspaceId": "/subscriptions/27b2a9c9-89f6-44cf-b4ec-74df29dce1fd/resourcegroups/husdl-tu1-bidatabricks/providers/microsoft.operationalinsights/workspaces/husdl-tu1-bidatabricks-log"
    }
  ]
},
{
  "value": [
    {
      "eventHubAuthorizationRuleId": null,
      "eventHubName": null,
      "id": "/subscriptions/27b2a9c9-89f6-44cf-b4ec-74df29dce1fd/resourcegroups/husdl-tu1-braindamage/providers/microsoft.databricks/workspaces/husdl-tu1-braindamage-ailean/providers/microsoft.insights/diagnosticSettings/husdl-tu1-braindamage-ailean-dbx-logs-monitoring",
      "identity": null,
      "kind": null,
      "location": null,
      "logAnalyticsDestinationType": null,
      "logs": [
        {
          "category": "sqlPermissions",
          "enabled": true,
          "retentionPolicy": {
            "days": 0,
            "enabled": true
          }
        },
        {
          "category": "accounts",
          "enabled": true,
          "retentionPolicy": {
            "days": 0,
            "enabled": true
          }
        },
        {
          "category": "notebook",
          "enabled": true,
          "retentionPolicy": {
            "days": 0,
            "enabled": true
          }
        },
        {
          "category": "secrets",
          "enabled": true,
          "retentionPolicy": {
            "days": 0,
            "enabled": true
          }
        },
        {
          "category": "dbfs",
          "enabled": true,
          "retentionPolicy": {
            "days": 0,
            "enabled": true
          }
        },
        {
          "category": "workspace",
          "enabled": true,
          "retentionPolicy": {
            "days": 0,
            "enabled": true
          }
        },
        {
          "category": "jobs",
          "enabled": true,
          "retentionPolicy": {
            "days": 0,
            "enabled": true
          }
        },
        {
          "category": "clusters",
          "enabled": true,
          "retentionPolicy": {
            "days": 0,
            "enabled": true
          }
        },
        {
          "category": "instancePools",
          "enabled": true,
          "retentionPolicy": {
            "days": 0,
            "enabled": true
          }
        },
        {
          "category": "ssh",
          "enabled": true,
          "retentionPolicy": {
            "days": 0,
            "enabled": true
          }
        }
      ],
      "metrics": [],
      "name": "husdl-tu1-braindamage-ailean-dbx-logs-monitoring",
      "resourceGroup": "husdl-tu1-braindamage",
      "serviceBusRuleId": null,
      "storageAccountId": "/subscriptions/27b2a9c9-89f6-44cf-b4ec-74df29dce1fd/resourceGroups/husdl-tu1-zone-audit/providers/Microsoft.Storage/storageAccounts/husdltu1audit",
      "tags": null,
      "type": "Microsoft.Insights/diagnosticSettings",
      "workspaceId": null
    }
  ]
},
{
  "value": [
    {
      "eventHubAuthorizationRuleId": null,
      "eventHubName": null,
      "id": "/subscriptions/27b2a9c9-89f6-44cf-b4ec-74df29dce1fd/resourcegroups/husdl-tu1-braindamage/providers/microsoft.databricks/workspaces/husdl-tu1-braindamage-cgi/providers/microsoft.insights/diagnosticSettings/husdl-tu1-braindamage-cgi-dbx-logs-monitoring",
      "identity": null,
      "kind": null,
      "location": null,
      "logAnalyticsDestinationType": null,
      "logs": [
        {
          "category": "sqlPermissions",
          "enabled": true,
          "retentionPolicy": {
            "days": 0,
            "enabled": true
          }
        },
        {
          "category": "accounts",
          "enabled": true,
          "retentionPolicy": {
            "days": 0,
            "enabled": true
          }
        },
        {
          "category": "notebook",
          "enabled": true,
          "retentionPolicy": {
            "days": 0,
            "enabled": true
          }
        },
        {
          "category": "secrets",
          "enabled": true,
          "retentionPolicy": {
            "days": 0,
            "enabled": true
          }
        },
        {
          "category": "dbfs",
          "enabled": true,
          "retentionPolicy": {
            "days": 0,
            "enabled": true
          }
        },
        {
          "category": "workspace",
          "enabled": true,
          "retentionPolicy": {
            "days": 0,
            "enabled": true
          }
        },
        {
          "category": "jobs",
          "enabled": true,
          "retentionPolicy": {
            "days": 0,
            "enabled": true
          }
        },
        {
          "category": "clusters",
          "enabled": true,
          "retentionPolicy": {
            "days": 0,
            "enabled": true
          }
        },
        {
          "category": "instancePools",
          "enabled": true,
          "retentionPolicy": {
            "days": 0,
            "enabled": true
          }
        },
        {
          "category": "ssh",
          "enabled": true,
          "retentionPolicy": {
            "days": 0,
            "enabled": true
          }
        }
      ],
      "metrics": [],
      "name": "husdl-tu1-braindamage-cgi-dbx-logs-monitoring",
      "resourceGroup": "husdl-tu1-braindamage",
      "serviceBusRuleId": null,
      "storageAccountId": "/subscriptions/27b2a9c9-89f6-44cf-b4ec-74df29dce1fd/resourceGroups/husdl-tu1-zone-audit/providers/Microsoft.Storage/storageAccounts/husdltu1audit",
      "tags": null,
      "type": "Microsoft.Insights/diagnosticSettings",
      "workspaceId": null
    }
  ]
},
{
  "value": [
    {
      "eventHubAuthorizationRuleId": null,
      "eventHubName": null,
      "id": "/subscriptions/27b2a9c9-89f6-44cf-b4ec-74df29dce1fd/resourcegroups/husdl-tu1-braindamage/providers/microsoft.keyvault/vaults/husdl-tu1-braindamage-kv/providers/microsoft.insights/diagnosticSettings/husdl-tu1-braindamage-kv-audit-logs-monitoring",
      "identity": null,
      "kind": null,
      "location": null,
      "logAnalyticsDestinationType": null,
      "logs": [
        {
          "category": "AuditEvent",
          "enabled": true,
          "retentionPolicy": {
            "days": 0,
            "enabled": true
          }
        }
      ],
      "metrics": [
        {
          "category": "AllMetrics",
          "enabled": false,
          "retentionPolicy": {
            "days": 0,
            "enabled": false
          },
          "timeGrain": null
        }
      ],
      "name": "husdl-tu1-braindamage-kv-audit-logs-monitoring",
      "resourceGroup": "husdl-tu1-braindamage",
      "serviceBusRuleId": null,
      "storageAccountId": "/subscriptions/27b2a9c9-89f6-44cf-b4ec-74df29dce1fd/resourceGroups/husdl-tu1-zone-audit/providers/Microsoft.Storage/storageAccounts/husdltu1audit",
      "tags": null,
      "type": "Microsoft.Insights/diagnosticSettings",
      "workspaceId": null
    }
  ]
},
{
  "value": [
    {
      "eventHubAuthorizationRuleId": null,
      "eventHubName": null,
      "id": "/subscriptions/27b2a9c9-89f6-44cf-b4ec-74df29dce1fd/resourcegroups/husdl-tu1-clarity-dbx/providers/microsoft.databricks/workspaces/husdl-tu1-clarity-dbx/providers/microsoft.insights/diagnosticSettings/clarity-dbricks-diagnostics",
      "identity": null,
      "kind": null,
      "location": null,
      "logAnalyticsDestinationType": null,
      "logs": [
        {
          "category": "sqlPermissions",
          "enabled": true,
          "retentionPolicy": {
            "days": 0,
            "enabled": true
          }
        },
        {
          "category": "accounts",
          "enabled": true,
          "retentionPolicy": {
            "days": 0,
            "enabled": true
          }
        },
        {
          "category": "notebook",
          "enabled": true,
          "retentionPolicy": {
            "days": 0,
            "enabled": true
          }
        },
        {
          "category": "secrets",
          "enabled": true,
          "retentionPolicy": {
            "days": 0,
            "enabled": true
          }
        },
        {
          "category": "dbfs",
          "enabled": true,
          "retentionPolicy": {
            "days": 0,
            "enabled": true
          }
        },
        {
          "category": "workspace",
          "enabled": true,
          "retentionPolicy": {
            "days": 0,
            "enabled": true
          }
        },
        {
          "category": "jobs",
          "enabled": true,
          "retentionPolicy": {
            "days": 0,
            "enabled": true
          }
        },
        {
          "category": "clusters",
          "enabled": true,
          "retentionPolicy": {
            "days": 0,
            "enabled": true
          }
        },
        {
          "category": "instancePools",
          "enabled": true,
          "retentionPolicy": {
            "days": 0,
            "enabled": true
          }
        },
        {
          "category": "ssh",
          "enabled": true,
          "retentionPolicy": {
            "days": 0,
            "enabled": true
          }
        }
      ],
      "metrics": [],
      "name": "clarity-dbricks-diagnostics",
      "resourceGroup": "husdl-tu1-clarity-dbx",
      "serviceBusRuleId": null,
      "storageAccountId": null,
      "tags": null,
      "type": "Microsoft.Insights/diagnosticSettings",
      "workspaceId": "/subscriptions/27b2a9c9-89f6-44cf-b4ec-74df29dce1fd/resourcegroups/husdl-tu1-clarity/providers/microsoft.operationalinsights/workspaces/husdl-tu1-clarity-log"
    }
  ]
},
{
  "value": [
    {
      "eventHubAuthorizationRuleId": null,
      "eventHubName": null,
      "id": "/subscriptions/27b2a9c9-89f6-44cf-b4ec-74df29dce1fd/resourcegroups/husdl-tu1-df-automation/providers/microsoft.datafactory/factories/hematology-automation/providers/microsoft.insights/diagnosticSettings/hematoly-automation-df-diag",
      "identity": null,
      "kind": null,
      "location": null,
      "logAnalyticsDestinationType": "Dedicated",
      "logs": [
        {
          "category": "PipelineRuns",
          "enabled": true,
          "retentionPolicy": {
            "days": 0,
            "enabled": true
          }
        },
        {
          "category": "ActivityRuns",
          "enabled": true,
          "retentionPolicy": {
            "days": 0,
            "enabled": true
          }
        },
        {
          "category": "TriggerRuns",
          "enabled": true,
          "retentionPolicy": {
            "days": 0,
            "enabled": true
          }
        },
        {
          "category": "SSISPackageEventMessages",
          "enabled": false,
          "retentionPolicy": {
            "days": 0,
            "enabled": false
          }
        },
        {
          "category": "SSISPackageExecutableStatistics",
          "enabled": false,
          "retentionPolicy": {
            "days": 0,
            "enabled": false
          }
        },
        {
          "category": "SSISPackageEventMessageContext",
          "enabled": false,
          "retentionPolicy": {
            "days": 0,
            "enabled": false
          }
        },
        {
          "category": "SSISPackageExecutionComponentPhases",
          "enabled": false,
          "retentionPolicy": {
            "days": 0,
            "enabled": false
          }
        },
        {
          "category": "SSISPackageExecutionDataStatistics",
          "enabled": false,
          "retentionPolicy": {
            "days": 0,
            "enabled": false
          }
        },
        {
          "category": "SSISIntegrationRuntimeLogs",
          "enabled": false,
          "retentionPolicy": {
            "days": 0,
            "enabled": false
          }
        }
      ],
      "metrics": [
        {
          "category": "AllMetrics",
          "enabled": false,
          "retentionPolicy": {
            "days": 0,
            "enabled": false
          },
          "timeGrain": null
        }
      ],
      "name": "hematoly-automation-df-diag",
      "resourceGroup": "husdl-tu1-df-automation",
      "serviceBusRuleId": null,
      "storageAccountId": "/subscriptions/27b2a9c9-89f6-44cf-b4ec-74df29dce1fd/resourceGroups/husdl-tu1-zone-log/providers/Microsoft.Storage/storageAccounts/husdltu1log",
      "tags": null,
      "type": "Microsoft.Insights/diagnosticSettings",
      "workspaceId": "/subscriptions/27b2a9c9-89f6-44cf-b4ec-74df29dce1fd/resourceGroups/husdl-tu1-monitoring/providers/Microsoft.OperationalInsights/workspaces/husdl-tu1-loganalytics"
    }
  ]
},
{
  "value": [
    {
      "eventHubAuthorizationRuleId": null,
      "eventHubName": null,
      "id": "/subscriptions/27b2a9c9-89f6-44cf-b4ec-74df29dce1fd/resourcegroups/husdl-tu1-doccano/providers/microsoft.keyvault/vaults/doccano-prod-kv/providers/microsoft.insights/diagnosticSettings/doccano-prod-kv-audit-log-setting",
      "identity": null,
      "kind": null,
      "location": null,
      "logAnalyticsDestinationType": null,
      "logs": [
        {
          "category": "AuditEvent",
          "enabled": false,
          "retentionPolicy": {
            "days": 0,
            "enabled": false
          }
        }
      ],
      "metrics": [
        {
          "category": "AllMetrics",
          "enabled": true,
          "retentionPolicy": {
            "days": 0,
            "enabled": true
          },
          "timeGrain": null
        }
      ],
      "name": "doccano-prod-kv-audit-log-setting",
      "resourceGroup": "husdl-tu1-doccano",
      "serviceBusRuleId": null,
      "storageAccountId": "/subscriptions/27b2a9c9-89f6-44cf-b4ec-74df29dce1fd/resourceGroups/husdl-tu1/providers/Microsoft.Storage/storageAccounts/husdltu1lg",
      "tags": null,
      "type": "Microsoft.Insights/diagnosticSettings",
      "workspaceId": "/subscriptions/27b2a9c9-89f6-44cf-b4ec-74df29dce1fd/resourceGroups/husdl-tu1-monitoring/providers/Microsoft.OperationalInsights/workspaces/husdl-tu1-loganalytics"
    },
    {
      "eventHubAuthorizationRuleId": null,
      "eventHubName": null,
      "id": "/subscriptions/27b2a9c9-89f6-44cf-b4ec-74df29dce1fd/resourcegroups/husdl-tu1-doccano/providers/microsoft.keyvault/vaults/doccano-prod-kv/providers/microsoft.insights/diagnosticSettings/doccano-prod-kv-diag-log-setting",
      "identity": null,
      "kind": null,
      "location": null,
      "logAnalyticsDestinationType": null,
      "logs": [
        {
          "category": "AuditEvent",
          "enabled": true,
          "retentionPolicy": {
            "days": 0,
            "enabled": true
          }
        }
      ],
      "metrics": [
        {
          "category": "AllMetrics",
          "enabled": false,
          "retentionPolicy": {
            "days": 0,
            "enabled": false
          },
          "timeGrain": null
        }
      ],
      "name": "doccano-prod-kv-diag-log-setting",
      "resourceGroup": "husdl-tu1-doccano",
      "serviceBusRuleId": null,
      "storageAccountId": "/subscriptions/27b2a9c9-89f6-44cf-b4ec-74df29dce1fd/resourceGroups/husdl-tu1/providers/Microsoft.Storage/storageAccounts/husdltu1lg",
      "tags": null,
      "type": "Microsoft.Insights/diagnosticSettings",
      "workspaceId": "/subscriptions/27b2a9c9-89f6-44cf-b4ec-74df29dce1fd/resourceGroups/husdl-tu1-monitoring/providers/Microsoft.OperationalInsights/workspaces/husdl-tu1-loganalytics"
    }
  ]
},
{
  "value": [
    {
      "eventHubAuthorizationRuleId": null,
      "eventHubName": null,
      "id": "/subscriptions/27b2a9c9-89f6-44cf-b4ec-74df29dce1fd/resourcegroups/husdl-tu1-dw-dbx/providers/microsoft.databricks/workspaces/husdl-tu1-dw-dbx/providers/microsoft.insights/diagnosticSettings/dw-dbx-diagnostics",
      "identity": null,
      "kind": null,
      "location": null,
      "logAnalyticsDestinationType": null,
      "logs": [
        {
          "category": "sqlPermissions",
          "enabled": true,
          "retentionPolicy": {
            "days": 0,
            "enabled": true
          }
        },
        {
          "category": "accounts",
          "enabled": true,
          "retentionPolicy": {
            "days": 0,
            "enabled": true
          }
        },
        {
          "category": "notebook",
          "enabled": true,
          "retentionPolicy": {
            "days": 0,
            "enabled": true
          }
        },
        {
          "category": "secrets",
          "enabled": true,
          "retentionPolicy": {
            "days": 0,
            "enabled": true
          }
        },
        {
          "category": "dbfs",
          "enabled": true,
          "retentionPolicy": {
            "days": 0,
            "enabled": true
          }
        },
        {
          "category": "workspace",
          "enabled": true,
          "retentionPolicy": {
            "days": 0,
            "enabled": true
          }
        },
        {
          "category": "jobs",
          "enabled": true,
          "retentionPolicy": {
            "days": 0,
            "enabled": true
          }
        },
        {
          "category": "clusters",
          "enabled": true,
          "retentionPolicy": {
            "days": 0,
            "enabled": true
          }
        },
        {
          "category": "instancePools",
          "enabled": true,
          "retentionPolicy": {
            "days": 0,
            "enabled": true
          }
        },
        {
          "category": "ssh",
          "enabled": true,
          "retentionPolicy": {
            "days": 0,
            "enabled": true
          }
        }
      ],
      "metrics": [],
      "name": "dw-dbx-diagnostics",
      "resourceGroup": "husdl-tu1-dw-dbx",
      "serviceBusRuleId": null,
      "storageAccountId": "/subscriptions/27b2a9c9-89f6-44cf-b4ec-74df29dce1fd/resourceGroups/husdl-tu1-zone-log/providers/Microsoft.Storage/storageAccounts/husdltu1log",
      "tags": null,
      "type": "Microsoft.Insights/diagnosticSettings",
      "workspaceId": "/subscriptions/27b2a9c9-89f6-44cf-b4ec-74df29dce1fd/resourceGroups/husdl-tu1-monitoring/providers/Microsoft.OperationalInsights/workspaces/husdl-tu1-loganalytics"
    }
  ]
},
{
  "value": [
    {
      "eventHubAuthorizationRuleId": null,
      "eventHubName": null,
      "id": "/subscriptions/27b2a9c9-89f6-44cf-b4ec-74df29dce1fd/resourcegroups/husdl-tu1-ext-appgwwaf1/providers/microsoft.network/applicationgateways/appgwwaf1-tu1-ext/providers/microsoft.insights/diagnosticSettings/appgwwaf1diag",
      "identity": null,
      "kind": null,
      "location": null,
      "logAnalyticsDestinationType": null,
      "logs": [
        {
          "category": "ApplicationGatewayAccessLog",
          "enabled": true,
          "retentionPolicy": {
            "days": 30,
            "enabled": true
          }
        },
        {
          "category": "ApplicationGatewayPerformanceLog",
          "enabled": false,
          "retentionPolicy": {
            "days": 0,
            "enabled": false
          }
        },
        {
          "category": "ApplicationGatewayFirewallLog",
          "enabled": true,
          "retentionPolicy": {
            "days": 30,
            "enabled": true
          }
        }
      ],
      "metrics": [
        {
          "category": "AllMetrics",
          "enabled": true,
          "retentionPolicy": {
            "days": 14,
            "enabled": true
          },
          "timeGrain": null
        }
      ],
      "name": "appgwwaf1diag",
      "resourceGroup": "husdl-tu1-ext-appgwwaf1",
      "serviceBusRuleId": null,
      "storageAccountId": "/subscriptions/27b2a9c9-89f6-44cf-b4ec-74df29dce1fd/resourceGroups/husdl-tu1-ext-appgwwaf1/providers/Microsoft.Storage/storageAccounts/appgwwafdfiagst01",
      "tags": null,
      "type": "Microsoft.Insights/diagnosticSettings",
      "workspaceId": "/subscriptions/27b2a9c9-89f6-44cf-b4ec-74df29dce1fd/resourcegroups/husdl-tu1-ext-appgwwaf1/providers/microsoft.operationalinsights/workspaces/appgwwaf1-tu1-ext-logs"
    }
  ]
},
{
  "value": [
    {
      "eventHubAuthorizationRuleId": null,
      "eventHubName": null,
      "id": "/subscriptions/27b2a9c9-89f6-44cf-b4ec-74df29dce1fd/resourcegroups/husdl-tu1-ext-hematologia/providers/microsoft.datafactory/factories/husdl-tu1-ext-hema-omop-df/providers/microsoft.insights/diagnosticSettings/hema-omop-df-diag",
      "identity": null,
      "kind": null,
      "location": null,
      "logAnalyticsDestinationType": "Dedicated",
      "logs": [
        {
          "category": "PipelineRuns",
          "enabled": true,
          "retentionPolicy": {
            "days": 0,
            "enabled": true
          }
        },
        {
          "category": "SSISPackageEventMessages",
          "enabled": false,
          "retentionPolicy": {
            "days": 0,
            "enabled": false
          }
        },
        {
          "category": "ActivityRuns",
          "enabled": true,
          "retentionPolicy": {
            "days": 0,
            "enabled": true
          }
        },
        {
          "category": "SSISPackageEventMessageContext",
          "enabled": false,
          "retentionPolicy": {
            "days": 0,
            "enabled": false
          }
        },
        {
          "category": "SSISIntegrationRuntimeLogs",
          "enabled": false,
          "retentionPolicy": {
            "days": 0,
            "enabled": false
          }
        },
        {
          "category": "SSISPackageExecutionDataStatistics",
          "enabled": false,
          "retentionPolicy": {
            "days": 0,
            "enabled": false
          }
        },
        {
          "category": "SSISPackageExecutionComponentPhases",
          "enabled": false,
          "retentionPolicy": {
            "days": 0,
            "enabled": false
          }
        },
        {
          "category": "TriggerRuns",
          "enabled": true,
          "retentionPolicy": {
            "days": 0,
            "enabled": true
          }
        },
        {
          "category": "SSISPackageExecutableStatistics",
          "enabled": false,
          "retentionPolicy": {
            "days": 0,
            "enabled": false
          }
        }
      ],
      "metrics": [
        {
          "category": "AllMetrics",
          "enabled": false,
          "retentionPolicy": {
            "days": 0,
            "enabled": false
          },
          "timeGrain": null
        }
      ],
      "name": "hema-omop-df-diag",
      "resourceGroup": "husdl-tu1-ext-hematologia",
      "serviceBusRuleId": null,
      "storageAccountId": "/subscriptions/27b2a9c9-89f6-44cf-b4ec-74df29dce1fd/resourceGroups/husdl-tu1-zone-log/providers/Microsoft.Storage/storageAccounts/husdltu1log",
      "tags": null,
      "type": "Microsoft.Insights/diagnosticSettings",
      "workspaceId": "/subscriptions/27b2a9c9-89f6-44cf-b4ec-74df29dce1fd/resourceGroups/husdl-tu1-monitoring/providers/Microsoft.OperationalInsights/workspaces/husdl-tu1-loganalytics"
    }
  ]
},
{
  "value": [
    {
      "eventHubAuthorizationRuleId": null,
      "eventHubName": null,
      "id": "/subscriptions/27b2a9c9-89f6-44cf-b4ec-74df29dce1fd/resourcegroups/husdl-tu1-keys/providers/microsoft.keyvault/vaults/husdl-tu1-kv/providers/microsoft.insights/diagnosticSettings/keyvault-audit-diaglg",
      "identity": null,
      "kind": null,
      "location": null,
      "logAnalyticsDestinationType": null,
      "logs": [
        {
          "category": "AuditEvent",
          "enabled": true,
          "retentionPolicy": {
            "days": 0,
            "enabled": false
          }
        }
      ],
      "metrics": [
        {
          "category": "AllMetrics",
          "enabled": true,
          "retentionPolicy": {
            "days": 0,
            "enabled": false
          },
          "timeGrain": null
        }
      ],
      "name": "keyvault-audit-diaglg",
      "resourceGroup": "husdl-tu1-keys",
      "serviceBusRuleId": null,
      "storageAccountId": "/subscriptions/27b2a9c9-89f6-44cf-b4ec-74df29dce1fd/resourceGroups/husdl-tu1/providers/Microsoft.Storage/storageAccounts/husdltu1lg",
      "tags": null,
      "type": "Microsoft.Insights/diagnosticSettings",
      "workspaceId": "/subscriptions/27b2a9c9-89f6-44cf-b4ec-74df29dce1fd/resourcegroups/defaultresourcegroup-weu/providers/microsoft.operationalinsights/workspaces/defaultworkspace-27b2a9c9-89f6-44cf-b4ec-74df29dce1fd-weu"
    }
  ]
},
{
  "value": [
    {
      "eventHubAuthorizationRuleId": null,
      "eventHubName": null,
      "id": "/subscriptions/27b2a9c9-89f6-44cf-b4ec-74df29dce1fd/resourcegroups/husdl-tu1-korona-laaturekisteri/providers/microsoft.keyvault/vaults/husdl-tu1-korona-lk-kv/providers/microsoft.insights/diagnosticSettings/korona-laaturekisteri-kv-audit-log-setting",
      "identity": null,
      "kind": null,
      "location": null,
      "logAnalyticsDestinationType": null,
      "logs": [
        {
          "category": "AuditEvent",
          "enabled": true,
          "retentionPolicy": {
            "days": 0,
            "enabled": true
          }
        }
      ],
      "metrics": [
        {
          "category": "AllMetrics",
          "enabled": false,
          "retentionPolicy": {
            "days": 0,
            "enabled": false
          },
          "timeGrain": null
        }
      ],
      "name": "korona-laaturekisteri-kv-audit-log-setting",
      "resourceGroup": "husdl-tu1-korona-laaturekisteri",
      "serviceBusRuleId": null,
      "storageAccountId": "/subscriptions/27b2a9c9-89f6-44cf-b4ec-74df29dce1fd/resourceGroups/husdl-tu1-zone-audit/providers/Microsoft.Storage/storageAccounts/husdltu1audit",
      "tags": null,
      "type": "Microsoft.Insights/diagnosticSettings",
      "workspaceId": null
    }
  ]
},
{
  "value": [
    {
      "eventHubAuthorizationRuleId": null,
      "eventHubName": null,
      "id": "/subscriptions/27b2a9c9-89f6-44cf-b4ec-74df29dce1fd/resourcegroups/husdl-tu1-korona-laaturekisteri/providers/microsoft.logic/workflows/covid19-registry-audit-forward/providers/microsoft.insights/diagnosticSettings/covid-audit-forward-diagnostics",
      "identity": null,
      "kind": null,
      "location": null,
      "logAnalyticsDestinationType": null,
      "logs": [
        {
          "category": "WorkflowRuntime",
          "enabled": true,
          "retentionPolicy": {
            "days": 0,
            "enabled": true
          }
        }
      ],
      "metrics": [
        {
          "category": "AllMetrics",
          "enabled": false,
          "retentionPolicy": {
            "days": 0,
            "enabled": false
          },
          "timeGrain": null
        }
      ],
      "name": "covid-audit-forward-diagnostics",
      "resourceGroup": "husdl-tu1-korona-laaturekisteri",
      "serviceBusRuleId": null,
      "storageAccountId": null,
      "tags": null,
      "type": "Microsoft.Insights/diagnosticSettings",
      "workspaceId": "/subscriptions/27b2a9c9-89f6-44cf-b4ec-74df29dce1fd/resourceGroups/husdl-tu1-monitoring/providers/Microsoft.OperationalInsights/workspaces/husdl-tu1-loganalytics"
    }
  ]
},
{
  "value": [
    {
      "eventHubAuthorizationRuleId": null,
      "eventHubName": null,
      "id": "/subscriptions/27b2a9c9-89f6-44cf-b4ec-74df29dce1fd/resourcegroups/husdl-tu1-main-dbx/providers/microsoft.databricks/workspaces/husdl-tu1-main-dbx/providers/microsoft.insights/diagnosticSettings/main-dbx-diagnostics",
      "identity": null,
      "kind": null,
      "location": null,
      "logAnalyticsDestinationType": null,
      "logs": [
        {
          "category": "sqlPermissions",
          "enabled": true,
          "retentionPolicy": {
            "days": 0,
            "enabled": true
          }
        },
        {
          "category": "accounts",
          "enabled": true,
          "retentionPolicy": {
            "days": 0,
            "enabled": true
          }
        },
        {
          "category": "notebook",
          "enabled": true,
          "retentionPolicy": {
            "days": 0,
            "enabled": true
          }
        },
        {
          "category": "secrets",
          "enabled": true,
          "retentionPolicy": {
            "days": 0,
            "enabled": true
          }
        },
        {
          "category": "dbfs",
          "enabled": true,
          "retentionPolicy": {
            "days": 0,
            "enabled": true
          }
        },
        {
          "category": "workspace",
          "enabled": true,
          "retentionPolicy": {
            "days": 0,
            "enabled": true
          }
        },
        {
          "category": "jobs",
          "enabled": true,
          "retentionPolicy": {
            "days": 0,
            "enabled": true
          }
        },
        {
          "category": "clusters",
          "enabled": true,
          "retentionPolicy": {
            "days": 0,
            "enabled": true
          }
        },
        {
          "category": "instancePools",
          "enabled": true,
          "retentionPolicy": {
            "days": 0,
            "enabled": true
          }
        },
        {
          "category": "ssh",
          "enabled": true,
          "retentionPolicy": {
            "days": 0,
            "enabled": true
          }
        }
      ],
      "metrics": [],
      "name": "main-dbx-diagnostics",
      "resourceGroup": "husdl-tu1-main-dbx",
      "serviceBusRuleId": null,
      "storageAccountId": "/subscriptions/27b2a9c9-89f6-44cf-b4ec-74df29dce1fd/resourceGroups/husdl-tu1-main-dbx/providers/Microsoft.Storage/storageAccounts/husdltu1maindbxlogsa",
      "tags": null,
      "type": "Microsoft.Insights/diagnosticSettings",
      "workspaceId": "/subscriptions/27b2a9c9-89f6-44cf-b4ec-74df29dce1fd/resourcegroups/husdl-tu1-main-dbx/providers/microsoft.operationalinsights/workspaces/husdl-tu1-main-dbx-log"
    }
  ]
},
{
  "value": [
    {
      "eventHubAuthorizationRuleId": null,
      "eventHubName": null,
      "id": "/subscriptions/27b2a9c9-89f6-44cf-b4ec-74df29dce1fd/resourcegroups/husdl-tu1-omop/providers/microsoft.datafactory/factories/husdl-tu1-omop-df/providers/microsoft.insights/diagnosticSettings/omop-df-diag",
      "identity": null,
      "kind": null,
      "location": null,
      "logAnalyticsDestinationType": "Dedicated",
      "logs": [
        {
          "category": "PipelineRuns",
          "enabled": true,
          "retentionPolicy": {
            "days": 0,
            "enabled": true
          }
        },
        {
          "category": "SSISPackageEventMessages",
          "enabled": false,
          "retentionPolicy": {
            "days": 0,
            "enabled": false
          }
        },
        {
          "category": "ActivityRuns",
          "enabled": true,
          "retentionPolicy": {
            "days": 0,
            "enabled": true
          }
        },
        {
          "category": "SSISPackageEventMessageContext",
          "enabled": false,
          "retentionPolicy": {
            "days": 0,
            "enabled": false
          }
        },
        {
          "category": "SSISIntegrationRuntimeLogs",
          "enabled": false,
          "retentionPolicy": {
            "days": 0,
            "enabled": false
          }
        },
        {
          "category": "SSISPackageExecutionDataStatistics",
          "enabled": false,
          "retentionPolicy": {
            "days": 0,
            "enabled": false
          }
        },
        {
          "category": "SSISPackageExecutionComponentPhases",
          "enabled": false,
          "retentionPolicy": {
            "days": 0,
            "enabled": false
          }
        },
        {
          "category": "TriggerRuns",
          "enabled": true,
          "retentionPolicy": {
            "days": 0,
            "enabled": true
          }
        },
        {
          "category": "SSISPackageExecutableStatistics",
          "enabled": false,
          "retentionPolicy": {
            "days": 0,
            "enabled": false
          }
        }
      ],
      "metrics": [
        {
          "category": "AllMetrics",
          "enabled": false,
          "retentionPolicy": {
            "days": 0,
            "enabled": false
          },
          "timeGrain": null
        }
      ],
      "name": "omop-df-diag",
      "resourceGroup": "husdl-tu1-omop",
      "serviceBusRuleId": null,
      "storageAccountId": "/subscriptions/27b2a9c9-89f6-44cf-b4ec-74df29dce1fd/resourceGroups/husdl-tu1-zone-log/providers/Microsoft.Storage/storageAccounts/husdltu1log",
      "tags": null,
      "type": "Microsoft.Insights/diagnosticSettings",
      "workspaceId": "/subscriptions/27b2a9c9-89f6-44cf-b4ec-74df29dce1fd/resourceGroups/husdl-tu1-monitoring/providers/Microsoft.OperationalInsights/workspaces/husdl-tu1-loganalytics"
    }
  ]
},
{
  "value": [
    {
      "eventHubAuthorizationRuleId": null,
      "eventHubName": null,
      "id": "/subscriptions/27b2a9c9-89f6-44cf-b4ec-74df29dce1fd/resourcegroups/husdl-tu1-omop/providers/microsoft.keyvault/vaults/omop-kv/providers/microsoft.insights/diagnosticSettings/omop-kv-audit-log-setting",
      "identity": null,
      "kind": null,
      "location": null,
      "logAnalyticsDestinationType": null,
      "logs": [
        {
          "category": "AuditEvent",
          "enabled": false,
          "retentionPolicy": {
            "days": 0,
            "enabled": false
          }
        }
      ],
      "metrics": [
        {
          "category": "AllMetrics",
          "enabled": true,
          "retentionPolicy": {
            "days": 0,
            "enabled": true
          },
          "timeGrain": null
        }
      ],
      "name": "omop-kv-audit-log-setting",
      "resourceGroup": "husdl-tu1-omop",
      "serviceBusRuleId": null,
      "storageAccountId": "/subscriptions/27b2a9c9-89f6-44cf-b4ec-74df29dce1fd/resourceGroups/husdl-tu1/providers/Microsoft.Storage/storageAccounts/husdltu1lg",
      "tags": null,
      "type": "Microsoft.Insights/diagnosticSettings",
      "workspaceId": "/subscriptions/27b2a9c9-89f6-44cf-b4ec-74df29dce1fd/resourceGroups/husdl-tu1-monitoring/providers/Microsoft.OperationalInsights/workspaces/husdl-tu1-loganalytics"
    },
    {
      "eventHubAuthorizationRuleId": null,
      "eventHubName": null,
      "id": "/subscriptions/27b2a9c9-89f6-44cf-b4ec-74df29dce1fd/resourcegroups/husdl-tu1-omop/providers/microsoft.keyvault/vaults/omop-kv/providers/microsoft.insights/diagnosticSettings/omop-kv-diag-log-setting",
      "identity": null,
      "kind": null,
      "location": null,
      "logAnalyticsDestinationType": null,
      "logs": [
        {
          "category": "AuditEvent",
          "enabled": true,
          "retentionPolicy": {
            "days": 0,
            "enabled": true
          }
        }
      ],
      "metrics": [
        {
          "category": "AllMetrics",
          "enabled": false,
          "retentionPolicy": {
            "days": 0,
            "enabled": false
          },
          "timeGrain": null
        }
      ],
      "name": "omop-kv-diag-log-setting",
      "resourceGroup": "husdl-tu1-omop",
      "serviceBusRuleId": null,
      "storageAccountId": "/subscriptions/27b2a9c9-89f6-44cf-b4ec-74df29dce1fd/resourceGroups/husdl-tu1/providers/Microsoft.Storage/storageAccounts/husdltu1lg",
      "tags": null,
      "type": "Microsoft.Insights/diagnosticSettings",
      "workspaceId": "/subscriptions/27b2a9c9-89f6-44cf-b4ec-74df29dce1fd/resourceGroups/husdl-tu1-monitoring/providers/Microsoft.OperationalInsights/workspaces/husdl-tu1-loganalytics"
    }
  ]
},
{
  "value": [
    {
      "eventHubAuthorizationRuleId": null,
      "eventHubName": null,
      "id": "/subscriptions/27b2a9c9-89f6-44cf-b4ec-74df29dce1fd/resourcegroups/husdl-tu1-omop/providers/microsoft.sql/servers/husdltu1omopss/databases/husdltu1omopdb/providers/microsoft.insights/diagnosticSettings/SQLSecurityAuditEvents_3d229c42-c7e7-4c97-9a99-ec0d0d8b86c1",
      "identity": null,
      "kind": null,
      "location": null,
      "logAnalyticsDestinationType": null,
      "logs": [
        {
          "category": "SQLSecurityAuditEvents",
          "enabled": true,
          "retentionPolicy": {
            "days": 0,
            "enabled": false
          }
        },
        {
          "category": "DmsWorkers",
          "enabled": false,
          "retentionPolicy": {
            "days": 0,
            "enabled": false
          }
        },
        {
          "category": "ExecRequests",
          "enabled": false,
          "retentionPolicy": {
            "days": 0,
            "enabled": false
          }
        },
        {
          "category": "RequestSteps",
          "enabled": false,
          "retentionPolicy": {
            "days": 0,
            "enabled": false
          }
        },
        {
          "category": "SqlRequests",
          "enabled": false,
          "retentionPolicy": {
            "days": 0,
            "enabled": false
          }
        },
        {
          "category": "Waits",
          "enabled": false,
          "retentionPolicy": {
            "days": 0,
            "enabled": false
          }
        }
      ],
      "metrics": [
        {
          "category": "Basic",
          "enabled": false,
          "retentionPolicy": {
            "days": 0,
            "enabled": false
          },
          "timeGrain": null
        },
        {
          "category": "InstanceAndAppAdvanced",
          "enabled": false,
          "retentionPolicy": {
            "days": 0,
            "enabled": false
          },
          "timeGrain": null
        },
        {
          "category": "WorkloadManagement",
          "enabled": false,
          "retentionPolicy": {
            "days": 0,
            "enabled": false
          },
          "timeGrain": null
        }
      ],
      "name": "SQLSecurityAuditEvents_3d229c42-c7e7-4c97-9a99-ec0d0d8b86c1",
      "resourceGroup": "husdl-tu1-omop",
      "serviceBusRuleId": null,
      "storageAccountId": null,
      "tags": null,
      "type": "Microsoft.Insights/diagnosticSettings",
      "workspaceId": "/subscriptions/27b2a9c9-89f6-44cf-b4ec-74df29dce1fd/resourcegroups/husdl-tu1-monitoring/providers/microsoft.operationalinsights/workspaces/husdl-tu1-loganalytics"
    }
  ]
},
{
  "value": [
    {
      "eventHubAuthorizationRuleId": null,
      "eventHubName": null,
      "id": "/subscriptions/27b2a9c9-89f6-44cf-b4ec-74df29dce1fd/resourcegroups/husdl-tu1-omop/providers/microsoft.sql/servers/husdltu1omopss/databases/master/providers/microsoft.insights/diagnosticSettings/SQLSecurityAuditEvents_3d229c42-c7e7-4c97-9a99-ec0d0d8b86c1",
      "identity": null,
      "kind": null,
      "location": null,
      "logAnalyticsDestinationType": null,
      "logs": [
        {
          "category": "SQLSecurityAuditEvents",
          "enabled": true,
          "retentionPolicy": {
            "days": 0,
            "enabled": false
          }
        },
        {
          "category": "DevOpsOperationsAudit",
          "enabled": false,
          "retentionPolicy": {
            "days": 0,
            "enabled": false
          }
        },
        {
          "category": "SQLInsights",
          "enabled": false,
          "retentionPolicy": {
            "days": 0,
            "enabled": false
          }
        },
        {
          "category": "AutomaticTuning",
          "enabled": false,
          "retentionPolicy": {
            "days": 0,
            "enabled": false
          }
        },
        {
          "category": "QueryStoreRuntimeStatistics",
          "enabled": false,
          "retentionPolicy": {
            "days": 0,
            "enabled": false
          }
        },
        {
          "category": "QueryStoreWaitStatistics",
          "enabled": false,
          "retentionPolicy": {
            "days": 0,
            "enabled": false
          }
        },
        {
          "category": "Errors",
          "enabled": false,
          "retentionPolicy": {
            "days": 0,
            "enabled": false
          }
        },
        {
          "category": "DatabaseWaitStatistics",
          "enabled": false,
          "retentionPolicy": {
            "days": 0,
            "enabled": false
          }
        },
        {
          "category": "Timeouts",
          "enabled": false,
          "retentionPolicy": {
            "days": 0,
            "enabled": false
          }
        },
        {
          "category": "Blocks",
          "enabled": false,
          "retentionPolicy": {
            "days": 0,
            "enabled": false
          }
        },
        {
          "category": "Deadlocks",
          "enabled": false,
          "retentionPolicy": {
            "days": 0,
            "enabled": false
          }
        }
      ],
      "metrics": [
        {
          "category": "Basic",
          "enabled": false,
          "retentionPolicy": {
            "days": 0,
            "enabled": false
          },
          "timeGrain": null
        },
        {
          "category": "InstanceAndAppAdvanced",
          "enabled": false,
          "retentionPolicy": {
            "days": 0,
            "enabled": false
          },
          "timeGrain": null
        },
        {
          "category": "WorkloadManagement",
          "enabled": false,
          "retentionPolicy": {
            "days": 0,
            "enabled": false
          },
          "timeGrain": null
        }
      ],
      "name": "SQLSecurityAuditEvents_3d229c42-c7e7-4c97-9a99-ec0d0d8b86c1",
      "resourceGroup": "husdl-tu1-omop",
      "serviceBusRuleId": null,
      "storageAccountId": null,
      "tags": null,
      "type": "Microsoft.Insights/diagnosticSettings",
      "workspaceId": "/subscriptions/27b2a9c9-89f6-44cf-b4ec-74df29dce1fd/resourcegroups/husdl-tu1-monitoring/providers/microsoft.operationalinsights/workspaces/husdl-tu1-loganalytics"
    }
  ]
},
{
  "value": [
    {
      "eventHubAuthorizationRuleId": null,
      "eventHubName": null,
      "id": "/subscriptions/27b2a9c9-89f6-44cf-b4ec-74df29dce1fd/resourcegroups/husdl-tu1-patient-text-pseudo/providers/microsoft.keyvault/vaults/patienttextpseudo-prd-kv/providers/microsoft.insights/diagnosticSettings/patienttextpseudo-prd-kv-audit-log-setting",
      "identity": null,
      "kind": null,
      "location": null,
      "logAnalyticsDestinationType": null,
      "logs": [
        {
          "category": "AuditEvent",
          "enabled": false,
          "retentionPolicy": {
            "days": 0,
            "enabled": false
          }
        }
      ],
      "metrics": [
        {
          "category": "AllMetrics",
          "enabled": true,
          "retentionPolicy": {
            "days": 0,
            "enabled": true
          },
          "timeGrain": null
        }
      ],
      "name": "patienttextpseudo-prd-kv-audit-log-setting",
      "resourceGroup": "husdl-tu1-patient-text-pseudo",
      "serviceBusRuleId": null,
      "storageAccountId": "/subscriptions/27b2a9c9-89f6-44cf-b4ec-74df29dce1fd/resourceGroups/husdl-tu1/providers/Microsoft.Storage/storageAccounts/husdltu1lg",
      "tags": null,
      "type": "Microsoft.Insights/diagnosticSettings",
      "workspaceId": "/subscriptions/27b2a9c9-89f6-44cf-b4ec-74df29dce1fd/resourceGroups/husdl-tu1-monitoring/providers/Microsoft.OperationalInsights/workspaces/husdl-tu1-loganalytics"
    },
    {
      "eventHubAuthorizationRuleId": null,
      "eventHubName": null,
      "id": "/subscriptions/27b2a9c9-89f6-44cf-b4ec-74df29dce1fd/resourcegroups/husdl-tu1-patient-text-pseudo/providers/microsoft.keyvault/vaults/patienttextpseudo-prd-kv/providers/microsoft.insights/diagnosticSettings/patienttextpseudo-prd-kv-diag-log-setting",
      "identity": null,
      "kind": null,
      "location": null,
      "logAnalyticsDestinationType": null,
      "logs": [
        {
          "category": "AuditEvent",
          "enabled": true,
          "retentionPolicy": {
            "days": 0,
            "enabled": true
          }
        }
      ],
      "metrics": [
        {
          "category": "AllMetrics",
          "enabled": false,
          "retentionPolicy": {
            "days": 0,
            "enabled": false
          },
          "timeGrain": null
        }
      ],
      "name": "patienttextpseudo-prd-kv-diag-log-setting",
      "resourceGroup": "husdl-tu1-patient-text-pseudo",
      "serviceBusRuleId": null,
      "storageAccountId": "/subscriptions/27b2a9c9-89f6-44cf-b4ec-74df29dce1fd/resourceGroups/husdl-tu1/providers/Microsoft.Storage/storageAccounts/husdltu1lg",
      "tags": null,
      "type": "Microsoft.Insights/diagnosticSettings",
      "workspaceId": "/subscriptions/27b2a9c9-89f6-44cf-b4ec-74df29dce1fd/resourceGroups/husdl-tu1-monitoring/providers/Microsoft.OperationalInsights/workspaces/husdl-tu1-loganalytics"
    }
  ]
},
{
  "value": [
    {
      "eventHubAuthorizationRuleId": null,
      "eventHubName": null,
      "id": "/subscriptions/27b2a9c9-89f6-44cf-b4ec-74df29dce1fd/resourcegroups/husdl-tu1-pex360/providers/microsoft.keyvault/vaults/pex360-prod-kv/providers/microsoft.insights/diagnosticSettings/pex360-keyvault-metrics",
      "identity": null,
      "kind": null,
      "location": null,
      "logAnalyticsDestinationType": null,
      "logs": [
        {
          "category": "AuditEvent",
          "enabled": false,
          "retentionPolicy": {
            "days": 0,
            "enabled": false
          }
        }
      ],
      "metrics": [
        {
          "category": "AllMetrics",
          "enabled": true,
          "retentionPolicy": {
            "days": 0,
            "enabled": true
          },
          "timeGrain": null
        }
      ],
      "name": "pex360-keyvault-metrics",
      "resourceGroup": "husdl-tu1-pex360",
      "serviceBusRuleId": null,
      "storageAccountId": null,
      "tags": null,
      "type": "Microsoft.Insights/diagnosticSettings",
      "workspaceId": "/subscriptions/27b2a9c9-89f6-44cf-b4ec-74df29dce1fd/resourceGroups/husdl-tu1-monitoring/providers/Microsoft.OperationalInsights/workspaces/husdl-tu1-loganalytics"
    },
    {
      "eventHubAuthorizationRuleId": null,
      "eventHubName": null,
      "id": "/subscriptions/27b2a9c9-89f6-44cf-b4ec-74df29dce1fd/resourcegroups/husdl-tu1-pex360/providers/microsoft.keyvault/vaults/pex360-prod-kv/providers/microsoft.insights/diagnosticSettings/pex360-keyvault-audit",
      "identity": null,
      "kind": null,
      "location": null,
      "logAnalyticsDestinationType": null,
      "logs": [
        {
          "category": "AuditEvent",
          "enabled": true,
          "retentionPolicy": {
            "days": 0,
            "enabled": true
          }
        }
      ],
      "metrics": [
        {
          "category": "AllMetrics",
          "enabled": false,
          "retentionPolicy": {
            "days": 0,
            "enabled": false
          },
          "timeGrain": null
        }
      ],
      "name": "pex360-keyvault-audit",
      "resourceGroup": "husdl-tu1-pex360",
      "serviceBusRuleId": null,
      "storageAccountId": "/subscriptions/27b2a9c9-89f6-44cf-b4ec-74df29dce1fd/resourceGroups/husdl-tu1-zone-audit/providers/Microsoft.Storage/storageAccounts/husdltu1audit",
      "tags": null,
      "type": "Microsoft.Insights/diagnosticSettings",
      "workspaceId": null
    }
  ]
},
{
  "value": [
    {
      "eventHubAuthorizationRuleId": null,
      "eventHubName": null,
      "id": "/subscriptions/27b2a9c9-89f6-44cf-b4ec-74df29dce1fd/resourcegroups/husdl-tu1-pseudo-service/providers/microsoft.dbforpostgresql/servers/prod-pseudo-service-db-pgsql/providers/microsoft.insights/diagnosticSettings/pseudo-db-diagnostics",
      "identity": null,
      "kind": null,
      "location": null,
      "logAnalyticsDestinationType": null,
      "logs": [
        {
          "category": "QueryStoreWaitStatistics",
          "enabled": false,
          "retentionPolicy": {
            "days": 0,
            "enabled": false
          }
        },
        {
          "category": "QueryStoreRuntimeStatistics",
          "enabled": false,
          "retentionPolicy": {
            "days": 0,
            "enabled": false
          }
        },
        {
          "category": "PostgreSQLLogs",
          "enabled": true,
          "retentionPolicy": {
            "days": 0,
            "enabled": true
          }
        }
      ],
      "metrics": [
        {
          "category": "AllMetrics",
          "enabled": true,
          "retentionPolicy": {
            "days": 0,
            "enabled": true
          },
          "timeGrain": null
        }
      ],
      "name": "pseudo-db-diagnostics",
      "resourceGroup": "husdl-tu1-pseudo-service",
      "serviceBusRuleId": null,
      "storageAccountId": "/subscriptions/27b2a9c9-89f6-44cf-b4ec-74df29dce1fd/resourceGroups/husdl-tu1-zone-log/providers/Microsoft.Storage/storageAccounts/husdltu1log",
      "tags": null,
      "type": "Microsoft.Insights/diagnosticSettings",
      "workspaceId": "/subscriptions/27b2a9c9-89f6-44cf-b4ec-74df29dce1fd/resourceGroups/husdl-tu1-monitoring/providers/Microsoft.OperationalInsights/workspaces/husdl-tu1-loganalytics"
    },
    {
      "eventHubAuthorizationRuleId": null,
      "eventHubName": null,
      "id": "/subscriptions/27b2a9c9-89f6-44cf-b4ec-74df29dce1fd/resourcegroups/husdl-tu1-pseudo-service/providers/microsoft.dbforpostgresql/servers/prod-pseudo-service-db-pgsql/providers/microsoft.insights/diagnosticSettings/pseudoservice-db-log-setting",
      "identity": null,
      "kind": null,
      "location": null,
      "logAnalyticsDestinationType": null,
      "logs": [
        {
          "category": "QueryStoreWaitStatistics",
          "enabled": false,
          "retentionPolicy": {
            "days": 0,
            "enabled": false
          }
        },
        {
          "category": "QueryStoreRuntimeStatistics",
          "enabled": false,
          "retentionPolicy": {
            "days": 0,
            "enabled": false
          }
        },
        {
          "category": "PostgreSQLLogs",
          "enabled": true,
          "retentionPolicy": {
            "days": 0,
            "enabled": true
          }
        }
      ],
      "metrics": [
        {
          "category": "AllMetrics",
          "enabled": true,
          "retentionPolicy": {
            "days": 0,
            "enabled": true
          },
          "timeGrain": null
        }
      ],
      "name": "pseudoservice-db-log-setting",
      "resourceGroup": "husdl-tu1-pseudo-service",
      "serviceBusRuleId": null,
      "storageAccountId": "/subscriptions/27b2a9c9-89f6-44cf-b4ec-74df29dce1fd/resourceGroups/husdl-tu1-apps-auto/providers/Microsoft.Storage/storageAccounts/appsautoprodlogstorage",
      "tags": null,
      "type": "Microsoft.Insights/diagnosticSettings",
      "workspaceId": "/subscriptions/27b2a9c9-89f6-44cf-b4ec-74df29dce1fd/resourcegroups/husdl-tu1-pseudo-service/providers/microsoft.operationalinsights/workspaces/prod-pseudoservice-db-log-analytics"
    }
  ]
},
{
  "value": [
    {
      "eventHubAuthorizationRuleId": null,
      "eventHubName": null,
      "id": "/subscriptions/27b2a9c9-89f6-44cf-b4ec-74df29dce1fd/resourcegroups/husdl-tu1-pseudo-service/providers/microsoft.keyvault/vaults/prod-pseudo-service-kv/providers/microsoft.insights/diagnosticSettings/pseudoservice-kv-audit-log-setting",
      "identity": null,
      "kind": null,
      "location": null,
      "logAnalyticsDestinationType": null,
      "logs": [
        {
          "category": "AuditEvent",
          "enabled": false,
          "retentionPolicy": {
            "days": 0,
            "enabled": false
          }
        }
      ],
      "metrics": [
        {
          "category": "AllMetrics",
          "enabled": true,
          "retentionPolicy": {
            "days": 0,
            "enabled": true
          },
          "timeGrain": null
        }
      ],
      "name": "pseudoservice-kv-audit-log-setting",
      "resourceGroup": "husdl-tu1-pseudo-service",
      "serviceBusRuleId": null,
      "storageAccountId": "/subscriptions/27b2a9c9-89f6-44cf-b4ec-74df29dce1fd/resourceGroups/husdl-tu1/providers/Microsoft.Storage/storageAccounts/husdltu1lg",
      "tags": null,
      "type": "Microsoft.Insights/diagnosticSettings",
      "workspaceId": "/subscriptions/27b2a9c9-89f6-44cf-b4ec-74df29dce1fd/resourcegroups/husdl-tu1-pseudo-service/providers/microsoft.operationalinsights/workspaces/prod-pseudoservice-db-log-analytics"
    },
    {
      "eventHubAuthorizationRuleId": null,
      "eventHubName": null,
      "id": "/subscriptions/27b2a9c9-89f6-44cf-b4ec-74df29dce1fd/resourcegroups/husdl-tu1-pseudo-service/providers/microsoft.keyvault/vaults/prod-pseudo-service-kv/providers/microsoft.insights/diagnosticSettings/pseudoservice-kv-diag-log-setting",
      "identity": null,
      "kind": null,
      "location": null,
      "logAnalyticsDestinationType": null,
      "logs": [
        {
          "category": "AuditEvent",
          "enabled": true,
          "retentionPolicy": {
            "days": 0,
            "enabled": true
          }
        }
      ],
      "metrics": [
        {
          "category": "AllMetrics",
          "enabled": false,
          "retentionPolicy": {
            "days": 0,
            "enabled": false
          },
          "timeGrain": null
        }
      ],
      "name": "pseudoservice-kv-diag-log-setting",
      "resourceGroup": "husdl-tu1-pseudo-service",
      "serviceBusRuleId": null,
      "storageAccountId": "/subscriptions/27b2a9c9-89f6-44cf-b4ec-74df29dce1fd/resourceGroups/husdl-tu1/providers/Microsoft.Storage/storageAccounts/husdltu1lg",
      "tags": null,
      "type": "Microsoft.Insights/diagnosticSettings",
      "workspaceId": "/subscriptions/27b2a9c9-89f6-44cf-b4ec-74df29dce1fd/resourcegroups/husdl-tu1-pseudo-service/providers/microsoft.operationalinsights/workspaces/prod-pseudoservice-db-log-analytics"
    }
  ]
},
{
  "value": [
    {
      "eventHubAuthorizationRuleId": null,
      "eventHubName": null,
      "id": "/subscriptions/27b2a9c9-89f6-44cf-b4ec-74df29dce1fd/resourcegroups/husdl-tu1-services/providers/microsoft.logic/workflows/pex360-audit-forward/providers/microsoft.insights/diagnosticSettings/pex360-lapp-diagnostics",
      "identity": null,
      "kind": null,
      "location": null,
      "logAnalyticsDestinationType": null,
      "logs": [
        {
          "category": "WorkflowRuntime",
          "enabled": true,
          "retentionPolicy": {
            "days": 0,
            "enabled": true
          }
        }
      ],
      "metrics": [
        {
          "category": "AllMetrics",
          "enabled": true,
          "retentionPolicy": {
            "days": 0,
            "enabled": true
          },
          "timeGrain": null
        }
      ],
      "name": "pex360-lapp-diagnostics",
      "resourceGroup": "husdl-tu1-services",
      "serviceBusRuleId": null,
      "storageAccountId": null,
      "tags": null,
      "type": "Microsoft.Insights/diagnosticSettings",
      "workspaceId": "/subscriptions/27b2a9c9-89f6-44cf-b4ec-74df29dce1fd/resourceGroups/husdl-tu1-monitoring/providers/Microsoft.OperationalInsights/workspaces/husdl-tu1-loganalytics"
    }
  ]
}
]