group name(L0);group name(L1);group name(L2);group name(L3);
TietoAllasTutkimus koronahelsinki;HUS DataWS Prod koronahelsinki Writers;HUS Data Prod Root Access;HUS Data Prod Root Access;
TietoAllasTutkimus koronahelsinki;HUS DataWS Prod koronahelsinki Readers;HUS Data Prod Root Access;HUS Data Prod Root Access;
TietoAllasTutkimus koronahelsinki;HUS Data Prod Root Access;HUS Data Prod Root Access;HUS Data Prod Root Access;
TietoAllasTutkimus korona;HUS DataWS Prod Koronaennakointi Writers;HUS Data Prod Root Access;HUS Data Prod Root Access;
TietoAllasTutkimus korona;HUS DataWS Prod Koronaennakointi Readers;HUS Data Prod Root Access;HUS Data Prod Root Access;
TietoAllasTutkimus korona;HUS Data Prod Root Access;HUS Data Prod Root Access;HUS Data Prod Root Access;
TietoAllasTutkimus hbb_aalto;HUS DataWS Prod HBBAalto Writers;HUS Data Prod Root Access;;
TietoAllasTutkimus hbb_aalto;HUS DataWS Prod HBBAalto Readers;HUS Data Prod Root Access;;
TietoAllasTutkimus hbb_aalto;HUS Data Prod Root Access;HUS Data Prod Root Access;;
TietoAllasTutkimus eCare4Me;HUS DataWS Prod Hemadatalake_aic-790 Writers;HUS Data Prod Root Access;HUS Data Prod Root Access;
TietoAllasTutkimus eCare4Me;HUS DataWS Prod Hemadatalake_aic-790 Readers;HUS Data Prod Root Access;HUS Data Prod Root Access;
TietoAllasTutkimus eCare4Me;HUS Data Prod Root Access;HUS Data Prod Root Access;HUS Data Prod Root Access;
TietoAllasTutkimus Ibrance;HUS DataWS Prod Ibrance Writers;HUS Data Prod Root Access;;
TietoAllasTutkimus Ibrance;HUS DataWS Prod Ibrance Readers;HUS Data Prod Root Access;;
TietoAllasTutkimus Ibrance;HUS Data Prod Root Access;HUS Data Prod Root Access;;
TietoAllasTutkimus HoitosuudenDW;HUS DataWS Prod DWDL Writers;HUS Data Prod Root Access;HUS Data Prod Root Access;
TietoAllasTutkimus HoitosuudenDW;HUS DataWS Prod DWDL Readers;HUS Data Prod Root Access;HUS Data Prod Root Access;
TietoAllasTutkimus HoitosuudenDW;HUS Data Prod Root Access;HUS Data Prod Root Access;HUS Data Prod Root Access;
TietoAllasTutkimus HoitosuudenDW;DataLakeRootAccessors;HUS Data Prod Root Access;HUS Data Prod Root Access;
TietoAllasTutkimus HRUHLAB2;HUS DataWS Prod Hematologia Writers;HUS Data Prod Root Access;HUS Data Prod Root Access;
TietoAllasTutkimus HRUHLAB2;HUS DataWS Prod Hematologia Readers;HUS Data Prod Root Access;HUS Data Prod Root Access;
TietoAllasTutkimus HRUHLAB2;HUS DataWS Prod Hemadatalake_aic-815 Writers;HUS Data Prod Root Access;HUS Data Prod Root Access;
TietoAllasTutkimus HRUHLAB2;HUS DataWS Prod Hemadatalake_aic-815 Readers;HUS Data Prod Root Access;HUS Data Prod Root Access;
TietoAllasTutkimus HRUHLAB2;HUS Data Prod Root Access;HUS Data Prod Root Access;HUS Data Prod Root Access;
TietoAllasTutkimus Finnprostata IX;HUS DataWS Prod FinnProstata Writers;HUS Data Prod Root Access;;
TietoAllasTutkimus Finnprostata IX;HUS DataWS Prod FinnProstata Readers;HUS Data Prod Root Access;;
TietoAllasTutkimus Finnprostata IX;HUS Data Prod Root Access;HUS Data Prod Root Access;;
TietoAllasTutkimus Finalk;HUS DataWS Prod MedEngine Writers;HUS Data Prod Root Access;;
TietoAllasTutkimus Finalk;HUS DataWS Prod MedEngine Readers;HUS Data Prod Root Access;;
TietoAllasTutkimus Finalk;HUS DataWS Prod MedEngine Readers;;;
TietoAllasTutkimus Finalk;HUS Data Prod Root Access;HUS Data Prod Root Access;;
TietoAllasTutkimus Clever health harvinaissairaudet AI PoP;HUS DataWS Prod CleverHealth Writers;HUS Data Prod Root Access;HUS Data Prod Root Access;
TietoAllasTutkimus Clever health harvinaissairaudet AI PoP;HUS DataWS Prod CleverHealth Readers;HUS Data Prod Root Access;HUS Data Prod Root Access;
TietoAllasTutkimus Clever health harvinaissairaudet AI PoP;HUS Data Prod Root Access;HUS Data Prod Root Access;HUS Data Prod Root Access;
TietoAllasTutkimus Biopankki;HUS DataWS Prod BiopankkiDL Writers;HUS Data Prod Storage Access;HUS Data Prod Root Access;
TietoAllasTutkimus Biopankki;HUS DataWS Prod BiopankkiDL Writers;HUS Data Prod Root Access;HUS Data Prod Root Access;
TietoAllasTutkimus Biopankki;HUS DataWS Prod BiopankkiDL Readers;HUS Data Prod Storage Access;HUS Data Prod Root Access;
TietoAllasTutkimus Biopankki;HUS DataWS Prod BiopankkiDL Readers;HUS Data Prod Root Access;HUS Data Prod Root Access;
TietoAllasTutkimus Biopankki;HUS DataWS Prod Biopankki Writers;HUS Data Prod Root Access;HUS Data Prod Root Access;
TietoAllasTutkimus Biopankki;HUS DataWS Prod Biopankki Readers;HUS Data Prod Storage QPati Readers;HUS Data Prod Storage Access;
TietoAllasTutkimus Biopankki;HUS DataWS Prod Biopankki Readers;HUS Data Prod Storage QPati Readers;HUS Data Prod Root Access;
TietoAllasTutkimus Biopankki;HUS DataWS Prod Biopankki Readers;HUS Data Prod Storage Opera Readers;HUS Data Prod Storage Access;
TietoAllasTutkimus Biopankki;HUS DataWS Prod Biopankki Readers;HUS Data Prod Storage Opera Readers;HUS Data Prod Root Access;
TietoAllasTutkimus Biopankki;HUS DataWS Prod Biopankki Readers;HUS Data Prod Storage Muse Readers;HUS Data Prod Storage Access;
TietoAllasTutkimus Biopankki;HUS DataWS Prod Biopankki Readers;HUS Data Prod Storage Muse Readers;HUS Data Prod Root Access;
TietoAllasTutkimus Biopankki;HUS DataWS Prod Biopankki Readers;HUS Data Prod Storage Multilab Readers;HUS Data Prod Storage Access;
TietoAllasTutkimus Biopankki;HUS DataWS Prod Biopankki Readers;HUS Data Prod Storage Multilab Readers;HUS Data Prod Root Access;
TietoAllasTutkimus Biopankki;HUS DataWS Prod Biopankki Readers;HUS Data Prod Storage Labvantage Readers;HUS Data Prod Storage Access;
TietoAllasTutkimus Biopankki;HUS DataWS Prod Biopankki Readers;HUS Data Prod Storage Labvantage Readers;HUS Data Prod Root Access;
TietoAllasTutkimus Biopankki;HUS DataWS Prod Biopankki Readers;HUS Data Prod Storage HealthWeb Readers;HUS Data Prod Storage Access;
TietoAllasTutkimus Biopankki;HUS DataWS Prod Biopankki Readers;HUS Data Prod Storage HealthWeb Readers;HUS Data Prod Root Access;
TietoAllasTutkimus Biopankki;HUS DataWS Prod Biopankki Readers;HUS Data Prod Storage HUSRADU Readers;HUS Data Prod Storage Access;
TietoAllasTutkimus Biopankki;HUS DataWS Prod Biopankki Readers;HUS Data Prod Storage HUSRADU Readers;HUS Data Prod Root Access;
TietoAllasTutkimus Biopankki;HUS DataWS Prod Biopankki Readers;HUS Data Prod Storage CressidaODS Readers;HUS Data Prod Storage Access;
TietoAllasTutkimus Biopankki;HUS DataWS Prod Biopankki Readers;HUS Data Prod Storage CressidaODS Readers;HUS Data Prod Root Access;
TietoAllasTutkimus Biopankki;HUS DataWS Prod Biopankki Readers;HUS Data Prod Storage Codeserver Readers;HUS Data Prod Storage Access;
TietoAllasTutkimus Biopankki;HUS DataWS Prod Biopankki Readers;HUS Data Prod Storage Codeserver Readers;HUS Data Prod Root Access;
TietoAllasTutkimus Biopankki;HUS DataWS Prod Biopankki Readers;HUS Data Prod Storage Clinisoft Readers;HUS Data Prod Storage Access;
TietoAllasTutkimus Biopankki;HUS DataWS Prod Biopankki Readers;HUS Data Prod Storage Clinisoft Readers;HUS Data Prod Root Access;
TietoAllasTutkimus Biopankki;HUS DataWS Prod Biopankki Readers;HUS Data Prod Storage Caresuite Readers;HUS Data Prod Storage Access;
TietoAllasTutkimus Biopankki;HUS DataWS Prod Biopankki Readers;HUS Data Prod Storage Caresuite Readers;HUS Data Prod Root Access;
TietoAllasTutkimus Biopankki;HUS DataWS Prod Biopankki Readers;HUS Data Prod Storage Carescape Readers;HUS Data Prod Storage Access;
TietoAllasTutkimus Biopankki;HUS DataWS Prod Biopankki Readers;HUS Data Prod Storage Carescape Readers;HUS Data Prod Root Access;
TietoAllasTutkimus Biopankki;HUS DataWS Prod Biopankki Readers;HUS Data Prod Storage CA Readers;HUS Data Prod Storage Access;
TietoAllasTutkimus Biopankki;HUS DataWS Prod Biopankki Readers;HUS Data Prod Storage CA Readers;HUS Data Prod Root Access;
TietoAllasTutkimus Biopankki;HUS DataWS Prod Biopankki Readers;HUS Data Prod Storage BCB Readers;HUS Data Prod Storage Access;
TietoAllasTutkimus Biopankki;HUS DataWS Prod Biopankki Readers;HUS Data Prod Storage BCB Readers;HUS Data Prod Root Access;
TietoAllasTutkimus Biopankki;HUS DataWS Prod Biopankki Readers;HUS Data Prod Storage Access;HUS Data Prod Storage Access;
TietoAllasTutkimus Biopankki;HUS DataWS Prod Biopankki Readers;HUS Data Prod Storage Access;HUS Data Prod Root Access;
TietoAllasTutkimus Biopankki;HUS DataWS Prod Biopankki Readers;HUS Data Prod Root Access;HUS Data Prod Storage Access;
TietoAllasTutkimus Biopankki;HUS DataWS Prod Biopankki Readers;HUS Data Prod Root Access;HUS Data Prod Root Access;
TietoAllasTutkimus Biopankki;HUS Data Prod Storage Tilannekanta Apotti Readers;HUS Data Prod Storage Access;HUS Data Prod Root Access;
TietoAllasTutkimus Biopankki;HUS Data Prod Storage Tilannekanta Apotti Readers;HUS Data Prod Root Access;HUS Data Prod Root Access;
TietoAllasTutkimus Biopankki;HUS Data Prod Storage QPati Readers;HUS Data Prod Storage Access;HUS Data Prod Root Access;
TietoAllasTutkimus Biopankki;HUS Data Prod Storage QPati Readers;HUS Data Prod Root Access;HUS Data Prod Root Access;
TietoAllasTutkimus Biopankki;HUS Data Prod Storage Opera Readers;HUS Data Prod Storage Access;HUS Data Prod Root Access;
TietoAllasTutkimus Biopankki;HUS Data Prod Storage Opera Readers;HUS Data Prod Root Access;HUS Data Prod Root Access;
TietoAllasTutkimus Biopankki;HUS Data Prod Storage Muse Readers;HUS Data Prod Storage Access;HUS Data Prod Root Access;
TietoAllasTutkimus Biopankki;HUS Data Prod Storage Muse Readers;HUS Data Prod Root Access;HUS Data Prod Root Access;
TietoAllasTutkimus Biopankki;HUS Data Prod Storage Multilab Readers;HUS Data Prod Storage Access;HUS Data Prod Root Access;
TietoAllasTutkimus Biopankki;HUS Data Prod Storage Multilab Readers;HUS Data Prod Root Access;HUS Data Prod Root Access;
TietoAllasTutkimus Biopankki;HUS Data Prod Storage Labvantage Readers;HUS Data Prod Storage Access;HUS Data Prod Root Access;
TietoAllasTutkimus Biopankki;HUS Data Prod Storage Labvantage Readers;HUS Data Prod Root Access;HUS Data Prod Root Access;
TietoAllasTutkimus Biopankki;HUS Data Prod Storage HealthWeb Readers;HUS Data Prod Storage Access;HUS Data Prod Root Access;
TietoAllasTutkimus Biopankki;HUS Data Prod Storage HealthWeb Readers;HUS Data Prod Root Access;HUS Data Prod Root Access;
TietoAllasTutkimus Biopankki;HUS Data Prod Storage HUSRADU Readers;HUS Data Prod Storage Access;HUS Data Prod Root Access;
TietoAllasTutkimus Biopankki;HUS Data Prod Storage HUSRADU Readers;HUS Data Prod Root Access;HUS Data Prod Root Access;
TietoAllasTutkimus Biopankki;HUS Data Prod Storage CressidaODS Readers;HUS Data Prod Storage Access;HUS Data Prod Root Access;
TietoAllasTutkimus Biopankki;HUS Data Prod Storage CressidaODS Readers;HUS Data Prod Root Access;HUS Data Prod Root Access;
TietoAllasTutkimus Biopankki;HUS Data Prod Storage Codeserver Readers;HUS Data Prod Storage Access;HUS Data Prod Root Access;
TietoAllasTutkimus Biopankki;HUS Data Prod Storage Codeserver Readers;HUS Data Prod Root Access;HUS Data Prod Root Access;
TietoAllasTutkimus Biopankki;HUS Data Prod Storage Clinisoft Readers;HUS Data Prod Storage Access;HUS Data Prod Root Access;
TietoAllasTutkimus Biopankki;HUS Data Prod Storage Clinisoft Readers;HUS Data Prod Root Access;HUS Data Prod Root Access;
TietoAllasTutkimus Biopankki;HUS Data Prod Storage Clarity Readers;HUS Data Prod Storage Access;HUS Data Prod Root Access;
TietoAllasTutkimus Biopankki;HUS Data Prod Storage Clarity Readers;HUS Data Prod Storage Access;;
TietoAllasTutkimus Biopankki;HUS Data Prod Storage Clarity Readers;HUS Data Prod Root Access;;
TietoAllasTutkimus Biopankki;HUS Data Prod Storage Caresuite Readers;HUS Data Prod Storage Access;HUS Data Prod Root Access;
TietoAllasTutkimus Biopankki;HUS Data Prod Storage Caresuite Readers;HUS Data Prod Root Access;HUS Data Prod Root Access;
TietoAllasTutkimus Biopankki;HUS Data Prod Storage Carescape Readers;HUS Data Prod Storage Access;HUS Data Prod Root Access;
TietoAllasTutkimus Biopankki;HUS Data Prod Storage Carescape Readers;HUS Data Prod Root Access;HUS Data Prod Root Access;
TietoAllasTutkimus Biopankki;HUS Data Prod Storage CA Readers;HUS Data Prod Storage Access;HUS Data Prod Root Access;
TietoAllasTutkimus Biopankki;HUS Data Prod Storage CA Readers;HUS Data Prod Root Access;HUS Data Prod Root Access;
TietoAllasTutkimus Biopankki;HUS Data Prod Storage BCB Readers;HUS Data Prod Storage Access;HUS Data Prod Root Access;
TietoAllasTutkimus Biopankki;HUS Data Prod Storage BCB Readers;HUS Data Prod Root Access;HUS Data Prod Root Access;
TietoAllasTutkimus Biopankki;HUS Data Prod Storage Apotti Extracts Readers;HUS Data Prod Storage Access;HUS Data Prod Root Access;
TietoAllasTutkimus Biopankki;HUS Data Prod Storage Apotti Extracts Readers;HUS Data Prod Root Access;HUS Data Prod Root Access;
TietoAllasTutkimus Biopankki;HUS Data Prod Storage Access;HUS Data Prod Storage Access;HUS Data Prod Root Access;
TietoAllasTutkimus Biopankki;HUS Data Prod Storage Access;HUS Data Prod Root Access;HUS Data Prod Root Access;
TietoAllasTutkimus Biopankki;HUS Data Prod Root Access;HUS Data Prod Storage Access;HUS Data Prod Root Access;
TietoAllas BI Kayttaja;Pseudo Service Admin;HUS Data Prod Root Access;HUS Data Prod Root Access;
TietoAllas BI Kayttaja;HUS DataWS Prod koronahelsinki Writers;HUS Data Prod Root Access;HUS Data Prod Root Access;
TietoAllas BI Kayttaja;HUS DataWS Prod koronahelsinki Readers;HUS Data Prod Root Access;HUS Data Prod Root Access;
TietoAllas BI Kayttaja;HUS DataWS Prod Koronaennakointi Writers;HUS Data Prod Storage Access;HUS Data Prod Root Access;
TietoAllas BI Kayttaja;HUS DataWS Prod Koronaennakointi Writers;HUS Data Prod Root Access;HUS Data Prod Root Access;
TietoAllas BI Kayttaja;HUS DataWS Prod Koronaennakointi Readers;HUS Data Prod Storage Access;HUS Data Prod Root Access;
TietoAllas BI Kayttaja;HUS DataWS Prod Koronaennakointi Readers;HUS Data Prod Root Access;HUS Data Prod Root Access;
TietoAllas BI Kayttaja;HUS DataWS Prod BIDL Writers;HUS Data Prod Root Access;HUS Data Prod Root Access;
TietoAllas BI Kayttaja;HUS DataWS Prod BIDL Readers;HUS Data Prod Storage Access;HUS Data Prod Root Access;
TietoAllas BI Kayttaja;HUS DataWS Prod BIDL Readers;HUS Data Prod Root Access;HUS Data Prod Root Access;
TietoAllas BI Kayttaja;HUS DataWS Prod AITeam Writers;HUS Data Prod Share Helsinki Covid19 Aggregations Writers;HUS Data Prod Root Access;
TietoAllas BI Kayttaja;HUS DataWS Prod AITeam Writers;HUS Data Prod Root Access;HUS Data Prod Root Access;
TietoAllas BI Kayttaja;HUS DataWS Prod AITeam Readers;HUS Data Prod Storage XDS Readers;HUS Data Prod Storage Access;
TietoAllas BI Kayttaja;HUS DataWS Prod AITeam Readers;HUS Data Prod Storage XDS Readers;HUS Data Prod Root Access;
TietoAllas BI Kayttaja;HUS DataWS Prod AITeam Readers;HUS Data Prod Storage Tilastokeskus Readers;HUS Data Prod Storage Access;
TietoAllas BI Kayttaja;HUS DataWS Prod AITeam Readers;HUS Data Prod Storage Tilastokeskus Readers;HUS Data Prod Root Access;
TietoAllas BI Kayttaja;HUS DataWS Prod AITeam Readers;HUS Data Prod Storage Terveyskyla Readers;HUS Data Prod Storage Access;
TietoAllas BI Kayttaja;HUS DataWS Prod AITeam Readers;HUS Data Prod Storage Terveyskyla Readers;HUS Data Prod Root Access;
TietoAllas BI Kayttaja;HUS DataWS Prod AITeam Readers;HUS Data Prod Storage TEHO Benchmarking Readers;HUS Data Prod Storage Access;
TietoAllas BI Kayttaja;HUS DataWS Prod AITeam Readers;HUS Data Prod Storage TEHO Benchmarking Readers;HUS Data Prod Root Access;
TietoAllas BI Kayttaja;HUS DataWS Prod AITeam Readers;HUS Data Prod Storage Readmission Readers;HUS Data Prod Storage Access;
TietoAllas BI Kayttaja;HUS DataWS Prod AITeam Readers;HUS Data Prod Storage Readmission Readers;HUS Data Prod Root Access;
TietoAllas BI Kayttaja;HUS DataWS Prod AITeam Readers;HUS Data Prod Storage QPati Readers;HUS Data Prod Storage Access;
TietoAllas BI Kayttaja;HUS DataWS Prod AITeam Readers;HUS Data Prod Storage QPati Readers;HUS Data Prod Root Access;
TietoAllas BI Kayttaja;HUS DataWS Prod AITeam Readers;HUS Data Prod Storage Opera Readers;HUS Data Prod Storage Access;
TietoAllas BI Kayttaja;HUS DataWS Prod AITeam Readers;HUS Data Prod Storage Opera Readers;HUS Data Prod Root Access;
TietoAllas BI Kayttaja;HUS DataWS Prod AITeam Readers;HUS Data Prod Storage Obstetrix Readers;HUS Data Prod Storage Access;
TietoAllas BI Kayttaja;HUS DataWS Prod AITeam Readers;HUS Data Prod Storage Obstetrix Readers;HUS Data Prod Root Access;
TietoAllas BI Kayttaja;HUS DataWS Prod AITeam Readers;HUS Data Prod Storage Navitas Readers;HUS Data Prod Storage Access;
TietoAllas BI Kayttaja;HUS DataWS Prod AITeam Readers;HUS Data Prod Storage Navitas Readers;HUS Data Prod Root Access;
TietoAllas BI Kayttaja;HUS DataWS Prod AITeam Readers;HUS Data Prod Storage Mynla Readers;HUS Data Prod Storage Access;
TietoAllas BI Kayttaja;HUS DataWS Prod AITeam Readers;HUS Data Prod Storage Mynla Readers;HUS Data Prod Root Access;
TietoAllas BI Kayttaja;HUS DataWS Prod AITeam Readers;HUS Data Prod Storage Mustiradu Readers;HUS Data Prod Storage Access;
TietoAllas BI Kayttaja;HUS DataWS Prod AITeam Readers;HUS Data Prod Storage Mustiradu Readers;HUS Data Prod Root Access;
TietoAllas BI Kayttaja;HUS DataWS Prod AITeam Readers;HUS Data Prod Storage Muse Readers;HUS Data Prod Storage Access;
TietoAllas BI Kayttaja;HUS DataWS Prod AITeam Readers;HUS Data Prod Storage Muse Readers;HUS Data Prod Root Access;
TietoAllas BI Kayttaja;HUS DataWS Prod AITeam Readers;HUS Data Prod Storage Multilab Readers;HUS Data Prod Storage Access;
TietoAllas BI Kayttaja;HUS DataWS Prod AITeam Readers;HUS Data Prod Storage Multilab Readers;HUS Data Prod Root Access;
TietoAllas BI Kayttaja;HUS DataWS Prod AITeam Readers;HUS Data Prod Storage MerlotMediSFTP Readers;HUS Data Prod Storage Access;
TietoAllas BI Kayttaja;HUS DataWS Prod AITeam Readers;HUS Data Prod Storage MerlotMediSFTP Readers;HUS Data Prod Root Access;
TietoAllas BI Kayttaja;HUS DataWS Prod AITeam Readers;HUS Data Prod Storage MerlotMedi Readers;HUS Data Prod Storage Access;
TietoAllas BI Kayttaja;HUS DataWS Prod AITeam Readers;HUS Data Prod Storage MerlotMedi Readers;HUS Data Prod Root Access;
TietoAllas BI Kayttaja;HUS DataWS Prod AITeam Readers;HUS Data Prod Storage Kaiku Readers;HUS Data Prod Storage Access;
TietoAllas BI Kayttaja;HUS DataWS Prod AITeam Readers;HUS Data Prod Storage Kaiku Readers;HUS Data Prod Root Access;
TietoAllas BI Kayttaja;HUS DataWS Prod AITeam Readers;HUS Data Prod Storage IDM Readers;HUS Data Prod Storage Access;
TietoAllas BI Kayttaja;HUS DataWS Prod AITeam Readers;HUS Data Prod Storage IDM Readers;HUS Data Prod Root Access;
TietoAllas BI Kayttaja;HUS DataWS Prod AITeam Readers;HUS Data Prod Storage Hematology_consent Readers;HUS Data Prod Storage Access;
TietoAllas BI Kayttaja;HUS DataWS Prod AITeam Readers;HUS Data Prod Storage Hematology_consent Readers;HUS Data Prod Root Access;
TietoAllas BI Kayttaja;HUS DataWS Prod AITeam Readers;HUS Data Prod Storage HealthWeb Readers;HUS Data Prod Storage Access;
TietoAllas BI Kayttaja;HUS DataWS Prod AITeam Readers;HUS Data Prod Storage HealthWeb Readers;HUS Data Prod Root Access;
TietoAllas BI Kayttaja;HUS DataWS Prod AITeam Readers;HUS Data Prod Storage HaiPro Readers;HUS Data Prod Storage Access;
TietoAllas BI Kayttaja;HUS DataWS Prod AITeam Readers;HUS Data Prod Storage HaiPro Readers;HUS Data Prod Root Access;
TietoAllas BI Kayttaja;HUS DataWS Prod AITeam Readers;HUS Data Prod Storage HUSRADU Readers;HUS Data Prod Storage Access;
TietoAllas BI Kayttaja;HUS DataWS Prod AITeam Readers;HUS Data Prod Storage HUSRADU Readers;HUS Data Prod Root Access;
TietoAllas BI Kayttaja;HUS DataWS Prod AITeam Readers;HUS Data Prod Storage HUSDW Readers;HUS Data Prod Storage Access;
TietoAllas BI Kayttaja;HUS DataWS Prod AITeam Readers;HUS Data Prod Storage HUSDW Readers;HUS Data Prod Root Access;
TietoAllas BI Kayttaja;HUS DataWS Prod AITeam Readers;HUS Data Prod Storage HRM Readers;HUS Data Prod Storage Access;
TietoAllas BI Kayttaja;HUS DataWS Prod AITeam Readers;HUS Data Prod Storage HRM Readers;HUS Data Prod Root Access;
TietoAllas BI Kayttaja;HUS DataWS Prod AITeam Readers;HUS Data Prod Storage Fusion Readers;HUS Data Prod Storage Access;
TietoAllas BI Kayttaja;HUS DataWS Prod AITeam Readers;HUS Data Prod Storage Fusion Readers;HUS Data Prod Root Access;
TietoAllas BI Kayttaja;HUS DataWS Prod AITeam Readers;HUS Data Prod Storage Finnheart_cfmreporting Readers;HUS Data Prod Storage Access;
TietoAllas BI Kayttaja;HUS DataWS Prod AITeam Readers;HUS Data Prod Storage Finnheart_cfmreporting Readers;HUS Data Prod Root Access;
TietoAllas BI Kayttaja;HUS DataWS Prod AITeam Readers;HUS Data Prod Storage Datawell Readers;HUS Data Prod Storage Access;
TietoAllas BI Kayttaja;HUS DataWS Prod AITeam Readers;HUS Data Prod Storage Datawell Readers;HUS Data Prod Root Access;
TietoAllas BI Kayttaja;HUS DataWS Prod AITeam Readers;HUS Data Prod Storage CressidaODS Readers;HUS Data Prod Storage Access;
TietoAllas BI Kayttaja;HUS DataWS Prod AITeam Readers;HUS Data Prod Storage CressidaODS Readers;HUS Data Prod Root Access;
TietoAllas BI Kayttaja;HUS DataWS Prod AITeam Readers;HUS Data Prod Storage Codeserver Readers;HUS Data Prod Storage Access;
TietoAllas BI Kayttaja;HUS DataWS Prod AITeam Readers;HUS Data Prod Storage Codeserver Readers;HUS Data Prod Root Access;
TietoAllas BI Kayttaja;HUS DataWS Prod AITeam Readers;HUS Data Prod Storage Clinisoft Readers;HUS Data Prod Storage Access;
TietoAllas BI Kayttaja;HUS DataWS Prod AITeam Readers;HUS Data Prod Storage Clinisoft Readers;HUS Data Prod Root Access;
TietoAllas BI Kayttaja;HUS DataWS Prod AITeam Readers;HUS Data Prod Storage Caresuite Readers;HUS Data Prod Storage Access;
TietoAllas BI Kayttaja;HUS DataWS Prod AITeam Readers;HUS Data Prod Storage Caresuite Readers;HUS Data Prod Root Access;
TietoAllas BI Kayttaja;HUS DataWS Prod AITeam Readers;HUS Data Prod Storage Carescape Readers;HUS Data Prod Storage Access;
TietoAllas BI Kayttaja;HUS DataWS Prod AITeam Readers;HUS Data Prod Storage Carescape Readers;HUS Data Prod Root Access;
TietoAllas BI Kayttaja;HUS DataWS Prod AITeam Readers;HUS Data Prod Storage Carea Readers;HUS Data Prod Storage Access;
TietoAllas BI Kayttaja;HUS DataWS Prod AITeam Readers;HUS Data Prod Storage Carea Readers;HUS Data Prod Root Access;
TietoAllas BI Kayttaja;HUS DataWS Prod AITeam Readers;HUS Data Prod Storage CA Readers;HUS Data Prod Storage Access;
TietoAllas BI Kayttaja;HUS DataWS Prod AITeam Readers;HUS Data Prod Storage CA Readers;HUS Data Prod Root Access;
TietoAllas BI Kayttaja;HUS DataWS Prod AITeam Readers;HUS Data Prod Storage BCB Readers;HUS Data Prod Storage Access;
TietoAllas BI Kayttaja;HUS DataWS Prod AITeam Readers;HUS Data Prod Storage BCB Readers;HUS Data Prod Root Access;
TietoAllas BI Kayttaja;HUS DataWS Prod AITeam Readers;HUS Data Prod Storage Asiakaspalaute Readers;HUS Data Prod Storage Access;
TietoAllas BI Kayttaja;HUS DataWS Prod AITeam Readers;HUS Data Prod Storage Asiakaspalaute Readers;HUS Data Prod Root Access;
TietoAllas BI Kayttaja;HUS DataWS Prod AITeam Readers;HUS Data Prod Storage Access;HUS Data Prod Storage Access;
TietoAllas BI Kayttaja;HUS DataWS Prod AITeam Readers;HUS Data Prod Storage Access;HUS Data Prod Root Access;
TietoAllas BI Kayttaja;HUS DataWS Prod AITeam Readers;HUS Data Prod Share Helsinki Covid19 Aggregations Readers;HUS Data Prod Storage Access;
TietoAllas BI Kayttaja;HUS DataWS Prod AITeam Readers;HUS Data Prod Root Access;HUS Data Prod Storage Access;
TietoAllas BI Kayttaja;HUS DataWS Prod AITeam Readers;HUS Data Prod Root Access;HUS Data Prod Root Access;
TietoAllas BI Kayttaja;HUS Data Prod Storage XDS Readers;HUS Data Prod Storage Access;HUS Data Prod Root Access;
TietoAllas BI Kayttaja;HUS Data Prod Storage XDS Readers;HUS Data Prod Root Access;HUS Data Prod Root Access;
TietoAllas BI Kayttaja;HUS Data Prod Storage Tilastokeskus Readers;HUS Data Prod Storage Access;HUS Data Prod Root Access;
TietoAllas BI Kayttaja;HUS Data Prod Storage Tilastokeskus Readers;HUS Data Prod Root Access;HUS Data Prod Root Access;
TietoAllas BI Kayttaja;HUS Data Prod Storage Tilannekanta Apotti Readers;HUS Data Prod Storage Access;HUS Data Prod Root Access;
TietoAllas BI Kayttaja;HUS Data Prod Storage Tilannekanta Apotti Readers;HUS Data Prod Root Access;HUS Data Prod Root Access;
TietoAllas BI Kayttaja;HUS Data Prod Storage Terveyskyla Readers;HUS Data Prod Storage Access;HUS Data Prod Root Access;
TietoAllas BI Kayttaja;HUS Data Prod Storage Terveyskyla Readers;HUS Data Prod Root Access;HUS Data Prod Root Access;
TietoAllas BI Kayttaja;HUS Data Prod Storage TEHO Benchmarking Readers;HUS Data Prod Storage Access;HUS Data Prod Root Access;
TietoAllas BI Kayttaja;HUS Data Prod Storage TEHO Benchmarking Readers;HUS Data Prod Root Access;HUS Data Prod Root Access;
TietoAllas BI Kayttaja;HUS Data Prod Storage Readmission Readers;HUS Data Prod Storage Access;HUS Data Prod Root Access;
TietoAllas BI Kayttaja;HUS Data Prod Storage Readmission Readers;HUS Data Prod Root Access;HUS Data Prod Root Access;
TietoAllas BI Kayttaja;HUS Data Prod Storage Ravioli Readers;HUS Data Prod Storage Access;HUS Data Prod Root Access;
TietoAllas BI Kayttaja;HUS Data Prod Storage Ravioli Readers;HUS Data Prod Root Access;HUS Data Prod Root Access;
TietoAllas BI Kayttaja;HUS Data Prod Storage QPati Readers;HUS Data Prod Storage Access;HUS Data Prod Root Access;
TietoAllas BI Kayttaja;HUS Data Prod Storage QPati Readers;HUS Data Prod Root Access;HUS Data Prod Root Access;
TietoAllas BI Kayttaja;HUS Data Prod Storage Pilviharppi Readers;HUS Data Prod Storage Access;HUS Data Prod Root Access;
TietoAllas BI Kayttaja;HUS Data Prod Storage Pilviharppi Readers;HUS Data Prod Root Access;HUS Data Prod Root Access;
TietoAllas BI Kayttaja;HUS Data Prod Storage Opera Readers;HUS Data Prod Storage Access;HUS Data Prod Root Access;
TietoAllas BI Kayttaja;HUS Data Prod Storage Opera Readers;HUS Data Prod Root Access;HUS Data Prod Root Access;
TietoAllas BI Kayttaja;HUS Data Prod Storage Obstetrix Readers;HUS Data Prod Storage Access;HUS Data Prod Root Access;
TietoAllas BI Kayttaja;HUS Data Prod Storage Obstetrix Readers;HUS Data Prod Root Access;HUS Data Prod Root Access;
TietoAllas BI Kayttaja;HUS Data Prod Storage Navitas Readers;HUS Data Prod Storage Access;HUS Data Prod Root Access;
TietoAllas BI Kayttaja;HUS Data Prod Storage Navitas Readers;HUS Data Prod Root Access;HUS Data Prod Root Access;
TietoAllas BI Kayttaja;HUS Data Prod Storage Mynla Readers;HUS Data Prod Storage Access;HUS Data Prod Root Access;
TietoAllas BI Kayttaja;HUS Data Prod Storage Mynla Readers;HUS Data Prod Root Access;HUS Data Prod Root Access;
TietoAllas BI Kayttaja;HUS Data Prod Storage Mustiradu Readers;HUS Data Prod Storage Access;HUS Data Prod Root Access;
TietoAllas BI Kayttaja;HUS Data Prod Storage Mustiradu Readers;HUS Data Prod Root Access;HUS Data Prod Root Access;
TietoAllas BI Kayttaja;HUS Data Prod Storage Muse Readers;HUS Data Prod Storage Access;HUS Data Prod Root Access;
TietoAllas BI Kayttaja;HUS Data Prod Storage Muse Readers;HUS Data Prod Root Access;HUS Data Prod Root Access;
TietoAllas BI Kayttaja;HUS Data Prod Storage Multilab Readers;HUS Data Prod Storage Access;HUS Data Prod Root Access;
TietoAllas BI Kayttaja;HUS Data Prod Storage Multilab Readers;HUS Data Prod Root Access;HUS Data Prod Root Access;
TietoAllas BI Kayttaja;HUS Data Prod Storage MerlotMediSFTP Readers;HUS Data Prod Storage Access;HUS Data Prod Root Access;
TietoAllas BI Kayttaja;HUS Data Prod Storage MerlotMediSFTP Readers;HUS Data Prod Root Access;HUS Data Prod Root Access;
TietoAllas BI Kayttaja;HUS Data Prod Storage MerlotMedi Readers;HUS Data Prod Storage Access;HUS Data Prod Root Access;
TietoAllas BI Kayttaja;HUS Data Prod Storage MerlotMedi Readers;HUS Data Prod Root Access;HUS Data Prod Root Access;
TietoAllas BI Kayttaja;HUS Data Prod Storage Kaiku Readers;HUS Data Prod Storage Access;HUS Data Prod Root Access;
TietoAllas BI Kayttaja;HUS Data Prod Storage Kaiku Readers;HUS Data Prod Root Access;HUS Data Prod Root Access;
TietoAllas BI Kayttaja;HUS Data Prod Storage IDM Readers;HUS Data Prod Storage Access;HUS Data Prod Root Access;
TietoAllas BI Kayttaja;HUS Data Prod Storage IDM Readers;HUS Data Prod Root Access;HUS Data Prod Root Access;
TietoAllas BI Kayttaja;HUS Data Prod Storage Huskorona Vaestotaso Readers;HUS Data Prod Storage Access;HUS Data Prod Root Access;
TietoAllas BI Kayttaja;HUS Data Prod Storage Huskorona Vaestotaso Readers;HUS Data Prod Root Access;HUS Data Prod Root Access;
TietoAllas BI Kayttaja;HUS Data Prod Storage Huskorona Readers;HUS Data Prod Storage Access;HUS Data Prod Root Access;
TietoAllas BI Kayttaja;HUS Data Prod Storage Huskorona Readers;HUS Data Prod Root Access;HUS Data Prod Root Access;
TietoAllas BI Kayttaja;HUS Data Prod Storage Hematology_consent Readers;HUS Data Prod Storage Access;HUS Data Prod Root Access;
TietoAllas BI Kayttaja;HUS Data Prod Storage Hematology_consent Readers;HUS Data Prod Root Access;HUS Data Prod Root Access;
TietoAllas BI Kayttaja;HUS Data Prod Storage HealthWeb Readers;HUS Data Prod Storage Access;HUS Data Prod Root Access;
TietoAllas BI Kayttaja;HUS Data Prod Storage HealthWeb Readers;HUS Data Prod Root Access;HUS Data Prod Root Access;
TietoAllas BI Kayttaja;HUS Data Prod Storage HaiPro Readers;HUS Data Prod Storage Access;HUS Data Prod Root Access;
TietoAllas BI Kayttaja;HUS Data Prod Storage HaiPro Readers;HUS Data Prod Root Access;HUS Data Prod Root Access;
TietoAllas BI Kayttaja;HUS Data Prod Storage HUSRADU Readers;HUS Data Prod Storage Access;HUS Data Prod Root Access;
TietoAllas BI Kayttaja;HUS Data Prod Storage HUSRADU Readers;HUS Data Prod Root Access;HUS Data Prod Root Access;
TietoAllas BI Kayttaja;HUS Data Prod Storage HUSDW Readers;HUS Data Prod Storage Access;HUS Data Prod Root Access;
TietoAllas BI Kayttaja;HUS Data Prod Storage HUSDW Readers;HUS Data Prod Root Access;HUS Data Prod Root Access;
TietoAllas BI Kayttaja;HUS Data Prod Storage HRM Readers;HUS Data Prod Storage Access;HUS Data Prod Root Access;
TietoAllas BI Kayttaja;HUS Data Prod Storage HRM Readers;HUS Data Prod Root Access;HUS Data Prod Root Access;
TietoAllas BI Kayttaja;HUS Data Prod Storage Fusion Readers;HUS Data Prod Storage Access;HUS Data Prod Root Access;
TietoAllas BI Kayttaja;HUS Data Prod Storage Fusion Readers;HUS Data Prod Root Access;HUS Data Prod Root Access;
TietoAllas BI Kayttaja;HUS Data Prod Storage Finnheart_cfmreporting Readers;HUS Data Prod Storage Access;HUS Data Prod Root Access;
TietoAllas BI Kayttaja;HUS Data Prod Storage Finnheart_cfmreporting Readers;HUS Data Prod Root Access;HUS Data Prod Root Access;
TietoAllas BI Kayttaja;HUS Data Prod Storage EPM Readers;HUS Data Prod Storage Access;HUS Data Prod Root Access;
TietoAllas BI Kayttaja;HUS Data Prod Storage EPM Readers;HUS Data Prod Root Access;HUS Data Prod Root Access;
TietoAllas BI Kayttaja;HUS Data Prod Storage Datawell Readers;HUS Data Prod Storage Access;HUS Data Prod Root Access;
TietoAllas BI Kayttaja;HUS Data Prod Storage Datawell Readers;HUS Data Prod Root Access;HUS Data Prod Root Access;
TietoAllas BI Kayttaja;HUS Data Prod Storage CressidaODS Readers;HUS Data Prod Storage Access;HUS Data Prod Root Access;
TietoAllas BI Kayttaja;HUS Data Prod Storage CressidaODS Readers;HUS Data Prod Root Access;HUS Data Prod Root Access;
TietoAllas BI Kayttaja;HUS Data Prod Storage Codeserver Readers;HUS Data Prod Storage Access;HUS Data Prod Root Access;
TietoAllas BI Kayttaja;HUS Data Prod Storage Codeserver Readers;HUS Data Prod Root Access;HUS Data Prod Root Access;
TietoAllas BI Kayttaja;HUS Data Prod Storage Clinisoft Readers;HUS Data Prod Storage Access;HUS Data Prod Root Access;
TietoAllas BI Kayttaja;HUS Data Prod Storage Clinisoft Readers;HUS Data Prod Root Access;HUS Data Prod Root Access;
TietoAllas BI Kayttaja;HUS Data Prod Storage Clarity Readers;HUS Data Prod Storage Access;HUS Data Prod Root Access;
TietoAllas BI Kayttaja;HUS Data Prod Storage Clarity Readers;HUS Data Prod Root Access;HUS Data Prod Root Access;
TietoAllas BI Kayttaja;HUS Data Prod Storage Caresuite Readers;HUS Data Prod Storage Access;HUS Data Prod Root Access;
TietoAllas BI Kayttaja;HUS Data Prod Storage Caresuite Readers;HUS Data Prod Root Access;HUS Data Prod Root Access;
TietoAllas BI Kayttaja;HUS Data Prod Storage Carescape Readers;HUS Data Prod Storage Access;HUS Data Prod Root Access;
TietoAllas BI Kayttaja;HUS Data Prod Storage Carescape Readers;HUS Data Prod Root Access;HUS Data Prod Root Access;
TietoAllas BI Kayttaja;HUS Data Prod Storage Carea Readers;HUS Data Prod Storage Access;HUS Data Prod Root Access;
TietoAllas BI Kayttaja;HUS Data Prod Storage Carea Readers;HUS Data Prod Root Access;HUS Data Prod Root Access;
TietoAllas BI Kayttaja;HUS Data Prod Storage CA Readers;HUS Data Prod Storage Access;HUS Data Prod Root Access;
TietoAllas BI Kayttaja;HUS Data Prod Storage CA Readers;HUS Data Prod Root Access;HUS Data Prod Root Access;
TietoAllas BI Kayttaja;HUS Data Prod Storage BCB Readers;HUS Data Prod Storage Access;HUS Data Prod Root Access;
TietoAllas BI Kayttaja;HUS Data Prod Storage BCB Readers;HUS Data Prod Root Access;HUS Data Prod Root Access;
TietoAllas BI Kayttaja;HUS Data Prod Storage Asiakaspalaute Readers;HUS Data Prod Storage Access;HUS Data Prod Root Access;
TietoAllas BI Kayttaja;HUS Data Prod Storage Asiakaspalaute Readers;HUS Data Prod Root Access;HUS Data Prod Root Access;
TietoAllas BI Kayttaja;HUS Data Prod Storage Apotti Extracts Readers;HUS Data Prod Storage Access;HUS Data Prod Root Access;
TietoAllas BI Kayttaja;HUS Data Prod Storage Apotti Extracts Readers;HUS Data Prod Root Access;HUS Data Prod Root Access;
TietoAllas BI Kayttaja;HUS Data Prod Storage Access;HUS Data Prod Storage Access;HUS Data Prod Root Access;
TietoAllas BI Kayttaja;HUS Data Prod Storage Access;HUS Data Prod Root Access;HUS Data Prod Root Access;
TietoAllas BI Kayttaja;HUS Data Prod Share Helsinki Covid19 Aggregations Writers;HUS Data Prod Root Access;HUS Data Prod Root Access;
TietoAllas BI Kayttaja;HUS Data Prod Share Helsinki Covid19 Aggregations Readers;HUS Data Prod Root Access;HUS Data Prod Root Access;
TietoAllas BI Kayttaja;HUS Data Prod Root Access;HUS Data Prod Storage Access;HUS Data Prod Root Access;
