{
  "entries": [
    "user::rwx",
    "user:9cad54de-ec93-4c11-aa3a-b84ce4c91920:rwx",
    "user:d494419c-01f7-4cf7-a5a4-142647853aac:rwx",
    "group::rwx",
    "group:0d275816-7a1d-4847-884d-b5c67f473973:-wx",
    "group:106004df-6d49-450e-a180-e5bfa1fef9b3:r-x",
    "group:200a2bc4-feeb-4ab5-a4c1-3cc3752fe50e:r-x",
    "group:956041d5-49af-4409-a2b4-67c1cf2bc433:-wx",
    "mask::rwx",
    "other::---",
    "default:user::rwx",
    "default:user:9cad54de-ec93-4c11-aa3a-b84ce4c91920:rwx",
    "default:user:d494419c-01f7-4cf7-a5a4-142647853aac:rwx",
    "default:group::rwx",
    "default:group:0d275816-7a1d-4847-884d-b5c67f473973:-wx",
    "default:group:106004df-6d49-450e-a180-e5bfa1fef9b3:r-x",
    "default:group:200a2bc4-feeb-4ab5-a4c1-3cc3752fe50e:r-x",
    "default:group:956041d5-49af-4409-a2b4-67c1cf2bc433:-wx",
    "default:mask::rwx",
    "default:other::---"
  ],
  "group": "1e682179-6809-4f88-8313-a399302b1b1a",
  "owner": "d494419c-01f7-4cf7-a5a4-142647853aac",
  "permission": "770",
  "stickyBit": false
}
