[
  {
    "name": "HUS Data Prod Staging Tilannekanta Apotti Readers",
    "objectId": "01165dde-610f-4434-8713-ebcfd6321f24"
  },
  {
    "name": "LopetettuTietoAllasTutkimus Testitutkimus",
    "objectId": "012de67b-5dcd-404a-a8c7-296f83bdc3f6"
  },
  {
    "name": "HUS Data Prod Storage Pilviharppi Writers",
    "objectId": "01418ffc-cd11-430e-bc49-534a2bf701f7"
  },
  {
    "name": "HUS DataWS Prod Hemadatalake_aic-815 Readers",
    "objectId": "021819a0-b965-45f2-8617-e51feb146b2b"
  },
  {
    "name": "HUS DataWS Prod PEX360-UAT Writers",
    "objectId": "026d98b5-da58-4355-8d3f-35bff486406f"
  },
  {
    "name": "All Company",
    "objectId": "02870aff-6a91-4598-b9b9-c22d34770875"
  },
  {
    "name": "HUS Data Prod Staging DataOps Readers",
    "objectId": "03f73fed-59c6-498a-85ba-c00071a8f896"
  },
  {
    "name": "HUS Data Prod Staging Clinisoft Writers",
    "objectId": "0422bed1-8b76-4018-b9e9-4bda116ca47f"
  },
  {
    "name": "HUS Data Prod Storage QPati Writers",
    "objectId": "05799bf4-8d8c-40ba-a0ea-983fd00d3745"
  },
  {
    "name": "HUS Data Prod Published Carea Readers",
    "objectId": "05fc8534-5603-47c6-8d65-44d223731a51"
  },
  {
    "name": "HUS Data Prod Published Marela Writers",
    "objectId": "06331336-6d12-4ff8-bf72-68bb21a4d3a7"
  },
  {
    "name": "HUS Data Prod Clarity Access",
    "objectId": "064361b8-462e-48b8-8dfd-c77ddf7c2a41"
  },
  {
    "name": "HUS Data Prod Published Obstetrix Readers",
    "objectId": "065f2c76-a04d-4a24-83b4-022b225c5f3e"
  },
  {
    "name": "HUS Data Prod Staging Opera Readers",
    "objectId": "06f285cb-ccf2-4abc-ab2a-6fb6b9c7cfe8"
  },
  {
    "name": "HUS Data Prod Staging XDS Readers",
    "objectId": "072e11e4-84aa-4f7a-a05d-cea8bfee78b0"
  },
  {
    "name": "HUS Data Prod Published HealthWeb Readers",
    "objectId": "077e417a-ff35-4b4b-b51b-25bfbf6adbb3"
  },
  {
    "name": "HUS Data Prod Staging Tilannekanta Apotti Writers",
    "objectId": "0850e56f-2dba-4f74-b0ed-703e5fa90144"
  },
  {
    "name": "HUS Data Prod Staging Mynla Readers",
    "objectId": "087cd15d-1615-40bb-a22c-eca84514e4b9"
  },
  {
    "name": "HUS Data Prod Storage HUSDW Readers",
    "objectId": "08b254c1-9e63-4202-9b5c-b4cc29c3e683"
  },
  {
    "name": "HUS Data Prod Staging Opera Writers",
    "objectId": "09c8ff5d-6eaa-4872-8c35-3e2e7ff89483"
  },
  {
    "name": "HUS Data Prod Storage Carescape Writers",
    "objectId": "0a6caf22-06eb-4b30-ac15-7c94fc1cd91a"
  },
  {
    "name": "HUS Data Prod Staging Access",
    "objectId": "0aa2a039-1645-4a06-a4e9-f1e2060c78a1"
  },
  {
    "name": "HUS Data Prod Staging Huskorona Writers",
    "objectId": "0b8dba5e-5bc1-4fe1-8c84-03a043c1bded"
  },
  {
    "name": "HUS Data Prod Staging Asiakaspalaute Writers",
    "objectId": "0bd21032-3ac7-4f28-b89c-d65f294c85ab"
  },
  {
    "name": "HUS Admin Prod Terraform",
    "objectId": "0bec4be8-95b9-4f66-9286-828357ee3645"
  },
  {
    "name": "HUS Data Prod Published Fusion Readers",
    "objectId": "0ccdc817-cd95-4a21-8031-2ed89078f78a"
  },
  {
    "name": "HUS Data Prod Staging Datawell Readers",
    "objectId": "0d3eea31-5987-4840-92e2-a034788de940"
  },
  {
    "name": "TietoAllasTutkimus Finalk",
    "objectId": "0d4537f5-941b-4a94-8192-31cea1c63250"
  },
  {
    "name": "HUS Data Prod Staging HUSRADU Readers",
    "objectId": "0d6b9ffc-e497-41bf-875b-d981fd17c8c6"
  },
  {
    "name": "TietoAllasTutkimus Ibrance",
    "objectId": "0e2008bb-994a-4041-8989-f3af6cbe1a6e"
  },
  {
    "name": "HUS Data Prod DataOps Owners",
    "objectId": "0e34c329-5b85-41cb-837d-cbc4d2e1e9a8"
  },
  {
    "name": "HUS DataWS Prod Probot Writers",
    "objectId": "0e7112e6-c028-4d34-81f3-fad86cf0652a"
  },
  {
    "name": "HUS Data Prod Staging Muse Readers",
    "objectId": "0ea1b950-44df-4e8d-a725-ec8b98176f42"
  },
  {
    "name": "HUS Data Prod Staging HRM Readers",
    "objectId": "0f110893-457c-40fd-8a59-1c09c561e1a7"
  },
  {
    "name": "TietoAllasTutkimus Aivovamma4",
    "objectId": "0f797d55-176e-486a-8b9a-6c9e045ba8cd"
  },
  {
    "name": "HUS Data Prod Staging Fusion Writers",
    "objectId": "0f9d4347-c32a-45b4-b003-3e089b298f2d"
  },
  {
    "name": "HUS DataWS Prod BIDL Readers",
    "objectId": "109bbca9-42e8-4a00-8272-bbe84de97278"
  },
  {
    "name": "HUS Data Prod Storage Obstetrix Readers",
    "objectId": "10acac7a-194b-4777-b8dc-7a28fc6696a7"
  },
  {
    "name": "HUS Data Prod Staging HaiPro Readers",
    "objectId": "10bfa333-a22a-4915-a1a7-c2873c105822"
  },
  {
    "name": "HUS DataWS Prod Covid19 Helsinki Share Writers",
    "objectId": "11fd8cd5-60fd-4bcd-b1e6-0310ff5937ea"
  },
  {
    "name": "HUS Data Prod Published MerlotMediSFTP Writers",
    "objectId": "1237c48e-1466-4f0b-a7c9-4deda2acf685"
  },
  {
    "name": "HUS Data Prod Published Fusion Writers",
    "objectId": "13428ec2-1371-48d3-ac28-6a9545ec4f85"
  },
  {
    "name": "HUS Data Prod Storage Readmission Readers",
    "objectId": "1409a9b5-c61f-43ef-8605-13f6e397bfba"
  },
  {
    "name": "HUS DataWS Prod Biopankki Writers",
    "objectId": "14e1e75e-b5de-415d-8e03-44c0c2f575dd"
  },
  {
    "name": "HUS Data Prod Storage Readmission Writers",
    "objectId": "15ee26ff-79bb-42fe-8fbb-a76c5c3e10ce"
  },
  {
    "name": "HUS Data Prod Published Huskorona Vaestotaso Readers",
    "objectId": "16b442c2-9b93-4fe2-8e50-08da0e751990"
  },
  {
    "name": "HUS Data Prod Storage Vihta Readers",
    "objectId": "17ac0192-eeae-4006-a6e2-e7924e9d44d9"
  },
  {
    "name": "HUS Data Prod Storage Datawell Writers",
    "objectId": "17af66d1-e932-483e-8316-ebc93bf998be"
  },
  {
    "name": "HUS Data Prod Storage Clarity Readers",
    "objectId": "1a91a417-f699-4fef-9048-9f3dbaf4d5ce"
  },
  {
    "name": "HUS Data Prod Published Obstetrix Writers",
    "objectId": "1aa67071-8521-495d-8701-2dfb859ee808"
  },
  {
    "name": "TietoAllasTutkimus Rintarekonstruktio/sytostaattihoito",
    "objectId": "1afa2a79-3c81-4bb4-b772-9400165bbe14"
  },
  {
    "name": "HUS Data Prod Storage MerlotMediSFTP Writers",
    "objectId": "1c620239-44b7-44ea-b594-1fc48dfd51af"
  },
  {
    "name": "HUS Data Prod Published IDM Writers",
    "objectId": "1cd5d593-8a71-4ee6-94a2-71ab3ecf58a6"
  },
  {
    "name": "HUS DataWS Prod BCRquestFinngen Writers",
    "objectId": "1d56f7f4-818c-4766-b480-d2bbc276a637"
  },
  {
    "name": "TietoAllasTutkimus Akuutti",
    "objectId": "1eb5cec6-c287-4187-b934-79ccb80fd170"
  },
  {
    "name": "HUS Data Prod Storage Apotti Referral and Waiting List Readers",
    "objectId": "200a2bc4-feeb-4ab5-a4c1-3cc3752fe50e"
  },
  {
    "name": "hus-billing-qa-ad",
    "objectId": "21c82dc3-b218-4035-b26a-c5626014702d"
  },
  {
    "name": "HUS Prod BC Rquest Readers",
    "objectId": "22c9e3e6-1c71-45a1-8a99-f6e2a085abf1"
  },
  {
    "name": "HUS Data Prod Staging Kaiku Writers",
    "objectId": "23306fdc-40bd-4f98-8ab5-a115d0528703"
  },
  {
    "name": "HUS Data Prod Staging Carea Writers",
    "objectId": "235d0597-6a2d-4bc2-a14f-b38fbd002b6c"
  },
  {
    "name": "HUS Data Prod Published Clinisoft Readers",
    "objectId": "23d8d504-54b7-44bd-94fc-b7543b66bda6"
  },
  {
    "name": "HUS Data Prod Storage Carea Writers",
    "objectId": "23e9d636-779f-4b2b-90d8-aa4ccda13ccd"
  },
  {
    "name": "HUS DataWS Prod Korona-osoitteet Writers",
    "objectId": "24247045-e3a4-45c4-8b1e-4b09425e3bc9"
  },
  {
    "name": "HUS Data Prod Storage HRM Writers",
    "objectId": "2457df5b-6bcb-42ea-bc42-0288eb8ae8ca"
  },
  {
    "name": "HUS Data Prod Storage Muse Writers",
    "objectId": "2458959c-c43a-4802-a0d3-fc84e671ab8e"
  },
  {
    "name": "HUS Data Prod Published Huskorona Writers",
    "objectId": "248a28e1-7411-4fc0-8581-d2b77b018fa2"
  },
  {
    "name": "HUS Data Prod Storage XDS Writers",
    "objectId": "24f22c70-34e4-4aee-b3a5-2cba9e9b0ab6"
  },
  {
    "name": "HUS Data Prod Storage Mynla Readers",
    "objectId": "251db591-0032-43f2-81a5-b245860efc98"
  },
  {
    "name": "TietoAllasTutkimus Akuutti",
    "objectId": "252c7c67-32fa-476c-bc9f-cad19128854b"
  },
  {
    "name": "TietoAllas-AAD-P2",
    "objectId": "253ed453-ec9d-465c-929d-651895027a2d"
  },
  {
    "name": "HUS Data Prod Staging CressidaODS Writers",
    "objectId": "2550bf21-7170-435b-bccf-88ab66a33555"
  },
  {
    "name": "HUS Data Prod Published EPM Writers",
    "objectId": "25c51dee-dbd1-43aa-8fbc-38e12dd1dc4c"
  },
  {
    "name": "HUS Data Prod Staging Multilab Readers",
    "objectId": "26106b6f-7916-4adf-b514-ac8cad097d91"
  },
  {
    "name": "HUS Data Prod Staging Codeserver Readers",
    "objectId": "26cbee8f-a44c-483d-b3b7-b775fd51fdd0"
  },
  {
    "name": "HUS Data Prod Staging Apotti Extracts Writers",
    "objectId": "26ce0790-5901-434a-9be7-ea7d9500e0bd"
  },
  {
    "name": "HUS DataWS Prod Rasvamaksa Writers",
    "objectId": "2707fc5b-320e-4496-93e7-bfde1449ca51"
  },
  {
    "name": "TietoAllasTutkimus FOLFRINOX",
    "objectId": "28139406-6137-42b9-9144-62dd794f53ee"
  },
  {
    "name": "HUS Data Prod Published Caresuite Readers",
    "objectId": "28aaf629-2e2d-4cc3-ade5-546814e103a4"
  },
  {
    "name": "HUS Data Prod Staging Virtaussytometria Writers",
    "objectId": "28b06e25-7bfc-4b5a-8438-d93d4f6c9b9e"
  },
  {
    "name": "TietoAllasTutkimus bounce",
    "objectId": "2902313a-d894-41c8-ba7e-5c652dcfdf1d"
  },
  {
    "name": "InnofactorAdmins",
    "objectId": "290f2503-5cd7-41d9-a6d2-d14dfe5c53ef"
  },
  {
    "name": "HUS Data Prod Published Kaiku Readers",
    "objectId": "29421112-8942-447f-8b9e-08eda76f56c6"
  },
  {
    "name": "HUS Data Prod Staging Apotti Referral and Waiting List Readers",
    "objectId": "2963d1b6-4767-4f06-bfee-47833cdc615d"
  },
  {
    "name": "HUS Data Prod Published Ravioli Readers",
    "objectId": "29b1d3f2-5877-4996-86e1-a3e5815f59c5"
  },
  {
    "name": "HUS Data Prod Staging Ravioli Readers",
    "objectId": "29e19209-99ff-4f18-b42d-83ae8ce9ef80"
  },
  {
    "name": "HUS Data Prod Staging Marela Writers",
    "objectId": "2a33118a-50e4-4f67-a9c8-0fdbb3624b29"
  },
  {
    "name": "HUS PEX Test Readers",
    "objectId": "2b51f1f1-c354-4d39-9baa-715207dc5d78"
  },
  {
    "name": "HUS Data Prod Storage Multilab Readers",
    "objectId": "2bf59f04-33f4-4413-baba-433d58770d07"
  },
  {
    "name": "HUS Data Prod Storage HealthWeb Readers",
    "objectId": "2c8c8326-9668-4cb4-9c50-506d3188b779"
  },
  {
    "name": "HUS Data Prod Staging Mynla Writers",
    "objectId": "2ca57d18-1fa0-43bc-bca0-0c2758705545"
  },
  {
    "name": "HUS Data Prod Published HUSDW Readers",
    "objectId": "2e673522-598d-4667-936d-622960031926"
  },
  {
    "name": "MainDataLakeReaders",
    "objectId": "2e9e75dd-9b85-4d92-a0f2-4761e2fffd3a"
  },
  {
    "name": "HUS Data Prod Storage Huskorona Vaestotaso Readers",
    "objectId": "2ee0ad82-d231-413c-8a68-536019784561"
  },
  {
    "name": "HUS Data Prod Storage Muse Readers",
    "objectId": "2f1ca4d3-0a82-4051-80b7-1b2fc93fd51c"
  },
  {
    "name": "HUS Data Prod Staging Hematology_consent Writers",
    "objectId": "3076307c-d10e-4c6d-9238-665b41c66f3e"
  },
  {
    "name": "HUS Data Prod Storage Asiakaspalaute Writers",
    "objectId": "31544a6a-36c6-46e7-a072-652a0eb9f9e7"
  },
  {
    "name": "HUS Data Prod Published Datawell Writers",
    "objectId": "3167b90c-28cf-483e-81f9-a6339c926a45"
  },
  {
    "name": "HUS Data Prod Published BCB Readers",
    "objectId": "3190ec8f-9822-46ee-92f9-f511f6c11a32"
  },
  {
    "name": "HUS Data Prod Storage IDM Writers",
    "objectId": "31bb639c-83e9-48e5-bbf7-b1c697231a97"
  },
  {
    "name": "HUS DataWS Prod Hematologia Writers",
    "objectId": "32af5968-2faf-4a34-933d-fd964469db27"
  },
  {
    "name": "HUS Data Prod Staging Navitas Readers",
    "objectId": "332fac63-fb65-4a42-887d-07461d5a218a"
  },
  {
    "name": "HUS DataWS Prod koronahelsinki Readers",
    "objectId": "337ef91e-939b-4d0e-9652-19eafc7b5aae"
  },
  {
    "name": "HUS Data Prod Staging TEHO Benchmarking Readers",
    "objectId": "33fdc665-7285-4ef3-b8ea-a9b1fce72ad6"
  },
  {
    "name": "HUS Data Prod Storage Navitas Writers",
    "objectId": "344d8169-e8ad-4e91-8f5f-c618833b4169"
  },
  {
    "name": "HUS DataWS Prod DWDL Readers",
    "objectId": "34eb5d5f-bf4d-433d-adbc-e9142e4ca624"
  },
  {
    "name": "HUS Data Prod Storage Multilab Delta Writers",
    "objectId": "355a66ec-ff73-48cb-b7b7-9f658c6d69c6"
  },
  {
    "name": "HUS Data Prod Staging Caresuite Writers",
    "objectId": "3808c1d0-7c2c-4980-a7f3-dac86c3b71f3"
  },
  {
    "name": "HUS Data Prod Staging Muse Writers",
    "objectId": "390abfed-cc0d-4005-b78e-fed4bf0271ab"
  },
  {
    "name": "TietoAllasTutkimus Use of augmented intelligence in recognition of immunologic diseases",
    "objectId": "3bac3bff-3a78-4c14-ae21-6e4a0341d0f6"
  },
  {
    "name": "TietoAllasTutkimus Aivovamma2",
    "objectId": "3c4ca05a-2da4-4ce4-8493-4fe65ae2243e"
  },
  {
    "name": "HUS DataWS Prod PEX-UAT Writers",
    "objectId": "3dc8add7-10e9-4e93-81ec-755682b872f4"
  },
  {
    "name": "HUS Prod Probot Outbound Readers",
    "objectId": "3e2db621-c9dd-4097-b125-e50f45d55adb"
  },
  {
    "name": "HUS Data Prod Published Pilviharppi Writers",
    "objectId": "3e4876d2-1a4f-4fa1-bbff-06384db67d58"
  },
  {
    "name": "HUS Prod BC Rquest Writers",
    "objectId": "3e94b546-4e10-424b-b67a-5cf053fee4af"
  },
  {
    "name": "HUS Data Prod Staging DataOps Writers",
    "objectId": "3ef9d6aa-9cd7-4abd-b2cc-7480a3bedf9f"
  },
  {
    "name": "HUS Data Prod Storage BCB Writers",
    "objectId": "3f433677-94e8-4294-ac53-0d19d06e9808"
  },
  {
    "name": "HUS DataWS Prod Akuutti Readers",
    "objectId": "4080dc19-8ddd-465a-9d48-281bf9f5c73c"
  },
  {
    "name": "HUS Data Prod Published Tilannekanta Apotti Readers",
    "objectId": "40c63386-5fe4-40a5-b7d2-8bd93bb8bea4"
  },
  {
    "name": "HUS Data Prod Storage QPati Readers",
    "objectId": "41967561-9fb0-4754-b62c-fb4b8c3b1727"
  },
  {
    "name": "HUS DataWS Prod Kayttoyhttesti Readers",
    "objectId": "4341eaf1-c027-4988-9410-b1e156c2ce9e"
  },
  {
    "name": "HUS Data Prod Published HRM Readers",
    "objectId": "43880d4c-2f5c-4b25-9e55-515181dadc4e"
  },
  {
    "name": "TietoAllasTutkimus hbb_aalto",
    "objectId": "446e4bf2-6fdf-49ee-b845-dbff88aaa878"
  },
  {
    "name": "HUS Data Prod Published Hematology_consent Readers",
    "objectId": "448e668d-1db0-45a1-90b6-cd1049359df9"
  },
  {
    "name": "HUS Data Prod Storage Caresuite Writers",
    "objectId": "4560884d-1d02-4b30-ab86-ba8330316663"
  },
  {
    "name": "HUS Data Prod Published Labvantage Readers",
    "objectId": "4649ba27-799b-4d02-8d44-7711728f561a"
  },
  {
    "name": "HUS Data Prod Published IDM Readers",
    "objectId": "479ee258-9712-40af-8f34-b974884e7e77"
  },
  {
    "name": "HUS Data Prod Published CressidaODS Writers",
    "objectId": "48772008-98e4-4d2b-9527-408291401084"
  },
  {
    "name": "TietoAllasTutkimus Aivovamma6",
    "objectId": "48c8ed6a-f7d9-4ba8-9ef6-8080f12d332a"
  },
  {
    "name": "HUS Data Prod Staging EPM Writers",
    "objectId": "4a54af41-80ef-4e26-b8f7-53b2e5a9e7a6"
  },
  {
    "name": "HUS Data Prod Published HUSRADU Writers",
    "objectId": "4a93c4b7-cd01-45a0-89bf-a409b48d1e05"
  },
  {
    "name": "HUS Data Prod Staging Apotti Referral and Waiting List Writers",
    "objectId": "4b8ec992-dc2a-4877-b5de-3c5ffdd59566"
  },
  {
    "name": "HUS Data Prod Published Hematology_consent Writers",
    "objectId": "4be73e56-5713-45e5-aff7-5a60835dc93a"
  },
  {
    "name": "HUS Data Prod Published Mynla Readers",
    "objectId": "4c432ce4-94fe-4e11-8446-ede35a8bdbd3"
  },
  {
    "name": "HUS Data Prod Staging QPati Readers",
    "objectId": "4c88f859-7e2e-4236-bbd5-f186b5bf5c9b"
  },
  {
    "name": "HUS DataWS Prod HBBAalto Writers",
    "objectId": "4ca0eb43-a949-4373-a726-d70168aa38dd"
  },
  {
    "name": "HUS DataWS Prod MedEngine Writers",
    "objectId": "4d3a807d-6078-4c36-af25-6ee69ca9e07d"
  },
  {
    "name": "HUS Data Prod Storage CressidaODS Delta Writers",
    "objectId": "4f8dd8e3-af5e-47cb-ae94-c83b74b055a1"
  },
  {
    "name": "HUS Data Prod Published Vihta Writers",
    "objectId": "50825879-1321-4070-8cd1-c758be9e4cf2"
  },
  {
    "name": "HUS Data Prod Storage BCB Readers",
    "objectId": "51d905a1-f1a2-45ce-b5a6-7cb8f3cfa546"
  },
  {
    "name": "HUS Data Prod Published Tilastokeskus Writers",
    "objectId": "529fc855-0583-447d-95f3-2f09937d3e6f"
  },
  {
    "name": "HUS Data Prod Staging HealthWeb Readers",
    "objectId": "52ac18b7-4360-4523-a60c-ee8222a9e8eb"
  },
  {
    "name": "HUS Data Prod Storage Carea Readers",
    "objectId": "52f2a36d-7ad1-48dc-ac3e-ffb0ac890d7c"
  },
  {
    "name": "HUS Data Prod Staging MerlotMedi Writers",
    "objectId": "53728811-838c-467b-99e5-a22d214e94ac"
  },
  {
    "name": "LopetettuTietoAllasTutkimus hbb_aalto ",
    "objectId": "53a60c09-561c-4322-b2e9-dc0d7c1221ee"
  },
  {
    "name": "HUS Data Prod Staging Caresuite Readers",
    "objectId": "53c764c1-b90a-4f52-b203-c2111fe01f38"
  },
  {
    "name": "HUS Data Prod Staging Codeserver Writers",
    "objectId": "54b7bb4a-5bbe-4d8a-afef-e9d224f8f8c4"
  },
  {
    "name": "HUS Data Prod Storage Mustiradu Readers",
    "objectId": "54c5524d-a1de-4edb-a010-4bee2b49c6ce"
  },
  {
    "name": "HUS Data Prod Published Carescape Readers",
    "objectId": "55327a0e-eb40-4333-9880-0478673d476a"
  },
  {
    "name": "HUS Data Prod Staging Noona Readers",
    "objectId": "565bac46-1b54-4867-b48a-d10a785d0777"
  },
  {
    "name": "HUS Data Prod Staging Noona Writers",
    "objectId": "56b7d157-356b-4bc7-aba2-9dbfe7d429ef"
  },
  {
    "name": "HUS DataWS Prod Rasvamaksa Readers",
    "objectId": "580085a0-ef36-4775-a611-15d13af10dda"
  },
  {
    "name": "LopetettuTietoAllasTutkimus Silverskin1",
    "objectId": "5864bba1-8258-4d41-bf43-972defeb3086"
  },
  {
    "name": "HUS Data Prod Storage Fusion Readers",
    "objectId": "58e421f9-9947-4d5c-876d-1beb8f378cca"
  },
  {
    "name": "HUS Data Prod Share DataOps Readers",
    "objectId": "59dad980-b26d-41fe-b18c-63048ce62cbe"
  },
  {
    "name": "HUS Data Prod Staging Labvantage Writers",
    "objectId": "5a7c22e4-1d73-480f-818e-aae34a3d5194"
  },
  {
    "name": "HUS Data Prod Storage Hematology_consent Writers",
    "objectId": "5ab03ab1-3a83-4c77-9f8f-20287265fde3"
  },
  {
    "name": "HUS Prod Probot Outbound Private Organisations Data Writers",
    "objectId": "5acffd94-f0e7-439b-9ce0-82290bd8fe12"
  },
  {
    "name": "HUS Data Prod Staging QPati Writers",
    "objectId": "5b25ddcd-2026-451c-be91-a365b6ea9f30"
  },
  {
    "name": "HUS Data Prod Published Pilviharppi Readers",
    "objectId": "5b7ef246-569d-46ee-a53a-a3fb3fc93440"
  },
  {
    "name": "HUS DataWS Prod BCRquestFinngen Readers",
    "objectId": "5c9f709c-1aa0-4d2f-ae30-e48a8a26dfb9"
  },
  {
    "name": "HUS Data Prod Published CA Writers",
    "objectId": "5e2b441a-9dbe-4626-a413-a43904ae8e9f"
  },
  {
    "name": "HUS Data Prod Storage DataOps Readers",
    "objectId": "5e36e3d9-1579-41fb-b621-3b5baec1e1f2"
  },
  {
    "name": "TietoAllasTutkimus Uusikäyttöyhteystesti",
    "objectId": "5eab1e48-f678-4c17-80e7-047bd796e617"
  },
  {
    "name": "HUS Data Prod Staging IDM Readers",
    "objectId": "5f0791d4-a0f2-489e-a198-431161a183db"
  },
  {
    "name": "HUS Data Prod Published Labvantage Writers",
    "objectId": "5f6172e8-c96b-402a-8c48-0fe78673ddec"
  },
  {
    "name": "HUS Data Prod Published CressidaODS Readers",
    "objectId": "5fc02de6-dbb3-4357-aac6-9cc6702dace0"
  },
  {
    "name": "HUS Data Prod Storage Opera Writers",
    "objectId": "6060351f-95b8-4912-92f9-c424529b772a"
  },
  {
    "name": "HUS Data Prod Published PACS Readers",
    "objectId": "60ce26cd-a32d-4d44-b4c4-098e5772630e"
  },
  {
    "name": "TietoAllasTutkimus Tissue biomarkerks in ovarian cancer",
    "objectId": "612e9763-7d36-462d-808f-b9194f7b525a"
  },
  {
    "name": "HUS Data Prod Staging Terveyskyla Writers",
    "objectId": "63cc4807-ce23-4bc1-86fd-083c0098ff86"
  },
  {
    "name": "HUS Data Prod Published Datawell Readers",
    "objectId": "63ffb02d-0041-4ffc-9e99-13a46f97d1b4"
  },
  {
    "name": "HUS Data Prod Published DataOps Readers",
    "objectId": "64828741-0cc9-4ee4-b8b6-bf7f26bf2f89"
  },
  {
    "name": "HUS Data Prod Staging Vihta Writers",
    "objectId": "64c3337a-8cf5-457b-a3a7-1f3a7fd006a2"
  },
  {
    "name": "HUS Data Prod Staging Carea Readers",
    "objectId": "651ef56a-415a-4256-af50-fcdb064542a5"
  },
  {
    "name": "HUS Data Prod Storage Multilab Delta Readers",
    "objectId": "65f2acd2-b754-4e17-a6cd-4ef220a44897"
  },
  {
    "name": "HUS Data Prod Storage Finnheart_cfmreporting Writers",
    "objectId": "6647c610-1e06-4b8f-a4ac-cb20c63bec82"
  },
  {
    "name": "HUS Data Prod Published Huskorona Readers",
    "objectId": "682458f2-1ade-420e-b687-0f35e08b1bc7"
  },
  {
    "name": "HUS Dataplatform Prod Team Integrations",
    "objectId": "6831f7f2-803d-4a58-9fc7-a17836f4a0da"
  },
  {
    "name": "HUS Data Prod Storage TEHO Benchmarking Readers",
    "objectId": "6836a065-6e4c-4efa-8747-f18c2ac57638"
  },
  {
    "name": "HUS Data Prod Published Ravioli Writers",
    "objectId": "68839e84-b840-4420-b2ae-34343c587b5d"
  },
  {
    "name": "HUS Data Prod Published Asiakaspalaute Readers",
    "objectId": "691cd533-dfd6-48a9-87f0-82684d5001ed"
  },
  {
    "name": "HUS DataWS Prod HBBAalto Readers",
    "objectId": "69257785-b96f-4a64-91c5-216cc066a880"
  },
  {
    "name": "HUS Data Prod Storage CA Readers",
    "objectId": "69624024-c6af-4c78-aa2e-22be2dbf8134"
  },
  {
    "name": "HUS Data Prod Storage Noona Writers",
    "objectId": "6a09a6f0-4abf-4997-8ba6-547155dfe5fd"
  },
  {
    "name": "HUS Data Prod Published Clinisoft Writers",
    "objectId": "6a6ce9ce-8995-43f2-8595-883ded3223a7"
  },
  {
    "name": "HUS Data Prod Storage Noona Readers",
    "objectId": "6add6c2e-1df7-4f4d-b0b8-0002ac8ea513"
  },
  {
    "name": "HUS Data Prod Staging Labvantage Readers",
    "objectId": "6aec790f-a2cb-46ff-a4f8-c5ffe3b4c122"
  },
  {
    "name": "HUS DataWS Prod AITeam Writers",
    "objectId": "6b261096-2207-463f-a79e-70d3acb23cc9"
  },
  {
    "name": "HUS Data Prod Storage XDS Readers",
    "objectId": "6c367059-38e4-41b1-bc0c-0615448795ab"
  },
  {
    "name": "HUS Data Prod Staging MerlotMediSFTP Writers",
    "objectId": "6cae2441-d26d-4002-acee-e5da4ef700c6"
  },
  {
    "name": "HUS DataWS Prod FinnProstata Readers",
    "objectId": "6d3680ed-2ab1-4228-88fc-e2b474e5257f"
  },
  {
    "name": "HUS Data Prod Staging BCB Writers",
    "objectId": "6dbca023-b2d6-4c8c-bdff-f8e914f50f3b"
  },
  {
    "name": "HUS Data Prod Published TEHO Benchmarking Writers",
    "objectId": "6e391789-57f6-4093-88e6-2958ca011fc9"
  },
  {
    "name": "HUS DataWS Prod Bounce Readers",
    "objectId": "6e601176-ef8f-4e07-ac44-ee11af083615"
  },
  {
    "name": "HUS Prod Service-AKS PseudoService Scope Admins",
    "objectId": "6ea7c200-a612-4e0b-9410-ced803aaea6b"
  },
  {
    "name": "HUS Data Prod Published Terveyskyla Readers",
    "objectId": "6f04e228-67bd-4472-b332-a24939a61568"
  },
  {
    "name": "HUS Data Prod Storage Virtaussytometria Readers",
    "objectId": "6f14a9c7-b740-4cf9-9db2-8cb0054efdf9"
  },
  {
    "name": "HUS Data Prod Published Readmission Writers",
    "objectId": "6fd5f3c5-b8dd-4dd3-885e-4f18ded4a3a5"
  },
  {
    "name": "TietoAllasTutkimus GE esikäsittely",
    "objectId": "71065fa0-ed5c-4c29-a2a8-ce967f6f89a5"
  },
  {
    "name": "HUS DataWS Prod 01054_HBPCovid_Findata Writers",
    "objectId": "729c80e7-ee2a-43f4-a185-383f6a01a5f4"
  },
  {
    "name": "HUS Data Prod Staging CA Readers",
    "objectId": "743509ee-80d7-400c-ac48-100dd4c65bb3"
  },
  {
    "name": "HUS Data Prod Published PACS Writers",
    "objectId": "7478c136-6c35-4ba2-a5bb-21490626b4b1"
  },
  {
    "name": "HUS Data Prod Share Helsinki Covid19 Aggregations Readers",
    "objectId": "74db292f-a660-4158-a0e5-11f8786a0b97"
  },
  {
    "name": "HUS Prod Backup Transfers Data Writers",
    "objectId": "7508cf13-4516-4dc7-8edc-0e1868689faf"
  },
  {
    "name": "All Company",
    "objectId": "750ca0ac-2889-49dd-aeb1-09774dc1b458"
  },
  {
    "name": "HUS Prod Probot Outbound Private Organisations Data Readers",
    "objectId": "750d5154-bfe7-43b7-97ff-25dfb5039768"
  },
  {
    "name": "TietoAllasTutkimus InfokantaLue",
    "objectId": "756a909b-73a7-457a-b892-e05b308e6f0c"
  },
  {
    "name": "HUS Data Prod Storage CA2 Writers",
    "objectId": "75ea044b-83ff-4394-8287-95c493826b95"
  },
  {
    "name": "HUS Data Prod Published Apotti Referral and Waiting List Readers",
    "objectId": "778bc2ca-644d-4e3f-80cf-bd2acc62a2eb"
  },
  {
    "name": "HUS Data Prod Published Huskorona Vaestotaso Writers",
    "objectId": "77d867e8-d451-4b81-9e9f-b1fc97f6e135"
  },
  {
    "name": "HUS App Prod Clarity",
    "objectId": "78b54caf-16ba-412a-836f-8644b188e831"
  },
  {
    "name": "TietoAllasTutkimus Rasvamaksa",
    "objectId": "78da7258-5b81-44bd-8805-8739cf99b6fe"
  },
  {
    "name": "HUS Data Prod Storage CressidaODS Readers",
    "objectId": "790fdb67-7b93-4f08-9573-74a86a9bb631"
  },
  {
    "name": "HUS Data Prod Storage Tilannekanta Apotti Readers",
    "objectId": "795409b4-5b90-4ee8-8e8d-46e4c4895b65"
  },
  {
    "name": "HUS Kube Prod Service-AKS PseudoService Admins",
    "objectId": "79eeb825-aff2-4862-b601-4f4fb24cd736"
  },
  {
    "name": "HUS Data Prod Staging Huskorona Vaestotaso Readers",
    "objectId": "79fb1288-a1af-4064-bd17-397abb27113d"
  },
  {
    "name": "HUS DataWS Prod Hemadatalake_aic-790 Writers",
    "objectId": "7a1ea28e-85e6-40de-a0f6-b576894e0a1d"
  },
  {
    "name": "TietoAllasTutkimus Aivovamma3",
    "objectId": "7aa45647-2e88-4093-a322-26bf6bdab323"
  },
  {
    "name": "TietoAllas BI Sovelluksen paakayttaja",
    "objectId": "7b5bf802-c49b-4050-a2db-514a8f55a664"
  },
  {
    "name": "HUS Data Prod Published Opera Readers",
    "objectId": "7c47e7e4-7301-4700-9601-64d24bf30435"
  },
  {
    "name": "HUS Data Prod Staging Huskorona Vaestotaso Writers",
    "objectId": "7c4fa4c5-f8d0-4cc8-b889-d2d62b826236"
  },
  {
    "name": "HUS Data Prod Published Caresuite Writers",
    "objectId": "7e32cf4f-43cb-4034-a382-b16101f7b0db"
  },
  {
    "name": "HUS Data Prod Staging PACS Writers",
    "objectId": "7ebf6495-e880-48fc-9e1a-dc868fe3c885"
  },
  {
    "name": "HUS Data Prod Staging MerlotMedi Readers",
    "objectId": "7fb4a2af-710b-4766-bfcf-1ea23da5159a"
  },
  {
    "name": "TietoAllas BI Oikeuksien hyvaksyja",
    "objectId": "80ed49f5-df1c-4c0a-9fdc-e78dd4149a0c"
  },
  {
    "name": "HUS Data Prod Storage Kaiku Writers",
    "objectId": "80ee5518-82df-440c-8038-413893e0fc2c"
  },
  {
    "name": "HUS Data Prod Published Noona Readers",
    "objectId": "826e7d82-abde-4170-88ef-15910ba9f68b"
  },
  {
    "name": "HUS Data Prod Storage IDM Readers",
    "objectId": "829b428f-9549-4c0f-a6ca-67a9ddcaff93"
  },
  {
    "name": "HUS Data Prod Storage Apotti Extracts Readers",
    "objectId": "83f994b9-167f-4886-a10a-63d145befd86"
  },
  {
    "name": "TietoAllasTutkimus Improving glycemic control in type 1 diabetes via e-health",
    "objectId": "8422f6c0-9646-4db3-87d5-ce969c4e8cdb"
  },
  {
    "name": "TietoAllasTutkimus Finnprostata IX",
    "objectId": "8437a08c-4242-4b3d-bbee-d17cd64e1646"
  },
  {
    "name": "HUS Data Prod Storage Terveyskyla Readers",
    "objectId": "85b42469-ab8e-4407-9dcd-5a035165a394"
  },
  {
    "name": "HUS DataWS Prod HUSLAB Readers",
    "objectId": "85c2ce21-3b63-49f2-82de-c3ec1a3593e7"
  },
  {
    "name": "HUS Data Prod Storage Hematology_consent Readers",
    "objectId": "876eb572-6fbb-47a3-a6c6-601217b2767a"
  },
  {
    "name": "HUS Data Prod Staging Vihta Readers",
    "objectId": "87d27e00-69d2-401e-b203-7a58881062d0"
  },
  {
    "name": "HUS Data Prod Staging Multilab Delta Writers",
    "objectId": "8953259b-1594-473c-8832-3cfed757c7ee"
  },
  {
    "name": "HUS Data Prod Staging Pilviharppi Readers",
    "objectId": "895bd0fe-85ac-45eb-9dbd-c2969aded6a9"
  },
  {
    "name": "HUS DataWS Prod Bounce Writers",
    "objectId": "89bfd2f0-77dd-4a10-9f02-e23ec808bd22"
  },
  {
    "name": "HUS Data Prod Storage Asiakaspalaute Readers",
    "objectId": "8a407740-f729-412d-bb62-6ccdc60165f9"
  },
  {
    "name": "HUS Data Prod Staging Carescape Writers",
    "objectId": "8a849f72-ca6e-4159-88b5-2d117b6897c4"
  },
  {
    "name": "HUS Data Prod Staging HealthWeb Writers",
    "objectId": "8aa3d3a4-22e9-4648-aa45-b61940c26db2"
  },
  {
    "name": "HUS Data Prod Published QPati Readers",
    "objectId": "8ad38b5c-36b6-46c2-b7b2-e68bab6471fc"
  },
  {
    "name": "TietoAllasTutkimus Biopankki",
    "objectId": "8ad7bd7d-fb58-401f-bc4f-c7f981807bf1"
  },
  {
    "name": "HUS Data Prod Storage Huskorona Readers",
    "objectId": "8b2dd7b1-0fbb-4b38-8c32-c08a3b7db643"
  },
  {
    "name": "HUS Data Prod Storage Kaiku Readers",
    "objectId": "8b4942d6-0d9b-4191-817a-fe939718805e"
  },
  {
    "name": "HUS Prod Backup Transfers Data Readers",
    "objectId": "8cbd4ca1-fee7-4666-954f-1b65ef508b5c"
  },
  {
    "name": "HUS Data Prod Staging EPM Readers",
    "objectId": "8d11d70e-0265-49b1-a3e4-31759d8e2bf5"
  },
  {
    "name": "HUS Data Prod Storage Labvantage Readers",
    "objectId": "8d864fdc-eaa4-4e05-a92c-61db98135be4"
  },
  {
    "name": "HUS Data Prod Staging CressidaODS Readers",
    "objectId": "90376b2f-3d21-4ae5-98fe-4895343a5d0b"
  },
  {
    "name": "HUS Data Prod Storage Tilannekanta Apotti Writers",
    "objectId": "90828a91-eca6-4cf6-b301-4b9644f7d0d6"
  },
  {
    "name": "HUS Data Prod Staging Clinisoft Readers",
    "objectId": "913761e6-f054-41c4-830f-c4354197ef26"
  },
  {
    "name": "hus-billing-aks-admin",
    "objectId": "941076b4-ce0d-48ae-b991-eb19ec1b1f48"
  },
  {
    "name": "HUS Data Prod Published Navitas Readers",
    "objectId": "9443f06b-72cd-447b-b3aa-6083ab040cea"
  },
  {
    "name": "HUS Data Prod Storage Apotti Referral and Waiting List Writers",
    "objectId": "956041d5-49af-4409-a2b4-67c1cf2bc433"
  },
  {
    "name": "HUS Data Prod Staging Terveyskyla Readers",
    "objectId": "95862dbc-74f7-41f7-afdb-9ffbf53c00b4"
  },
  {
    "name": "HUS DataWS Prod BIDL Writers",
    "objectId": "9599131d-427d-4d4f-8a62-33092a9939ab"
  },
  {
    "name": "HUS DataWS Prod OMOP Readers",
    "objectId": "95fbfcfd-f422-4355-ac0f-c691fd4da1f5"
  },
  {
    "name": "HUS Data Prod Staging CressidaODS Delta Writers",
    "objectId": "97d345fa-b973-4fd0-be2e-68c207ad14c8"
  },
  {
    "name": "HUS Data Prod Staging Mustiradu Writers",
    "objectId": "98370cdd-f97c-4383-8557-21164bdb843f"
  },
  {
    "name": "HUS Data Prod Storage CA Writers",
    "objectId": "9854be32-d8a4-4fee-92db-e2b32a8f6dea"
  },
  {
    "name": "LopetettuTietoAllasTutkimus Silverskin2",
    "objectId": "999bb080-76ab-4e3f-9f8d-2435a66987f1"
  },
  {
    "name": "HUS Data Prod Published Multilab Writers",
    "objectId": "9b3376e7-2011-4132-816e-d594403237c7"
  },
  {
    "name": "HUS Prod Service-AKS PseudoService Scope DataLake Users",
    "objectId": "9b56f755-a81d-4c91-9112-8aa7f494d0bc"
  },
  {
    "name": "HUS Data Prod Published Vihta Readers",
    "objectId": "9be3b3e5-9ead-4aa0-ac08-6356386fea53"
  },
  {
    "name": "HUS Data Prod Staging Obstetrix Writers",
    "objectId": "9c0b28ff-1922-4182-8b7d-1226196893b3"
  },
  {
    "name": "HUS DataWS Prod DWDL Writers",
    "objectId": "9c706667-2b5c-4c2a-8c5f-e7288dc5429b"
  },
  {
    "name": "HUS DataWS Prod Hemadatalake_aic-790 Readers",
    "objectId": "9c86414b-ae0b-4185-ab91-25a92671c51a"
  },
  {
    "name": "HUS Data Prod Storage Access",
    "objectId": "9ccafa63-65ae-4341-9a0e-d0f14ca3620e"
  },
  {
    "name": "HUS Data Prod Published Opera Writers",
    "objectId": "9db024a1-7f69-4bdb-8e3c-55622efc1bf4"
  },
  {
    "name": "HUS Data Prod Staging MerlotMediSFTP Readers",
    "objectId": "9dc4dafd-a348-465e-8885-8f34893f6a51"
  },
  {
    "name": "HUS Data Prod Storage CressidaODS Delta Readers",
    "objectId": "9e0bfa0d-1960-4e1d-bd6a-136a3f7992d4"
  },
  {
    "name": "HUS Data Prod Storage Navitas Readers",
    "objectId": "9fd46480-4aa2-4bdc-85cf-d2a4da824b8c"
  },
  {
    "name": "HUS Data Prod Storage CA2 Readers",
    "objectId": "a02408b2-4730-40af-b2e1-1effce48ab65"
  },
  {
    "name": "HUS Data Prod Published EPM Readers",
    "objectId": "a0397df0-7dfd-4a7b-bfb0-d5b6793ece34"
  },
  {
    "name": "HUS Data Prod Staging Tilastokeskus Readers",
    "objectId": "a1688e2f-af04-4a70-8837-e5d89ecd4c8d"
  },
  {
    "name": "HUS Data Prod Storage Marela Writers",
    "objectId": "a1b18bd2-a611-4951-a0b1-738ae6baca09"
  },
  {
    "name": "HUS Data Prod Published TEHO Benchmarking Readers",
    "objectId": "a1b5fad3-4d5a-4702-a938-d85249bba24e"
  },
  {
    "name": "HUS Data Prod Storage CressidaODS Writers",
    "objectId": "a29e1ac1-dfca-4ca2-af92-015fdee03362"
  },
  {
    "name": "HUS Data Prod Storage DataOps Writers",
    "objectId": "a2adc59f-c1d4-4c48-8676-9d241aa8138c"
  },
  {
    "name": "HUS Data Prod Storage Codeserver Readers",
    "objectId": "a2f0f985-280d-4670-96b3-fdbf076420fb"
  },
  {
    "name": "HUS DataWS Prod PEX-UAT Readers",
    "objectId": "a301cced-df5f-40dc-8cae-7a2d78c5adb2"
  },
  {
    "name": "HUS Data Prod Staging Multilab Delta Readers",
    "objectId": "a35fc3e9-2a6c-45f2-8a24-2839931e657e"
  },
  {
    "name": "HUS App Prod Korona-laaturekisteri App Users",
    "objectId": "a3c85198-bf87-433e-9a9c-7c97a968fc7f"
  },
  {
    "name": "HUS Data Prod Published Asiakaspalaute Writers",
    "objectId": "a3f587c9-83e0-4d3b-857c-2232e761588a"
  },
  {
    "name": "HUS Data Prod Staging Datawell Writers",
    "objectId": "a57da43a-2271-4563-8f5a-5eb390d171c9"
  },
  {
    "name": "HUS Data Prod Storage Codeserver Writers",
    "objectId": "a5e8a7e9-ad0c-4f13-9b58-3e613dc68330"
  },
  {
    "name": "HUS Data Prod Storage Virtaussytometria Writers",
    "objectId": "a5fcd9c9-fa1c-4bf4-a6f9-2d0d3ee41f6c"
  },
  {
    "name": "HUS DataWS Prod CleverHealth Writers",
    "objectId": "a680085e-f9de-46c3-975d-d2ddbace4a2c"
  },
  {
    "name": "HUS Data Prod Staging XDS Writers",
    "objectId": "a6901af6-1e8d-4fac-a358-9d3438bf8836"
  },
  {
    "name": "HUS-TA-AAD-P2",
    "objectId": "a695901d-78cd-4fb9-9e54-d86f407faea3"
  },
  {
    "name": "hus-groups-admin",
    "objectId": "a77740f2-b945-4cf5-b133-aeb71a8f9d8d"
  },
  {
    "name": "HUS Data Prod Storage HaiPro Readers",
    "objectId": "a8221df4-0737-4456-b427-40c20b5c8f1c"
  },
  {
    "name": "HUS Data Prod Storage Multilab Writers",
    "objectId": "a8504689-c6fa-4b98-b776-925357c921d3"
  },
  {
    "name": "TietoAllasTutkimus korona",
    "objectId": "aa5cf02a-e9c0-4f19-b862-e69a11e12fa6"
  },
  {
    "name": "HUS Data Prod Published BCB Writers",
    "objectId": "aad8882b-bb7a-49fa-a5c6-1309403e2af5"
  },
  {
    "name": "HUS Data Prod Published XDS Readers",
    "objectId": "ab3e7645-35b7-47ee-a0a9-44054b640d4a"
  },
  {
    "name": "HUS DataWS Prod BiopankkiDL Readers",
    "objectId": "ab624fce-4964-4b33-bc35-3afc001eed28"
  },
  {
    "name": "HUS DataWS Prod Kayttoyhttesti Writers",
    "objectId": "ab78c50f-dc5b-4f2b-916e-012d5ea7f14f"
  },
  {
    "name": "HUS Data Prod Staging CA Writers",
    "objectId": "ab7ae6f5-c266-46b9-9482-1b98ce2bbedf"
  },
  {
    "name": "HUS DataWS Prod CleverHealth Readers",
    "objectId": "ad1a0c2c-9515-468d-a118-28f04278f5bd"
  },
  {
    "name": "HUS Data Prod Staging HUSDW Readers",
    "objectId": "ad893cac-db14-4550-a6b1-25524e5fea16"
  },
  {
    "name": "HUS Data Prod Published MerlotMedi Writers",
    "objectId": "adb5ab30-b699-41f5-8347-e3bd14206b3e"
  },
  {
    "name": "HUS Data Prod Staging CA2 Writers",
    "objectId": "ae06f9c7-4c3b-4de2-8942-bd21714a2867"
  },
  {
    "name": "hus-billing-prod-ad",
    "objectId": "aef53082-d8de-41ba-8b7c-bab7a704a54e"
  },
  {
    "name": "HUS Data Prod Storage Labvantage Writers",
    "objectId": "b031384a-2403-44e9-823f-700fe43037c4"
  },
  {
    "name": "HUS DataWS Prod FinnProstata Writers",
    "objectId": "b099a66b-bee8-4d70-b685-0f54523661ae"
  },
  {
    "name": "HUS Data Prod Storage HRM Readers",
    "objectId": "b0a8e509-a506-4a3e-8c7c-c10943a2d653"
  },
  {
    "name": "HUS Data Prod Published CA Readers",
    "objectId": "b106ecd9-a7bd-4551-bc1a-629afedb6732"
  },
  {
    "name": "HUS Data Prod Staging Carescape Readers",
    "objectId": "b16a9e2c-4d6f-421b-a8e3-27d624c662ec"
  },
  {
    "name": "TietoAllasTutkimus koronahelsinki",
    "objectId": "b18b40e3-033b-4fcd-8a33-73e1121fa63b"
  },
  {
    "name": "HUS Data Prod Published Codeserver Writers",
    "objectId": "b1c340c1-5b0c-438d-b3f4-567137425339"
  },
  {
    "name": "HUS Data Prod Storage HUSRADU Writers",
    "objectId": "b248a412-ee45-4d4d-97bc-84e58df53904"
  },
  {
    "name": "HUS Data Prod Published Apotti Referral and Waiting List Writers",
    "objectId": "b2a1e761-2688-4391-8b04-930e3efbf299"
  },
  {
    "name": "HUS Prod Probot Outbound Writers",
    "objectId": "b43f15ad-2929-43fb-8241-c23eb534a55c"
  },
  {
    "name": "HUS DataWS Prod Koronaennakointi Writers",
    "objectId": "b51b8de0-7720-4f00-a95b-2adcc6e1050e"
  },
  {
    "name": "HUS Data Prod Staging Readmission Writers",
    "objectId": "b5572f97-bd4c-4138-8113-b70033649a5a"
  },
  {
    "name": "HUS Data Prod Published Access",
    "objectId": "b57915a2-c923-451c-9cc9-3182a588ade2"
  },
  {
    "name": "HUS Data Prod Published Tilastokeskus Readers",
    "objectId": "b5a600a9-89bf-47a0-b723-a3289ca57055"
  },
  {
    "name": "HUS Data Prod Staging CressidaODS Delta Readers",
    "objectId": "b5ae8d27-c835-426c-95cd-a69941457be8"
  },
  {
    "name": "HUS Data Prod Storage HaiPro Writers",
    "objectId": "b6d6cc2e-55b9-4a0f-bf6b-74fe623edadb"
  },
  {
    "name": "HUS Data Prod Published HealthWeb Writers",
    "objectId": "b73eba82-8012-47f4-bbe4-ba7956f83017"
  },
  {
    "name": "TietoAllasTutkimus Clever health harvinaissairaudet AI PoP",
    "objectId": "b86900c3-fa6e-4c02-ae27-992d7e49f83e"
  },
  {
    "name": "TietoAllasTutkimus Babyscreen",
    "objectId": "b8cfab37-3865-478e-8a2b-5ba7c5e4dfc6"
  },
  {
    "name": "HUS Data Prod Staging Finnheart_cfmreporting Readers",
    "objectId": "b92c8eda-514f-4b97-aa8f-4bb0e0a6f8e0"
  },
  {
    "name": "HUS Data Prod Published HaiPro Readers",
    "objectId": "b9ccab3d-9fc3-4bde-a8c3-65c47a3c778d"
  },
  {
    "name": "HUS Data Prod Published Marela Readers",
    "objectId": "b9f7461f-8e88-4976-8bd8-50ba6352e907"
  },
  {
    "name": "HUS DataWS Prod Koronaennakointi Readers",
    "objectId": "ba4f2a00-6aac-4b65-a0e3-9b17b8e80cf4"
  },
  {
    "name": "HUS Data Prod Storage Mynla Writers",
    "objectId": "ba99a88b-de69-466b-a15e-e918b8a0c05c"
  },
  {
    "name": "HUS DataWS Prod Hematologia Readers",
    "objectId": "bab4adc7-0272-400a-9a1f-796df0875886"
  },
  {
    "name": "HUS Data Prod Published Apotti Extracts Readers",
    "objectId": "babfb651-36b7-4f32-8f72-59ab68345d9f"
  },
  {
    "name": "HUS Data Prod Staging Marela Readers",
    "objectId": "bb05fbb7-d7c8-4ccb-b900-ed412349b850"
  },
  {
    "name": "HUS Data Prod Staging Kaiku Readers",
    "objectId": "bd146c37-6dc5-4bdb-bbca-a8e3647fee7c"
  },
  {
    "name": "HUS Data Prod Storage Clarity Writers",
    "objectId": "be5d725e-e273-47fd-a068-5508727989d8"
  },
  {
    "name": "HUS Data Prod Storage HUSDW Writers",
    "objectId": "be5ded30-ba51-42b1-8531-a3c035d3a918"
  },
  {
    "name": "HUS DataWS Prod PEX360-PROD Readers",
    "objectId": "be8b11c1-c36f-4c85-893d-7695e2e3487d"
  },
  {
    "name": "HUS Admin Prod DXC",
    "objectId": "bf29ba43-29ad-454d-8b2c-50bb33341144"
  },
  {
    "name": "HUS Data Prod Storage Caresuite Readers",
    "objectId": "bfd6132b-86fa-4c01-b793-6bb12ff24075"
  },
  {
    "name": "HUS Data Prod Published Carescape Writers",
    "objectId": "c0128374-de46-403e-8a1f-5f4fd222beab"
  },
  {
    "name": "HUS Data Prod Published Codeserver Readers",
    "objectId": "c035675c-d7a6-4978-a387-6fa9f0c84660"
  },
  {
    "name": "HUS Data Prod Published Tilannekanta Apotti Writers",
    "objectId": "c148b449-0c34-4317-827d-375e7f913d87"
  },
  {
    "name": "HUS Data Prod Staging Ravioli Writers",
    "objectId": "c19046cd-2f86-4d30-9667-c94a62dc3bf9"
  },
  {
    "name": "HUS Data Prod Storage HUSRADU Readers",
    "objectId": "c1907b85-5643-4b2c-805d-c927bb97a277"
  },
  {
    "name": "HUS Data Prod Published MerlotMediSFTP Readers",
    "objectId": "c1d3fd31-f4e9-4046-a141-2a9016a906eb"
  },
  {
    "name": "HUS Data Prod Storage Ravioli Readers",
    "objectId": "c2217a8f-d6d4-4f47-80da-0041b7705b2c"
  },
  {
    "name": "HUS Data Prod Published Multilab Readers",
    "objectId": "c310c6ba-c7cd-40e8-b095-b2e858afb081"
  },
  {
    "name": "TietoAllasTutkimus HRUHLAB2",
    "objectId": "c48c14de-4e14-4e2f-a12b-e8d27d3a6925"
  },
  {
    "name": "HUS Data Prod Staging Virtaussytometria Readers",
    "objectId": "c4d1b7b6-d0f2-4e56-be33-bcab649edb0a"
  },
  {
    "name": "HUS Data Prod Published MerlotMedi Readers",
    "objectId": "c51161ca-444d-4485-b20d-cf6b6f92b663"
  },
  {
    "name": "HUS Data Prod Storage Opera Readers",
    "objectId": "c5334b65-2509-4848-bc12-7516a226fd3d"
  },
  {
    "name": "HUS Data Prod Published CA2 Readers",
    "objectId": "c60136bd-6003-48ee-a51c-8a9253c97252"
  },
  {
    "name": "HUS Data Prod Storage PACS Readers",
    "objectId": "c6154c08-9f79-44f8-bfbe-881987890033"
  },
  {
    "name": "HUS DataWS Prod Biopankki Readers",
    "objectId": "c650645d-629c-4e96-a5b4-1e1ee7b2081e"
  },
  {
    "name": "HUS Data Prod Published Mynla Writers",
    "objectId": "c65da613-36cb-4293-81e7-48ff6457b0e7"
  },
  {
    "name": "HUS Data Prod Staging Obstetrix Readers",
    "objectId": "c6f537ea-a6f6-40b4-99e5-9d2f147d5ce0"
  },
  {
    "name": "HUS Data Prod Published HUSRADU Readers",
    "objectId": "c707a5b5-9d77-4e60-9538-ff5a492ef4ff"
  },
  {
    "name": "HUS Data Prod Published HUSDW Writers",
    "objectId": "c7de857f-7e68-4dcf-9d4b-9e302d1d80e6"
  },
  {
    "name": "HUS DataWS Prod PEX360-PROD Writers",
    "objectId": "c94e7b5b-a99d-4157-8e1b-2c9213e4a661"
  },
  {
    "name": "HUS Data Prod Storage EPM Writers",
    "objectId": "caccd4fc-4469-4f17-8eee-3b80b245c357"
  },
  {
    "name": "HUS Data Prod Staging PACS Readers",
    "objectId": "cad13e47-4e3f-4b75-bdb1-c8534e37bf61"
  },
  {
    "name": "HUS Data Prod Storage EPM Readers",
    "objectId": "cad4cfb1-ffc2-4f26-9357-dfc5ea366e96"
  },
  {
    "name": "HUS DataWS Prod Ibrance Writers",
    "objectId": "cb3d3376-a5e1-40d5-800c-08969b0ef70b"
  },
  {
    "name": "HUS Data Prod Published HaiPro Writers",
    "objectId": "cb9cff5b-a70d-430f-ab35-a4db0dd515df"
  },
  {
    "name": "HUS DataWS Prod Hemadatalake_aic-815 Writers",
    "objectId": "cc185994-fc11-4039-b3d3-71d93cddb5b2"
  },
  {
    "name": "HUS Data Prod Storage Tilastokeskus Readers",
    "objectId": "cc1a5651-718d-41a7-a190-0ba205f9508f"
  },
  {
    "name": "HUS Data Prod Published Mustiradu Readers",
    "objectId": "cc3c9a6a-850b-4b1e-873f-eded3b5e5d79"
  },
  {
    "name": "HUS Data Prod Staging Tilastokeskus Writers",
    "objectId": "cca5c6d2-6ab3-4e87-a23f-b3dd1f341b45"
  },
  {
    "name": "TietoAllasTutkimus Aivovamma1",
    "objectId": "ccde5ec7-43af-418f-9272-fa9453bb87f3"
  },
  {
    "name": "HUS Data Prod Published Finnheart_cfmreporting Readers",
    "objectId": "ccebe3b9-bc7a-421d-b3dc-0063a99eb29f"
  },
  {
    "name": "HUSTietoallas_Subscription_admin",
    "objectId": "cd4ed1b0-52bc-49cd-8a7c-607f3a32ce3e"
  },
  {
    "name": "HUS Data Prod Staging Apotti Extracts Readers",
    "objectId": "cda5502d-d39c-482f-baf8-a7433d10e5f8"
  },
  {
    "name": "HUS Data Prod Staging Hematology_consent Readers",
    "objectId": "ce1f5983-f926-4ae1-a86d-c4a90258b002"
  },
  {
    "name": "HUS Data Prod Storage Fusion Writers",
    "objectId": "cf54420e-2b5f-409a-b085-89ee16e966bc"
  },
  {
    "name": "HUS Data Prod Staging HUSDW Writers",
    "objectId": "cfd3dd60-12c1-44fa-94cd-fb5d6696c4ff"
  },
  {
    "name": "HUS DataWS Prod 01054_HBPCovid_Findata Readers",
    "objectId": "d07d7c92-a0b1-4d65-9433-86e5da844537"
  },
  {
    "name": "HUS Data Prod Storage MerlotMedi Writers",
    "objectId": "d1fdee2c-97c7-4899-99c3-fa2facebeda4"
  },
  {
    "name": "HUS Data Prod Storage Vihta Writers",
    "objectId": "d23305ef-ebe3-4d26-b67e-02e4743a0a62"
  },
  {
    "name": "TietoAllasTutkimus HUS Tietovarasto",
    "objectId": "d324bf75-d77f-43d2-b2c0-3b826e63dd6c"
  },
  {
    "name": "HUS DataWS Prod koronahelsinki Writers",
    "objectId": "d32bc3c9-1f88-4897-beb8-99d5b770db88"
  },
  {
    "name": "HUS DataWS Prod Probot Readers",
    "objectId": "d38175f5-ed71-476b-a4cc-29d9f015edd7"
  },
  {
    "name": "TietoAllasTutkimus Subglottisen stenoosin endoskooppinen hoito",
    "objectId": "d46f0da7-cff9-4d18-8504-3bfe04a2c5f7"
  },
  {
    "name": "HUS Data Prod Published Kaiku Writers",
    "objectId": "d4cde685-9e93-4d53-af23-17045bf83763"
  },
  {
    "name": "HUS Data Prod Published Muse Writers",
    "objectId": "d5339924-7950-4a0f-9cc3-a6554ab79cfe"
  },
  {
    "name": "HUS DataWS Prod PEX360-UAT Readers",
    "objectId": "d5cbe3e8-794e-4d30-8841-ac3e68ee8448"
  },
  {
    "name": "HUS Data Prod Staging Navitas Writers",
    "objectId": "d85abf4d-3b44-48fd-a616-e0f93ab3000b"
  },
  {
    "name": "HUS Data Prod Storage MerlotMediSFTP Readers",
    "objectId": "d9236163-0c75-48ec-af5e-9ac8684def09"
  },
  {
    "name": "HUS Data Prod Published Muse Readers",
    "objectId": "d93f9c59-ea97-4987-80ec-495034cefc08"
  },
  {
    "name": "HUS Data Prod Staging HRM Writers",
    "objectId": "d96a6a3f-190f-4880-9f35-a29532418fd0"
  },
  {
    "name": "DataLakeRootAccessors",
    "objectId": "db434ddc-7bca-4622-b4ac-aabf5d93ebf9"
  },
  {
    "name": "HUS Data Prod Storage PACS Writers",
    "objectId": "db5b24fd-9928-40c5-ad5f-3fe83dfa08d7"
  },
  {
    "name": "TietoAllasTutkimus Aivovamma5",
    "objectId": "dc622f55-5fc1-4f00-a037-d853c6f823fb"
  },
  {
    "name": "HUS Data Prod Share DataOps Writers",
    "objectId": "dd428be7-575e-4445-ba98-d704f36a0464"
  },
  {
    "name": "HUS App Prod Korona-laaturekisteri DB Writers",
    "objectId": "de28815c-e41d-4cf6-a268-4f091a7e05bd"
  },
  {
    "name": "HUS Data Prod Published Noona Writers",
    "objectId": "df0b706a-34db-4415-899c-8385658b377d"
  },
  {
    "name": "HUS Data Prod Staging Finnheart_cfmreporting Writers",
    "objectId": "df8f3bb7-87bf-4eb5-a6ab-620731310bb8"
  },
  {
    "name": "HUS DataWS Prod Korona-osoitteet Readers",
    "objectId": "dfdbf277-f98a-42df-8f98-23b4c02150a9"
  },
  {
    "name": "HUS Patient Text Pseudo Access",
    "objectId": "dfe9014c-a82e-4511-bf5c-5556bcb42cb5"
  },
  {
    "name": "HUS Data Prod Published QPati Writers",
    "objectId": "e0e0631d-83b7-4c55-822b-644cbb4b6534"
  },
  {
    "name": "HUS Data Prod Staging Huskorona Readers",
    "objectId": "e1e58fc0-b5b1-4579-9f47-abef515015d4"
  },
  {
    "name": "HUS Data Prod Published Terveyskyla Writers",
    "objectId": "e2cd0e19-add5-4a29-846f-a5dbd2bef8f4"
  },
  {
    "name": "HUS Data Prod Storage Obstetrix Writers",
    "objectId": "e2ebc2de-0fd3-40b8-85fb-a2416d5af4e6"
  },
  {
    "name": "HUS Data Prod Storage Huskorona Vaestotaso Writers",
    "objectId": "e2f9a732-7ee3-46ca-8783-67d550c96930"
  },
  {
    "name": "HUS Data Prod Published Apotti Extracts Writers",
    "objectId": "e30c0b5f-c781-4b0f-b613-aa6be88847a7"
  },
  {
    "name": "HUS Data Prod Staging Mustiradu Readers",
    "objectId": "e322ae54-a870-484e-a19c-5adf04d966d4"
  },
  {
    "name": "HUS Data Prod Storage Tilastokeskus Writers",
    "objectId": "e341ab89-6fb6-4168-8c7d-5cf95222e80e"
  },
  {
    "name": "HUS Data Prod Share Helsinki Covid19 Aggregations Writers",
    "objectId": "e43574ae-05e0-49ff-8fbf-c6935f3b7df7"
  },
  {
    "name": "HUS DataWS Prod Akuutti Writers",
    "objectId": "e44283cb-682b-4b51-8af3-e1ac75f3b77f"
  },
  {
    "name": "HUS Data Prod Storage Apotti Extracts Writers",
    "objectId": "e4cded2e-6991-4259-bf4c-b93773b28a57"
  },
  {
    "name": "HUS Data Prod Published Virtaussytometria Writers",
    "objectId": "e519f72e-f1a0-431a-a04a-24aaeec9678d"
  },
  {
    "name": "HUS Data Prod Published Carea Writers",
    "objectId": "e5247d20-018d-48c8-8a2e-f679ff157056"
  },
  {
    "name": "HUS Data Prod Staging HUSRADU Writers",
    "objectId": "e56e2686-d678-4107-81de-679fe2e1c116"
  },
  {
    "name": "TietoAllasTutkimus HoitosuudenDW",
    "objectId": "e60c8095-5db5-4d6b-a17a-f110227c95fe"
  },
  {
    "name": "HUS Data Prod Storage Pilviharppi Readers",
    "objectId": "e69814fe-07bb-4996-ab2a-41a62ca04d1d"
  },
  {
    "name": "HUS Data Prod Published HRM Writers",
    "objectId": "e721e20c-3609-4311-bd9c-cefd59381a64"
  },
  {
    "name": "HUS Data Prod Staging BCB Readers",
    "objectId": "e7c8d539-eeea-4310-8e65-4187c44e6aa4"
  },
  {
    "name": "HUS Data Prod Storage MerlotMedi Readers",
    "objectId": "e7ca4c4c-7cba-4761-8b6c-8dba3d622ed6"
  },
  {
    "name": "Pseudo Service Admin",
    "objectId": "e864a088-eb73-47af-8c86-99b90dcaaae3"
  },
  {
    "name": "TietoAllasTutkimus Patient_Explorer_kayttajat",
    "objectId": "e86bd3c3-8447-44b3-85f1-a3287d5c0b96"
  },
  {
    "name": "HUS Data Prod Storage Clinisoft Writers",
    "objectId": "e8ce2d1c-f3bf-45a3-8488-603732994e54"
  },
  {
    "name": "Intellispace-tu-RDP-admins",
    "objectId": "e8fd0e51-6b9a-4cdb-8484-1d0358052bf4"
  },
  {
    "name": "HUS Data Prod Staging Asiakaspalaute Readers",
    "objectId": "e96f14af-2092-4eea-920b-a1309fb4722c"
  },
  {
    "name": "HUS Data Prod Root Access",
    "objectId": "e9b16003-d7aa-414e-9eab-face142878e2"
  },
  {
    "name": "HUS Data Prod Published Readmission Readers",
    "objectId": "e9ea42b8-41f8-4fce-9293-3e1221621547"
  },
  {
    "name": "HUS Data Prod Storage TEHO Benchmarking Writers",
    "objectId": "ea350479-23da-44a7-ada4-a8fa98bc5e7e"
  },
  {
    "name": "HUS Data Prod Staging Multilab Writers",
    "objectId": "eb20eeb1-145c-4b91-be18-91efa9c9e122"
  },
  {
    "name": "HUS Data Prod Staging TEHO Benchmarking Writers",
    "objectId": "eb936cd5-30ad-4652-8298-2fa15747196d"
  },
  {
    "name": "HUS Data Prod Storage Clinisoft Readers",
    "objectId": "ebd92aee-9d66-4f07-93a9-4ad9961c3f0b"
  },
  {
    "name": "HUS Data Prod Published Mustiradu Writers",
    "objectId": "ec0add67-82bc-4fe6-bfa8-71248d4e42d7"
  },
  {
    "name": "HUS Data Prod Storage Finnheart_cfmreporting Readers",
    "objectId": "ed868b3d-a6a9-42af-9c55-c169ee58ca04"
  },
  {
    "name": "HUS Data Prod Staging Fusion Readers",
    "objectId": "ed946c56-3b95-4feb-9f41-8dbe49b4a46e"
  },
  {
    "name": "HUS DataWS Prod MedEngine Readers",
    "objectId": "ee11444d-9d38-4058-804c-00a6aebbf7e1"
  },
  {
    "name": "TietoAllasTutkimus Rasvamaksa",
    "objectId": "ee1c68be-370e-4a5a-90d3-9a09b069e128"
  },
  {
    "name": "HUS Data Prod Storage HealthWeb Writers",
    "objectId": "ef0101cc-d985-4970-97c1-ffd37b862b11"
  },
  {
    "name": "HUS Data Prod Staging IDM Writers",
    "objectId": "ef552cfb-13fc-488b-83b9-67b491488fe4"
  },
  {
    "name": "HUS Data Prod Published Finnheart_cfmreporting Writers",
    "objectId": "ef7d054a-4a1b-4690-a4b6-8e9ec4af5954"
  },
  {
    "name": "HUS Data Prod Storage Mustiradu Writers",
    "objectId": "efcacb87-b02d-41c0-9f84-efe022d5ba54"
  },
  {
    "name": "HUS DataWS Prod Covid19 Helsinki Share Readers",
    "objectId": "f05acd33-14b5-49c5-9ddb-e286ab9dbd4c"
  },
  {
    "name": "HUS Data Prod Published Navitas Writers",
    "objectId": "f0838a76-f1d9-4056-ae77-1c20c48481c7"
  },
  {
    "name": "TietoAllasTutkimus eCare4Me",
    "objectId": "f124fd9c-2cf9-4fd5-87bc-66d2bfb4ad8c"
  },
  {
    "name": "HUS Data Prod Published Virtaussytometria Readers",
    "objectId": "f1b19da8-0626-49c7-ba2d-34bb74ef0c42"
  },
  {
    "name": "HUS Data Prod Published DataOps Writers",
    "objectId": "f2141fc8-d0fe-49a5-962a-0386501bec96"
  },
  {
    "name": "HUS Data Prod Published XDS Writers",
    "objectId": "f3417600-6442-4a1c-a02e-40249a0b19b0"
  },
  {
    "name": "TietoAllas Tieto paakayttaja",
    "objectId": "f3923dd3-a47b-4f32-8d90-61da895fdbf3"
  },
  {
    "name": "HUS Data Prod Storage Carescape Readers",
    "objectId": "f3aae953-f920-4440-9ba8-bda69453cc16"
  },
  {
    "name": "HUS Data Prod Staging CA2 Readers",
    "objectId": "f4139416-87d4-4cfb-9ef3-4e89e212f750"
  },
  {
    "name": "HUS Data Prod Storage Terveyskyla Writers",
    "objectId": "f4a09124-b9e2-4c07-9e7f-9efa42bfe27d"
  },
  {
    "name": "HUS Data Prod Published CA2 Writers",
    "objectId": "f59d6d43-f93d-4b6c-9ed0-1e090950ba39"
  },
  {
    "name": "HUS DataWS Prod OMOP Writers",
    "objectId": "f697c185-10bc-4986-8702-3976eed1948e"
  },
  {
    "name": "HUS Data Prod Staging HaiPro Writers",
    "objectId": "f866ea31-23c3-40d2-a846-e261f46efc5e"
  },
  {
    "name": "TietoAllas BI Kayttaja",
    "objectId": "f8aa2435-4134-4ab2-9221-c4b07a3ca59b"
  },
  {
    "name": "HUS DataWS Prod HUSLAB Writers",
    "objectId": "f98e3939-098c-4463-a537-a9f1979919bf"
  },
  {
    "name": "HUS DataWS Prod BiopankkiDL Writers",
    "objectId": "f9b018bf-0849-4220-9d1d-5c24b4982de9"
  },
  {
    "name": "HUS DataWS Prod Ibrance Readers",
    "objectId": "fa2974cb-e2d7-4547-ae7b-c4f2a5c7bd32"
  },
  {
    "name": "HUS Data Prod Storage Huskorona Writers",
    "objectId": "faaff253-baff-4e79-bc80-a9f801684da1"
  },
  {
    "name": "HUS Data Prod Staging Pilviharppi Writers",
    "objectId": "fac85621-5b26-4fdb-b7f8-e3f47bc5acd5"
  },
  {
    "name": "HUS Data Prod Staging Readmission Readers",
    "objectId": "fb12e4cb-fedd-41e7-9a64-8dc98b7fdcfe"
  },
  {
    "name": "HUS Data Prod Storage Datawell Readers",
    "objectId": "fbe9425f-a840-41f2-a3a6-78f8d0a1983d"
  },
  {
    "name": "HUS DataWS Prod AITeam Readers",
    "objectId": "fe500b87-bba9-4b15-a67c-ca6c37ec6285"
  },
  {
    "name": "AAD DC Administrators",
    "objectId": "feb5d1f4-6d4b-4b58-a810-d82fd47c3056"
  },
  {
    "name": "HUS Data Prod Storage Marela Readers",
    "objectId": "ff83c893-26f8-4a98-9ea9-d08c3d95b51e"
  },
  {
    "name": "HUS Data Prod Storage Ravioli Writers",
    "objectId": "ffb7267a-5659-4ed6-b403-021c268d92ab"
  }
]
